{
\空欄 run(\空欄 c, \空欄 length)
____int i;
____for(i = \空欄; \空欄; i++)
________printf("\空欄", c);
int main()
____int i;
____int input;
____while(input \空欄)
________printf("正の整数: ");
________scanf("\空欄", \空欄);
____for(i = \空欄; \空欄; i++)
________printf("\空欄: ", i);
________run(' ', \空欄);
________run('*', \空欄);
________printf("\空欄");
}
