goshima,1573719467,,449,0,0,0,0,0,0,0,0,0,0,0,0,0,0,0,0,0,0,0,0,0,0,0,0,0,0,0,0,0,0,0,0,0,0,0,0,0,0,0,0,0,0,0,0,0
goshima,1573719472,,949,0,0,0,0,0,0,0,0,0,0,0,0,0,0,0,0,0,0,0,0,0,0,0,0,0,0,0,0,0,0,0,0,0,0,0,0,0,0,0,0,0,0,0,0,0
goshima,1573719477,,1449,0,0,0,0,0,0,0,0,0,0,0,0,0,0,0,0,0,0,0,0,0,0,0,0,0,0,0,0,0,0,0,0,0,0,0,0,0,0,0,0,0,0,0,0,0
goshima,1573719482,,1949,0,0,0,0,0,0,0,0,0,0,0,0,0,0,0,0,0,0,0,0,0,0,0,0,0,0,0,0,0,0,0,0,0,0,0,0,0,0,0,0,0,0,0,0,0
goshima,1573719487,,2410,39,0,0,0,0,0,0,0,0,0,0,0,0,0,0,0,0,0,0,0,0,0,0,0,0,0,0,0,0,0,0,0,0,0,0,0,0,0,0,0,0,0,0,0,0
goshima,1573719492,,2410,539,0,0,0,0,0,0,0,0,0,0,0,0,0,0,0,0,0,0,0,0,0,0,0,0,0,0,0,0,0,0,0,0,0,0,0,0,0,0,0,0,0,0,0,0
goshima,1573719497,,2410,1039,0,0,0,0,1,0,0,0,0,0,0,0,0,0,0,0,0,0,0,0,0,0,0,0,0,0,0,0,0,0,0,0,0,0,0,0,0,0,0,0,0,0,0,0
goshima,1573719502,"{
int main()
}
",2410,1538,0,0,0,0,2,0,0,0,0,0,0,0,0,0,0,0,0,0,0,0,0,0,0,0,0,0,0,0,0,0,0,0,0,0,0,0,0,0,0,0,0,0,0,0
goshima,1573719507,"{
int main()
}
",2552,1894,0,0,0,0,2,0,0,0,0,0,0,0,0,0,0,0,0,0,0,0,0,0,0,0,0,0,0,0,0,0,0,0,0,0,0,0,0,0,0,0,0,0,0,0
goshima,1573719512,"{
int main()
}
",3052,1894,0,0,0,0,2,0,0,0,0,0,0,0,0,0,0,0,0,0,0,0,0,0,0,0,0,0,0,0,0,0,0,0,0,0,0,0,0,0,0,0,0,0,0,0
goshima,1573719517,"{
int main()
}
",3552,1894,0,0,0,0,2,0,0,0,0,0,0,0,0,0,0,0,0,0,0,0,0,0,0,0,0,0,0,0,0,0,0,0,0,0,0,0,0,0,0,0,0,0,0,0
goshima,1573719522,"{
int main()
}
",4052,1894,0,0,0,0,2,0,0,0,0,0,0,0,0,0,0,0,0,0,0,0,0,0,0,0,0,0,0,0,0,0,0,0,0,0,0,0,0,0,0,0,0,0,0,0
goshima,1573719527,"{
int main()
}
",4552,1894,0,0,0,0,2,0,0,0,0,0,0,0,0,0,0,0,0,0,0,0,0,0,0,0,0,0,0,0,0,0,0,0,0,0,0,0,0,0,0,0,0,0,0,0
goshima,1573719532,"{
int main()
}
",5052,1894,0,0,0,0,2,0,0,0,0,0,0,0,0,0,0,0,0,0,0,0,0,0,0,0,0,0,0,0,0,0,0,0,0,0,0,0,0,0,0,0,0,0,0,0
goshima,1573719537,"{
int main()
}
",5228,2217,0,0,0,0,2,0,0,0,0,0,0,0,0,0,0,0,1,0,0,0,0,0,0,0,0,0,0,0,0,0,0,0,0,0,0,0,0,0,0,0,0,0,0,0
goshima,1573719542,"{
int main()
run('*', );
}
",5387,2556,0,0,0,0,2,0,0,0,0,0,0,0,0,0,0,0,1,0,0,0,0,0,0,0,0,0,0,0,0,0,0,0,0,0,0,0,0,0,0,0,0,0,0,0
goshima,1573719547,"{
int main()
run('*', );
}
",5417,3026,0,0,0,0,2,0,0,0,0,0,0,0,0,0,0,0,1,0,0,0,0,0,0,0,0,0,0,0,0,0,0,0,0,0,0,0,0,0,0,0,0,0,0,0
goshima,1573719552,"{
int main()
run('*', );
}
",5417,3526,0,0,0,0,2,0,0,0,0,0,0,0,0,0,0,0,1,0,0,0,0,0,0,0,0,0,0,0,0,0,0,0,0,0,0,0,0,0,0,0,0,0,0,0
goshima,1573719557,"{
int main()
}
",5417,4026,0,0,0,0,2,0,0,0,0,0,0,0,0,0,0,0,2,0,0,0,0,0,0,0,0,0,0,0,0,0,0,0,0,0,0,0,0,0,0,0,0,0,0,0
goshima,1573719562,"{
int main()
}
",5417,4526,0,0,0,0,2,0,0,0,0,0,0,0,0,0,0,0,2,0,0,0,0,0,0,0,0,0,0,0,0,0,0,0,0,0,0,0,0,0,0,0,0,0,0,0
goshima,1573719567,"{
int main()
}
",5417,5026,0,0,0,0,2,0,0,0,0,0,0,0,0,0,0,0,2,0,0,0,0,0,0,0,0,0,0,0,0,0,0,0,0,0,0,0,0,0,0,0,0,0,0,0
goshima,1573719572,"{
int main()
 run( c,  length)
}
",5417,5526,0,0,0,0,2,0,0,0,0,0,0,0,0,0,0,0,2,0,0,0,0,0,0,0,0,0,0,0,1,0,0,0,0,0,0,0,0,0,0,0,0,0,0,0
goshima,1573719577,"{
int main()
 run( c,  length)
}
",5417,6026,0,0,0,0,2,0,0,0,0,0,0,0,0,0,0,0,2,0,0,0,0,0,0,0,0,0,0,0,1,6260,0,0,0,0,0,0,0,0,0,0,0,0,0,0
goshima,1573719582,"{
int main()
 run( c,  length)
}
",5677,6265,0,0,0,0,2,0,0,0,0,0,0,0,0,0,0,0,2,0,0,0,0,0,0,0,0,0,0,0,1,6260,0,0,0,0,0,0,0,0,0,0,0,0,0,0
goshima,1573719587,"{
int main()
 run( c,  length)
}
",6177,6265,0,0,0,0,2,0,0,0,0,0,0,0,0,0,0,0,2,0,0,0,0,0,0,0,0,0,0,0,1,6260,0,0,0,0,0,0,0,0,0,0,0,0,0,0
goshima,1573719592,"{
int main()
 run( c,  length)
}
",6677,6265,0,0,0,0,2,0,0,0,0,0,0,0,0,0,0,0,2,0,0,0,0,0,0,0,0,0,0,0,1,6260,0,0,0,0,0,0,0,0,0,0,0,0,0,0
goshima,1573719597,"{
int main()
 run( c,  length)
}
",7177,6265,0,0,0,0,2,0,0,0,0,0,0,0,0,0,0,0,2,0,0,0,0,0,0,0,0,0,0,0,1,6260,0,0,0,0,0,0,0,0,0,0,0,0,0,0
goshima,1573719602,"{
int main()
 run( c,  length)
}
",7677,6265,0,0,0,0,2,0,0,0,0,0,0,0,0,0,0,0,2,0,0,0,0,0,0,0,0,0,0,0,1,6260,0,0,0,0,0,0,0,0,0,0,0,0,0,0
goshima,1573719607,"{
int main()
 run( c,  length)
}
",8177,6265,0,0,0,0,2,0,0,0,0,0,0,0,0,0,0,0,2,0,0,0,0,0,0,0,0,0,0,0,1,6260,0,0,0,0,0,0,0,0,0,0,0,0,0,0
goshima,1573719612,"{
int main()
 run( c,  length)
}
",8330,6609,0,0,0,0,2,0,0,0,0,0,0,0,0,0,0,0,2,0,0,0,0,0,0,0,0,0,0,0,1,6260,0,0,0,0,0,0,0,0,0,0,0,0,0,0
goshima,1573719617,"{
int main()
 run( c,  length)
}
",8330,7109,0,0,0,0,2,0,0,0,0,0,0,0,0,0,0,0,2,0,0,0,0,0,0,0,0,0,0,0,1,6260,0,0,0,0,0,0,0,0,0,0,0,0,0,0
goshima,1573719622,"{
int main()
 run( c,  length)
}
",8330,7609,0,0,0,0,2,0,0,0,0,0,0,0,0,0,0,0,2,0,0,0,0,0,0,0,0,0,0,0,1,6260,0,0,0,0,0,0,0,0,0,0,0,0,0,0
goshima,1573719627,"{
int main()
 run( c,  length)
}
",8330,8109,0,0,0,0,2,0,0,0,0,0,0,0,0,0,0,0,2,0,0,0,0,0,0,0,0,0,0,0,1,6260,0,0,0,0,0,0,0,0,0,0,0,0,0,0
goshima,1573719632,"{
int main()
 run( c,  length)
}
",8622,8317,0,0,0,0,2,0,0,0,0,0,0,0,0,0,0,0,2,0,0,0,0,0,0,0,0,0,0,0,1,6260,0,0,0,0,0,0,0,0,0,0,0,0,0,0
goshima,1573719637,"{
int main()
 run( c,  length)
}
",9122,8317,0,0,0,0,2,0,0,0,0,0,0,0,0,0,0,0,2,0,0,0,0,0,0,0,0,0,0,0,1,6260,0,0,0,0,0,0,0,0,0,0,0,0,0,0
goshima,1573719642,"{
int main()
 run( c,  length)
}
",9622,8317,0,0,0,0,2,0,0,0,0,0,0,0,0,0,0,0,2,0,0,0,0,0,0,0,0,0,0,0,1,6260,0,0,0,0,0,0,0,0,0,0,0,0,0,0
goshima,1573719647,"{
int main()
 run( c,  length)
}
",10122,8317,0,0,0,0,2,0,0,0,0,0,0,0,0,0,0,0,2,0,0,0,0,0,0,0,0,0,0,0,1,6260,0,0,0,0,0,0,0,0,0,0,0,0,0,0
goshima,1573719652,"{
int main()
 run( c,  length)
}
",10622,8317,0,0,0,0,2,0,0,0,0,0,0,0,0,0,0,0,2,0,0,0,0,0,0,0,0,0,0,0,1,6260,0,0,0,0,0,0,0,0,0,0,0,0,0,0
goshima,1573719657,"{
int main()
 run( c,  length)
}
",11122,8317,0,0,0,0,2,0,0,0,0,0,0,0,0,0,0,0,2,0,0,0,0,0,0,0,0,0,0,0,1,6260,0,0,0,0,0,0,0,0,0,0,0,0,0,0
goshima,1573719662,"{
int main()
____int input;
 run( c,  length)
}
",11305,8631,0,0,0,0,2,0,0,0,1,0,0,0,0,0,0,0,2,0,0,0,0,0,0,0,0,0,0,0,1,6260,0,0,0,0,0,0,0,0,0,0,0,0,0,0
goshima,1573719667,"{
int main()
____int input;
 run( c,  length)
}
",11305,9131,0,0,0,0,2,0,0,0,1,0,0,0,0,0,1,0,2,0,0,0,0,0,0,0,0,0,0,0,1,6260,0,0,0,0,0,0,0,0,0,0,0,0,0,0
goshima,1573719672,"{
int main()
____int input;
____printf(""正の整数: "");
 run( c,  length)
}
",11305,9630,0,0,0,0,2,0,0,0,1,0,0,0,0,0,1,4480,2,0,0,0,0,0,0,0,0,0,0,0,1,6260,0,0,0,0,0,0,0,0,0,0,0,0,0,0
goshima,1573719677,"{
int main()
____int input;
____printf(""正の整数: "");
____printf("""", input);
 run( c,  length)
}
",11305,10129,0,0,0,0,2,0,0,0,1,0,0,0,0,0,1,4480,2,0,1,0,0,0,0,0,0,0,0,0,1,6260,0,0,0,0,0,0,0,0,0,0,0,0,0,0
goshima,1573719682,"{
int main()
____int input;
____printf(""正の整数: "");
____printf("""", input);
 run( c,  length)
}
",11305,10629,0,0,0,0,2,0,0,0,1,0,0,0,0,0,1,4480,2,0,1,0,0,0,0,0,0,0,0,0,1,6260,0,0,0,0,0,0,0,0,0,0,0,0,0,0
goshima,1573719687,"{
int main()
____int input;
____printf(""正の整数: "");
____printf("""", input);
 run( c,  length)
}
",11305,11129,0,0,0,0,2,0,0,0,1,0,0,0,0,0,1,4480,2,0,1,4460,0,0,0,0,0,0,0,0,1,6260,0,0,0,0,0,0,0,0,0,0,0,0,0,0
goshima,1573719692,"{
int main()
____int input;
____printf(""正の整数: "");
____printf("""", input);
 run( c,  length)
}
",11305,11629,0,0,0,0,2,0,0,0,1,0,0,0,0,0,1,4480,2,0,1,4460,0,0,0,0,0,0,0,0,1,6260,0,0,0,0,0,0,0,0,0,0,0,0,0,0
goshima,1573719697,"{
int main()
____int input;
____printf(""正の整数: "");
____printf("""", input);
 run( c,  length)
}
",11305,12129,0,0,0,0,2,0,0,0,1,0,0,0,0,0,1,4480,2,0,1,4460,0,0,0,0,0,0,0,0,1,6260,0,0,0,0,0,0,0,0,0,0,0,0,0,0
goshima,1573719702,"{
int main()
____int input;
____printf(""正の整数: "");
____printf("""", input);
 run( c,  length)
}
",11305,12629,0,0,0,0,2,0,0,0,1,0,0,0,0,0,1,4480,2,0,1,4460,0,0,0,0,0,0,0,0,1,6260,0,0,0,0,0,0,0,0,0,0,0,0,0,0
goshima,1573719707,"{
int main()
____int input;
____printf(""正の整数: "");
 run( c,  length)
}
",11305,13126,0,0,0,0,2,0,0,0,1,0,0,0,0,0,1,4480,2,0,2,4460,0,0,0,0,0,0,1,0,1,6260,0,0,0,0,0,0,0,0,0,0,0,0,0,0
goshima,1573719712,"{
int main()
____int input;
____printf(""正の整数: "");
____scanf("""", );
 run( c,  length)
}
",11305,13624,0,0,0,0,2,0,0,0,1,0,0,0,0,0,1,4480,2,0,2,4460,0,0,0,0,0,0,1,0,1,6260,1,0,0,0,0,0,0,0,0,0,0,0,0,0
goshima,1573719717,"{
int main()
____int input;
____printf(""正の整数: "");
____scanf("""", );
 run( c,  length)
}
",11305,14124,0,0,0,0,2,0,0,0,1,0,0,0,0,0,1,4480,2,0,2,4460,0,0,0,0,0,0,1,0,1,6260,1,4488,0,0,0,0,0,0,0,0,0,0,0,0
goshima,1573719722,"{
int main()
____int input;
____printf(""正の整数: "");
____scanf("""", );
 run( c,  length)
}
",11305,14624,0,0,0,0,2,0,0,0,1,0,0,0,0,0,1,4480,2,0,2,4460,0,0,0,0,0,0,1,0,1,6260,1,6856,0,0,0,0,0,0,0,0,0,0,0,0
goshima,1573719727,"{
int main()
____int input;
____printf(""正の整数: "");
____scanf(""%d
"", );
 run( c,  length)
}
",11305,15124,0,0,0,0,2,0,0,0,1,0,0,0,0,0,1,4480,2,0,2,4460,0,0,0,0,0,0,1,0,1,6260,1,6856,0,0,0,0,0,0,0,0,0,0,0,0
goshima,1573719732,"{
int main()
____int input;
____printf(""正の整数: "");
____scanf(""%d
"", );
 run( c,  length)
}
",11305,15624,0,0,0,0,2,0,0,0,1,0,0,0,0,0,1,4480,2,0,2,4460,0,0,0,0,0,0,1,0,1,6260,1,6856,0,0,0,0,0,0,0,0,0,0,0,0
goshima,1573719737,"{
int main()
____int input;
____printf(""正の整数: "");
____scanf(""%d
"", &input);
 run( c,  length)
}
",11384,16045,0,0,0,0,2,0,0,0,1,0,0,0,0,0,1,4480,2,0,2,4460,0,0,0,0,0,0,1,0,1,6260,1,6856,0,0,0,0,0,0,0,0,0,0,0,0
goshima,1573719742,"{
int main()
____int input;
____printf(""正の整数: "");
____scanf(""%d
"", &input);
 run( c,  length)
}
",11884,16045,0,0,0,0,2,0,0,0,1,0,0,0,0,0,1,4480,2,0,2,4460,0,0,0,0,0,0,1,0,1,6260,1,6856,0,0,0,0,0,0,0,0,0,0,0,0
goshima,1573719747,"{
int main()
____int input;
____printf(""正の整数: "");
____scanf(""%d
"", &input);
 run( c,  length)
}
",12076,16352,0,0,0,0,2,0,0,0,1,0,0,0,0,0,1,4480,2,0,2,4460,0,0,0,0,0,0,1,0,1,6260,1,6856,0,0,0,0,0,0,0,0,0,0,0,0
goshima,1573719752,"{
int main()
____int input;
____printf(""正の整数: "");
____scanf(""%d
"", &input);
 run( c,  length)
}
",12076,16852,0,0,0,0,2,0,0,0,1,0,0,0,0,0,1,4480,2,0,2,4460,0,0,0,0,0,0,1,0,1,6260,1,6856,0,0,0,0,0,0,0,0,0,0,0,0
goshima,1573719757,"{
int main()
____int input;
____printf(""正の整数: "");
____scanf(""%d
"", &input);
 run( c,  length)
}
",12076,17352,0,0,0,0,2,0,0,0,1,0,0,0,0,0,1,4480,2,0,2,4460,0,0,0,0,0,0,1,0,1,6260,1,6856,0,0,0,0,0,0,0,0,0,0,0,0
goshima,1573719762,"{
int main()
____int input;
____printf(""正の整数: "");
____scanf(""%d
"", &input);
 run( c,  length)
}
",12076,17852,0,2462,0,0,2,0,0,0,1,0,0,0,0,0,1,4480,2,0,2,4460,0,0,0,0,0,0,1,0,1,6260,1,6856,0,0,0,0,0,0,0,0,0,0,0,0
goshima,1573719767,"{
int main()
____int input;
____printf(""正の整数: "");
____scanf(""%d
"", &input);
 run( c,  length)
}
",12076,18352,0,2462,0,0,2,0,0,0,1,0,0,0,0,0,1,4480,2,0,2,4460,0,0,0,0,0,0,1,0,1,6260,1,6856,0,0,0,0,0,0,0,0,0,0,0,0
goshima,1573719772,"{
int main()
____int input;
____printf(""正の整数: "");
____scanf(""%d
"", &input);
 run( c,  length)
}
",12076,18852,0,2462,0,0,2,0,0,0,1,0,0,0,0,0,1,4480,2,0,2,4460,0,0,0,0,0,0,1,0,1,6260,1,6856,0,0,0,0,0,0,0,0,0,0,0,0
goshima,1573719777,"{
int main()
____int input;
____printf(""正の整数: "");
____scanf(""%d
"", &input);
 run( c,  length)
}
",12076,19352,0,2462,0,0,2,0,0,0,1,0,0,0,0,0,1,4480,2,0,2,4460,0,0,0,0,0,0,1,0,1,6260,1,6856,0,0,0,0,0,0,0,0,0,0,0,0
goshima,1573719782,"{
int main()
____int input;
____printf(""正の整数: "");
____scanf(""%d
"", &input);
 run( c,  length)
}
",12076,19852,0,2462,0,0,2,0,0,0,1,0,0,0,0,0,1,4480,2,0,2,4460,0,0,0,0,0,0,1,0,1,6260,1,6856,0,0,0,0,0,0,0,0,0,0,0,0
goshima,1573719787,"{
int main()
____int input;
____printf(""正の整数: "");
____scanf(""%d
"", &input);
 run( c,  length)
}
",12076,20352,0,2462,0,0,2,0,0,0,1,0,0,0,0,0,1,4480,2,0,2,4460,0,0,0,0,0,0,1,0,1,6260,1,6856,0,0,0,0,0,0,0,0,0,0,0,0
goshima,1573719792,"{
int main()
____int input;
____printf(""正の整数: "");
____scanf(""%d
"", &input);
 run( c,  length)
}
",12076,20852,0,2462,0,0,2,0,0,2276,1,0,0,0,0,0,1,4480,2,0,2,4460,0,0,0,0,0,0,1,0,1,6260,1,6856,0,0,0,0,0,0,0,0,0,0,0,0
goshima,1573719797,"{
int main()
____int input;
____printf(""正の整数: "");
____scanf(""%d
"", &input);
 run( c,  length)
}
",12302,21125,0,2462,0,0,2,0,0,2276,1,0,0,0,0,0,1,4480,2,0,2,4460,0,0,0,0,0,0,1,0,1,6260,1,6856,0,0,0,0,0,0,0,0,0,0,0,0
goshima,1573719802,"{
int main()
____int input;
____printf(""正の整数: "");
____scanf(""%d
"", &input);
 run( c,  length)
}
",12802,21125,0,2462,0,0,2,0,0,2276,1,0,0,0,0,0,1,4480,2,0,2,4460,0,0,0,0,0,0,1,0,1,6260,1,6856,0,0,0,0,0,0,0,0,0,0,0,0
goshima,1573719807,"{
int main()
____int input;
____printf(""正の整数: "");
____scanf(""%d
"", &input);
 run( c,  length)
}
",13302,21125,0,2462,0,0,2,0,0,2276,1,0,0,0,0,0,1,4480,2,0,2,4460,0,0,0,0,0,0,1,0,1,6260,1,6856,0,0,0,0,0,0,0,0,0,0,0,0
goshima,1573719812,"{
int main()
____int input;
____printf(""正の整数: "");
____scanf(""%d
"", &input);
 run( c,  length)
}
",13802,21125,0,2462,0,0,2,0,0,2276,1,0,0,0,0,0,1,4480,2,0,2,4460,0,0,0,0,0,0,1,0,1,6260,1,6856,0,0,0,0,0,0,0,0,0,0,0,0
goshima,1573719817,"{
int main()
____int input;
____printf(""正の整数: "");
____scanf(""%d
"", &input);
 run( c,  length)
}
",14302,21125,0,2462,0,0,2,0,0,2276,1,0,0,0,0,0,1,4480,2,0,2,4460,0,0,0,0,0,0,1,0,1,6260,1,6856,0,0,0,0,0,0,0,0,0,0,0,0
goshima,1573719822,"{
int main()
____int input;
____printf(""正の整数: "");
____scanf(""%d
"", &input);
 run( c,  length)
}
",14800,21125,0,2462,0,0,2,0,0,2276,1,0,0,0,0,0,1,4480,2,0,2,4460,0,0,0,0,0,0,1,0,1,6260,1,6856,0,0,0,0,0,0,0,0,0,0,0,0
goshima,1573719827,"{
int main()
____int input;
____printf(""正の整数: "");
____scanf(""%d
"", &input);
 run( c,  length)
}
",15299,21125,0,2462,0,0,2,0,0,2276,1,0,0,0,0,0,1,4480,2,0,2,4460,0,0,0,0,0,0,1,0,1,6260,1,6856,0,0,0,0,0,0,0,0,0,0,0,0
goshima,1573719832,"{
int main()
____int input;
____printf(""正の整数: "");
____scanf(""%d
"", &input);
 run( c,  length)
}
",15799,21125,0,2462,0,0,2,0,0,2276,1,0,0,0,0,0,1,4480,2,0,2,4460,0,0,0,0,0,0,1,0,1,6260,1,6856,0,0,0,0,0,0,0,0,0,0,0,0
goshima,1573719837,"{
int main()
____int input;
____printf(""正の整数: "");
____scanf(""%d
"", &input);
 run( c,  length)
}
",16299,21125,0,2462,0,0,2,0,0,2276,1,0,0,0,0,0,1,4480,2,0,2,4460,0,0,0,0,0,0,1,0,1,6260,1,6856,0,0,0,0,0,0,0,0,0,0,0,0
goshima,1573719842,"{
int main()
____int input;
____printf(""正の整数: "");
____scanf(""%d
"", &input);
 run( c,  length)
}
",16799,21125,0,2462,0,0,2,0,0,2276,1,0,0,0,0,0,1,4480,2,0,2,4460,0,0,0,0,0,0,1,0,1,6260,1,6856,0,0,0,0,0,0,0,0,0,0,0,0
goshima,1573719847,"{
int main()
____int input;
____printf(""正の整数: "");
____scanf(""%d
"", &input);
 run( c,  length)
}
",17299,21125,0,17341,0,0,2,0,0,2276,1,0,0,0,0,0,1,4480,2,0,2,4460,0,0,0,0,0,0,1,0,1,6260,1,6856,0,0,0,0,0,0,0,0,0,0,0,0
goshima,1573719852,"{
int main()
____int input;
____printf(""正の整数: "");
____scanf(""%d
"", &input);
 run( c,  length)
}
",17799,21125,0,17341,0,4623,2,0,0,2276,1,0,0,0,0,0,1,4480,2,0,2,4460,0,0,0,0,0,0,1,0,1,6260,1,6856,0,0,0,0,0,0,0,0,0,0,0,0
goshima,1573719857,"{
int main()
____int input;
____printf(""正の整数: "");
____scanf(""%d
"", &input);
 run( c,  length)
}
",18298,21125,0,17341,0,4623,2,0,0,2276,1,0,0,0,0,0,1,4480,2,0,2,4460,0,0,0,0,0,0,1,0,1,6260,1,6856,0,0,0,0,0,0,0,0,0,0,0,0
goshima,1573719862,"{
int main()
____int input;
____printf(""正の整数: "");
____scanf(""%d
"", &input);
 run( c,  length)
}
",18797,21125,0,17341,0,4623,2,0,0,2276,1,0,0,0,0,0,1,4480,2,0,2,4460,0,0,0,0,0,0,1,0,1,6260,1,6856,0,0,0,0,0,0,0,0,0,0,0,0
goshima,1573719867,"{
int main()
____int input;
____printf(""正の整数: "");
____scanf(""%d
"", &input);
 run( c,  length)
}
",19096,21325,0,17341,0,4623,2,0,0,2276,1,0,0,0,0,0,1,4480,2,7567,2,4460,0,0,0,0,0,0,1,0,1,6260,1,6856,0,0,0,0,0,0,0,0,0,0,0,0
goshima,1573719872,"{
int main()
____int input;
____printf(""正の整数: "");
____scanf(""%d
"", &input);
 run( c,  length)
}
",19096,21825,0,17341,0,4623,2,0,0,2276,1,0,0,0,0,0,1,4480,2,7567,2,4460,0,0,0,0,0,0,1,0,1,6260,1,6856,0,0,0,0,0,0,0,0,0,0,0,0
goshima,1573719877,"{
int main()
____int input;
____printf(""正の整数: "");
____scanf(""%d
"", &input);
void run( c,  length)
}
",19388,22031,0,17341,0,4623,2,0,0,2276,1,0,0,0,0,0,1,4480,2,7567,2,4460,0,0,0,0,0,0,1,0,1,6260,1,6856,0,0,0,0,0,0,0,0,0,0,0,0
goshima,1573719882,"{
int main()
____int input;
____printf(""正の整数: "");
____scanf(""%d
"", &input);
void run( c,  length)
}
",19479,22439,0,17341,0,4623,2,0,0,2276,1,0,0,0,0,0,1,4480,2,7567,2,4460,0,0,0,0,0,0,1,0,1,6260,1,6856,0,0,0,0,0,0,0,0,0,0,0,0
goshima,1573719887,"{
int main()
____int input;
____printf(""正の整数: "");
____scanf(""%d
"", &input);
void run(char c,  length)
}
",19479,22938,0,17341,0,4623,2,0,0,2276,1,0,0,0,0,0,1,4480,2,7567,2,4460,0,0,0,0,0,0,1,0,1,6260,1,6856,0,0,0,0,0,0,0,0,0,0,0,0
goshima,1573719892,"{
int main()
____int input;
____printf(""正の整数: "");
____scanf(""%d
"", &input);
void run(char c,  length)
}
",19479,23437,0,17341,0,4623,2,0,0,2276,1,0,0,0,0,0,1,4480,2,7567,2,4460,0,0,0,0,0,0,1,0,1,6260,1,6856,0,0,0,0,0,0,0,0,0,0,0,0
goshima,1573719897,"{
int main()
____int input;
____printf(""正の整数: "");
____scanf(""%d
"", &input);
void run(char c,  length)
}
",19479,23937,0,17341,0,4623,2,0,0,2276,1,0,0,0,0,0,1,4480,2,7567,2,4460,0,0,0,0,0,0,1,0,1,6260,1,6856,0,0,0,0,0,0,0,0,0,0,0,0
goshima,1573719902,"{
int main()
____int input;
____printf(""正の整数: "");
____scanf(""%d
"", &input);
void run(char c,  length)
}
",19479,24435,0,17341,0,4623,2,0,0,2276,1,0,0,0,0,0,1,4480,2,7567,2,4460,0,0,0,0,0,0,1,0,1,6260,1,6856,0,0,0,0,0,0,0,0,0,0,0,0
goshima,1573719907,"{
int main()
____int input;
____printf(""正の整数: "");
____scanf(""%d
"", &input);
void run(char c,  length)
}
",19479,24935,0,17341,0,4623,2,0,0,2276,1,0,0,0,0,0,1,4480,2,7567,2,4460,0,0,0,0,0,0,1,0,1,6260,1,6856,0,0,0,0,0,0,0,0,0,0,0,0
goshima,1573719912,"{
int main()
____int input;
____printf(""正の整数: "");
____scanf(""%d
"", &input);
void run(char c,  length)
}
",19479,25435,0,17341,0,4623,2,0,0,2276,1,0,0,0,0,0,1,4480,2,7567,2,4460,0,0,0,0,0,0,1,0,1,6260,1,6856,0,0,0,0,0,0,0,0,0,0,0,0
goshima,1573719917,"{
int main()
____int input;
____printf(""正の整数: "");
____scanf(""%d
"", &input);
void run(char c,  length)
}
",19479,25935,0,17341,0,4623,2,0,0,2276,1,0,0,0,0,0,1,4480,2,7567,2,4460,0,0,0,0,0,0,1,0,1,6260,1,6856,0,0,0,11117,0,0,0,0,0,0,0,0
goshima,1573719922,"{
int main()
____int input;
____printf(""正の整数: "");
____scanf(""%d
"", &input);
void run(char c,  length)
}
",19479,26434,0,17341,0,4623,2,0,0,2276,1,0,0,0,0,0,1,4480,2,7567,2,4460,0,0,0,0,0,0,1,0,1,6260,1,6856,0,0,0,11117,0,0,0,0,0,0,0,0
goshima,1573719927,"{
int main()
____int input;
____printf(""正の整数: "");
____scanf(""%d
"", &input);
void run(char c,  length)
}
",19479,26933,0,17341,0,4623,2,0,0,2276,1,0,0,0,0,0,1,4480,2,7567,2,4460,0,1841,0,0,0,0,1,0,1,6260,1,6856,0,0,0,11117,0,0,0,0,0,0,0,0
goshima,1573719932,"{
int main()
____int input;
____printf(""正の整数: "");
____scanf(""%d
"", &input);
void run(char c,  length)
}
",19479,27430,0,17341,0,4623,2,0,0,2276,1,0,0,0,0,0,1,4480,2,7567,2,4460,0,1841,0,0,0,0,1,0,1,6260,1,6856,0,0,1,11117,0,0,0,0,0,0,0,0
goshima,1573719937,"{
int main()
____int input;
____printf(""正の整数: "");
____scanf(""%d
"", &input);
void run(char c, int length)
____for(i = ; ; i++)
}
",19479,27927,0,17341,0,4623,2,0,0,2276,1,0,0,0,0,0,1,4480,2,7567,2,4460,0,1841,0,0,0,0,1,0,1,6260,1,6856,0,0,1,11117,0,0,0,0,0,0,0,0
goshima,1573719942,"{
int main()
____int input;
____printf(""正の整数: "");
____scanf(""%d
"", &input);
void run(char c, int length)
____for(i = ; ; i++)
________printf("""", c);
}
",19479,28423,0,17341,0,4623,2,0,0,2276,1,0,0,0,0,0,1,4480,2,7567,2,4460,0,1841,0,0,0,0,2,0,1,6260,1,6856,0,0,1,11117,0,0,0,0,0,0,0,0
goshima,1573719947,"{
int main()
____int input;
____printf(""正の整数: "");
____scanf(""%d
"", &input);
void run(char c, int length)
____for(i = ; ; i++)
________printf("""", c);
}
",19479,28922,0,17341,0,4623,2,0,0,2276,1,0,0,0,0,0,1,4480,2,7567,2,4460,0,1841,0,0,0,0,2,0,1,6260,1,6856,0,0,1,11117,0,0,0,0,0,0,0,0
goshima,1573719952,"{
int main()
____int input;
____printf(""正の整数: "");
____scanf(""%d
"", &input);
void run(char c, int length)
____for(i = 0; ; i++)
________printf("""", c);
}
",19479,29420,0,17341,0,4623,2,0,0,2276,1,0,0,0,0,0,1,4480,2,7567,2,4460,0,1841,0,0,0,0,2,0,1,6260,1,6856,0,0,1,11117,0,0,0,0,0,0,0,0
goshima,1573719957,"{
int main()
____int input;
____printf(""正の整数: "");
____scanf(""%d
"", &input);
void run(char c, int length)
____for(i = 0; ; i++)
________printf("""", c);
}
",19479,29919,0,17341,0,4623,2,0,0,2276,1,0,0,0,0,0,1,4480,2,7567,2,4460,0,1841,0,0,0,0,2,0,1,6260,1,6856,0,0,1,11117,0,0,0,0,0,0,0,0
goshima,1573719962,"{
int main()
____int input;
____printf(""正の整数: "");
____scanf(""%d
"", &input);
void run(char c, int length)
____for(i = 0; ; i++)
________printf("""", c);
}
",19479,30419,0,17341,0,4623,2,0,0,2276,1,0,0,0,0,0,1,4480,2,7567,2,4460,0,1841,0,0,0,0,2,0,1,6260,1,6856,0,0,1,11117,0,0,0,0,0,0,0,0
goshima,1573719967,"{
int main()
____int input;
____printf(""正の整数: "");
____scanf(""%d
"", &input);
void run(char c, int length)
____for(i = 0; i<length; i++)
________printf("""", c);
}
",19479,30919,0,17341,0,4623,2,0,0,2276,1,0,0,0,0,0,1,4480,2,7567,2,4460,0,1841,0,0,0,0,2,0,1,6260,1,6856,0,0,1,11117,0,0,0,0,0,0,0,0
goshima,1573719972,"{
int main()
____int input;
____printf(""正の整数: "");
____scanf(""%d
"", &input);
void run(char c, int length)
____for(i = 0; i<length; i++)
________printf("""", c);
}
",19479,31418,0,17341,0,4623,2,0,0,2276,1,0,0,0,0,0,1,4480,2,7567,2,4460,0,1841,0,0,0,0,2,2827,1,6260,1,6856,0,0,1,11117,0,0,0,0,0,0,0,0
goshima,1573719977,"{
int main()
____int input;
____printf(""正の整数: "");
____scanf(""%d
"", &input);
void run(char c, int length)
____for(i = 0; i<length; i++)
________printf("""", c);
}
",19479,31918,0,17341,0,4623,2,0,0,2276,1,0,0,0,0,0,1,4480,2,7567,2,4460,0,1841,0,0,0,0,2,2827,1,6260,1,6856,0,0,1,11117,0,0,0,0,0,0,0,0
goshima,1573719982,"{
int main()
____int input;
____printf(""正の整数: "");
____scanf(""%d
"", &input);
void run(char c, int length)
____for(i = 0; i<length; i++)
________printf("""", c);
}
",19479,32417,0,17341,0,4623,2,0,0,2276,1,0,0,0,0,0,1,4480,2,7567,2,4460,0,1841,0,0,0,0,2,2827,1,6260,1,6856,0,0,1,11117,0,0,0,0,0,0,0,0
goshima,1573719987,"{
int main()
____int input;
____printf(""正の整数: "");
____scanf(""%d
"", &input);
void run(char c, int length)
____for(i = 0; i<length; i++)
________printf("""", c);
}
",19479,32916,0,17341,0,4623,2,0,0,2276,1,0,0,0,0,0,1,4480,2,7567,2,4460,0,1841,0,0,0,0,2,2827,1,6260,1,6856,0,0,1,11117,0,0,0,0,0,0,0,0
goshima,1573719992,"{
int main()
____int input;
____printf(""正の整数: "");
____scanf(""%d
"", &input);
void run(char c, int length)
____for(i = 0; i<length; i++)
________printf("""", c);
}
",19479,33414,0,17341,0,4623,2,0,0,2276,1,0,0,0,0,0,1,4480,2,7567,2,4460,0,1841,0,0,0,0,2,2827,1,6260,1,6856,0,0,1,11117,0,0,0,0,0,0,0,0
goshima,1573719997,"{
int main()
____int input;
____printf(""正の整数: "");
____scanf(""%d
"", &input);
void run(char c, int length)
____for(i = 0; i<length; i++)
________printf("""", c);
}
",19479,33913,0,17341,0,4623,2,0,0,2276,1,0,0,0,0,0,1,4480,2,7567,2,4460,0,1841,0,0,0,0,2,2827,1,6260,1,6856,0,0,1,11117,0,0,0,0,0,0,0,0
goshima,1573720002,"{
int main()
____int input;
____printf(""正の整数: "");
____scanf(""%d
"", &input);
void run(char c, int length)
____for(i = 0; i<length; i++)
________printf("""", c);
}
",19479,34412,0,17341,0,4623,2,0,0,2276,1,0,0,0,0,0,1,4480,2,7567,2,4460,0,1841,0,0,0,0,2,2827,1,6260,1,6856,0,0,1,11117,0,0,0,0,0,0,0,0
goshima,1573720007,"{
int main()
____int input;
____printf(""正の整数: "");
____scanf(""%d
"", &input);
void run(char c, int length)
____for(i = 0; i<length; i++)
________printf("""", c);
}
",19479,34910,0,17341,0,4623,2,0,0,2276,1,0,0,0,0,0,1,4480,2,7567,2,4460,0,1841,0,0,0,0,2,2827,1,6260,1,6856,0,0,1,11117,0,0,0,0,0,0,0,0
goshima,1573720012,"{
int main()
____int input;
____printf(""正の整数: "");
____scanf(""%d
"", &input);
void run(char c, int length)
____for(i = 0; i<length; i++)
________printf("""", c);
}
",19479,35409,0,22231,0,4623,2,0,0,2276,1,0,0,0,0,0,1,4480,2,7567,2,4460,0,1841,0,0,0,0,2,2827,1,6260,1,6856,0,0,1,11117,0,0,0,0,0,0,0,0
goshima,1573720017,"{
int main()
____int input;
____printf(""正の整数: "");
____scanf(""%d
"", &input);
void run(char c, int length)
____for(i = 0; i<length; i++)
________printf(""%c"", c);
}
",19744,35643,0,22231,0,6241,2,0,0,2276,1,0,0,0,0,0,1,4480,2,7567,2,4460,0,1841,0,0,0,0,2,2827,1,6260,1,6856,0,0,1,11117,0,0,0,0,0,0,0,0
goshima,1573720022,"{
int main()
____int input;
____printf(""正の整数: "");
____scanf(""%d
"", &input);
void run(char c, int length)
____for(i = 0; i<length; i++)
________printf(""%c"", c);
}
",20243,35643,0,22231,0,6241,2,0,0,2276,1,0,0,0,0,0,1,4480,2,7567,2,4460,0,1841,0,0,0,0,2,2827,1,6260,1,6856,0,0,1,11117,0,0,0,0,0,0,0,0
goshima,1573720027,"{
int main()
____int input;
____printf(""正の整数: "");
____scanf(""%d
"", &input);
void run(char c, int length)
____for(i = 0; i<length; i++)
________printf(""%c"", c);
}
",20742,35643,0,22231,0,6241,2,0,0,2276,1,0,0,0,0,0,1,4480,2,7567,2,4460,0,1841,0,0,0,0,2,2827,1,6260,1,6856,0,0,1,11117,0,0,0,0,0,0,0,0
goshima,1573720032,"{
int main()
____int input;
____printf(""正の整数: "");
____scanf(""%d
"", &input);
void run(char c, int length)
____for(i = 0; i<length; i++)
________printf(""%c"", c);
}
",21242,35643,0,22231,0,6241,2,0,0,2276,1,0,0,0,0,0,1,4480,2,7567,2,4460,0,1841,0,0,0,0,2,2827,1,6260,1,6856,0,0,1,11117,0,0,0,0,0,0,0,0
goshima,1573720037,"{
int main()
____int input;
____printf(""正の整数: "");
____scanf(""%d
"", &input);
void run(char c, int length)
____for(i = 0; i<length; i++)
________printf(""%c"", c);
}
",21316,36069,0,22231,0,6241,2,0,0,2276,1,0,0,0,0,0,1,4480,2,7567,2,4460,0,1841,0,0,0,0,2,2827,1,6260,1,6856,0,0,1,11117,0,0,0,0,0,0,0,0
goshima,1573720042,"{
int main()
____int input;
____printf(""正の整数: "");
____scanf(""%d
"", &input);
void run(char c, int length)
____for(i = 0; i<length; i++)
________printf(""%c"", c);
}
",21316,36567,0,22231,0,6241,2,0,0,2276,1,0,0,0,0,0,1,4480,2,7567,2,4460,0,1841,0,0,1,0,2,2827,1,6260,1,6856,0,0,1,11117,0,0,0,0,0,0,0,0
goshima,1573720047,"{
int main()
____int input;
____printf(""正の整数: "");
____scanf(""%d
"", &input);
____for(i = ; ; i++)
void run(char c, int length)
____for(i = 0; i<length; i++)
________printf(""%c"", c);
}
",21316,37064,0,22231,0,6241,2,0,0,2276,1,0,0,0,0,0,1,4480,2,7567,2,4460,0,1841,0,0,1,1346,2,2827,1,6260,1,6856,0,0,1,11117,0,0,0,0,0,0,0,0
goshima,1573720052,"{
int main()
____int input;
____printf(""正の整数: "");
____scanf(""%d
"", &input);
____for(i = ; ; i++)
void run(char c, int length)
____for(i = 0; i<length; i++)
________printf(""%c"", c);
}
",21316,37563,0,22231,0,6241,2,0,0,2276,1,0,0,0,0,0,1,4480,2,7567,2,4460,0,1841,0,0,2,1346,2,2827,1,6260,1,6856,0,0,1,11117,0,0,0,0,0,0,0,0
goshima,1573720057,"{
int main()
____int input;
____printf(""正の整数: "");
____scanf(""%d
"", &input);
void run(char c, int length)
____for(i = 0; i<length; i++)
________printf(""%c"", c);
}
",21316,38060,0,22231,0,6241,2,0,0,2276,1,0,0,0,0,0,1,4480,2,7567,2,4460,0,4869,0,0,2,1346,2,2827,1,6260,1,6856,0,0,1,11117,0,0,0,0,0,0,0,0
goshima,1573720062,"{
int main()
____int input;
____printf(""正の整数: "");
____scanf(""%d
"", &input);
void run(char c, int length)
____for(i = 0; i<length; i++)
________printf(""%c"", c);
}
",21477,38397,0,22231,0,6241,2,0,0,2276,1,0,0,0,0,0,1,4480,2,7567,2,4460,0,4869,0,0,2,1346,2,2827,1,6260,1,6856,0,0,1,11117,0,0,0,0,0,0,0,0
goshima,1573720067,"{
int main()
____int input;
____printf(""正の整数: "");
____scanf(""%d
"", &input);
void run(char c, int length)
____for(i = 0; i<length; i++)
________printf(""%c"", c);
}
",21714,38656,0,22231,0,6241,2,0,0,2276,1,0,0,0,0,0,1,4480,2,7567,2,4460,0,4869,0,0,3,1346,2,2827,1,6260,1,6856,0,0,1,11117,0,0,0,0,0,0,0,0
goshima,1573720072,"{
int main()
____int input;
____printf(""正の整数: "");
____scanf(""%d
"", &input);
____for(i = ; ; i++)
void run(char c, int length)
____for(i = 0; i<length; i++)
________printf(""%c"", c);
}
",21714,39152,0,22231,0,6241,2,0,0,2276,1,0,0,0,0,0,1,4480,2,7567,2,4460,0,4869,0,0,3,1346,2,2827,1,6260,1,6856,0,0,1,11117,0,0,0,0,0,0,0,0
goshima,1573720077,"{
int main()
____int input;
____printf(""正の整数: "");
____scanf(""%d
"", &input);
____for(i = 0; ; i++)
void run(char c, int length)
____for(i = 0; i<length; i++)
________printf(""%c"", c);
}
",21714,39649,0,22231,0,6241,2,0,0,2276,1,0,0,0,0,0,1,4480,2,7567,2,4460,0,4869,0,0,3,1346,2,2827,1,6260,1,6856,0,0,1,11117,0,0,0,0,0,0,0,0
goshima,1573720082,"{
int main()
____int input;
____printf(""正の整数: "");
____scanf(""%d
"", &input);
____for(i = 0; ; i++)
void run(char c, int length)
____for(i = 0; i<length; i++)
________printf(""%c"", c);
}
",21714,40148,0,22231,0,6241,2,0,0,2276,1,0,0,0,0,0,1,4480,2,7567,2,4460,0,4869,0,0,3,1346,2,2827,1,6260,1,6856,0,0,1,11117,0,0,0,0,0,0,0,0
goshima,1573720087,"{
int main()
____int input;
____printf(""正の整数: "");
____scanf(""%d
"", &input);
____for(i = 0; ; i++)
void run(char c, int length)
____for(i = 0; i<length; i++)
________printf(""%c"", c);
}
",21714,40647,0,22231,0,6241,2,0,0,2276,1,0,0,0,0,0,1,4480,2,7567,2,4460,0,4869,0,0,3,1346,2,2827,1,6260,1,6856,0,0,1,11117,0,0,0,0,0,0,0,0
goshima,1573720092,"{
int main()
____int input;
____printf(""正の整数: "");
____scanf(""%d
"", &input);
____for(i = 0; ; i++)
void run(char c, int length)
____for(i = 0; i<length; i++)
________printf(""%c"", c);
}
",21714,41146,0,22231,0,6241,2,0,0,2276,1,0,0,0,0,0,1,4480,2,7567,2,4460,0,4869,0,0,3,1346,2,2827,1,6260,1,6856,0,0,1,11117,0,0,0,0,0,0,0,0
goshima,1573720097,"{
int main()
____int input;
____printf(""正の整数: "");
____scanf(""%d
"", &input);
____for(i = 0; ; i++)
void run(char c, int length)
____for(i = 0; i<length; i++)
________printf(""%c"", c);
}
",21714,41645,0,22231,0,6241,2,0,0,2276,1,0,0,0,0,0,1,4480,2,7567,2,4460,0,4869,0,0,3,1346,2,2827,1,6260,1,6856,0,0,1,11117,0,0,0,0,0,0,0,0
goshima,1573720102,"{
int main()
____int input;
____printf(""正の整数: "");
____scanf(""%d
"", &input);
____for(i = 0; ; i++)
void run(char c, int length)
____for(i = 0; i<length; i++)
________printf(""%c"", c);
}
",21714,42144,0,22231,0,6241,2,0,0,2276,1,0,0,0,0,0,1,4480,2,7567,2,4460,0,4869,0,0,3,1346,2,2827,1,6260,1,6856,0,0,1,11117,0,0,0,0,0,0,0,0
goshima,1573720107,"{
int main()
____int input;
____printf(""正の整数: "");
____scanf(""%d
"", &input);
____for(i = 0; i<input; i++)
void run(char c, int length)
____for(i = 0; i<length; i++)
________printf(""%c"", c);
}
",21714,42638,0,22231,0,6241,2,0,0,2276,1,0,0,0,0,0,1,4480,3,7567,2,4460,0,4869,0,0,3,1346,2,2827,1,6260,1,6856,0,0,1,11117,0,0,0,0,0,0,0,0
goshima,1573720112,"{
int main()
____int input;
____printf(""正の整数: "");
____scanf(""%d
"", &input);
____for(i = 0; i<input; i++)
void run(char c, int length)
____for(i = 0; i<length; i++)
________printf(""%c"", c);
}
",21789,43060,0,22231,0,6241,2,0,0,2276,1,0,0,0,0,0,1,4480,3,7567,2,4460,0,4869,0,0,3,1346,2,2827,1,6260,1,6856,0,0,1,11117,0,0,0,0,0,0,0,0
goshima,1573720117,"{
int main()
____int input;
____printf(""正の整数: "");
____scanf(""%d
"", &input);
____for(i = 0; i<input; i++)
________run(' ', );
void run(char c, int length)
____for(i = 0; i<length; i++)
________printf(""%c"", c);
}
",21789,43555,0,22231,1,6241,2,0,0,2276,1,0,0,0,0,0,1,4480,3,7567,2,4460,0,4869,0,0,3,1346,2,2827,1,6260,1,6856,0,0,1,11117,0,0,0,0,0,0,0,0
goshima,1573720122,"{
int main()
____int input;
____printf(""正の整数: "");
____scanf(""%d
"", &input);
____for(i = 0; i<input; i++)
________run(' ', );
void run(char c, int length)
____for(i = 0; i<length; i++)
________printf(""%c"", c);
}
",21789,44054,0,22231,1,6241,2,0,0,2276,1,0,0,0,0,0,1,4480,3,7567,2,4460,0,4869,0,0,3,1346,2,2827,1,6260,1,6856,0,0,1,11117,0,0,0,0,0,0,0,0
goshima,1573720127,"{
int main()
____int input;
____printf(""正の整数: "");
____scanf(""%d
"", &input);
____for(i = 0; i<input; i++)
________run(' ', );
void run(char c, int length)
____for(i = 0; i<length; i++)
________printf(""%c"", c);
}
",21789,44553,0,22231,1,15149,2,0,0,2276,1,0,0,0,0,0,1,4480,3,7567,2,4460,0,4869,0,0,3,1346,2,2827,1,6260,1,6856,0,0,1,11117,0,0,0,0,0,0,0,0
goshima,1573720132,"{
int main()
____int input;
____printf(""正の整数: "");
____scanf(""%d
"", &input);
____for(i = 0; i<input; i++)
________run(' ', );
void run(char c, int length)
____for(i = 0; i<length; i++)
________printf(""%c"", c);
}
",21789,45052,0,22231,1,15149,2,0,0,2276,1,0,0,0,0,0,1,4480,3,7567,2,4460,0,4869,0,0,3,1346,2,2827,1,6260,1,6856,0,0,1,11117,0,0,0,0,0,0,0,0
goshima,1573720137,"{
int main()
____int input;
____printf(""正の整数: "");
____scanf(""%d
"", &input);
____for(i = 0; i<input; i++)
________run(' ', );
void run(char c, int length)
____for(i = 0; i<length; i++)
________printf(""%c"", c);
}
",21789,45551,0,22231,1,15149,2,0,0,2276,1,0,0,0,0,0,1,4480,3,7567,2,4460,0,4869,0,0,3,1346,2,2827,1,6260,1,6856,0,0,1,11117,0,0,0,0,0,0,0,0
goshima,1573720142,"{
int main()
____int input;
____printf(""正の整数: "");
____scanf(""%d
"", &input);
____for(i = 0; i<input; i++)
________run(' ', );
void run(char c, int length)
____for(i = 0; i<length; i++)
________printf(""%c"", c);
}
",21789,46050,0,22231,1,15149,2,0,0,2276,1,0,0,0,0,0,1,4480,3,7567,2,4460,0,4869,0,0,3,1346,2,2827,1,6260,1,6856,0,0,1,11117,0,0,0,0,0,0,0,0
goshima,1573720147,"{
int main()
____int input;
____printf(""正の整数: "");
____scanf(""%d
"", &input);
____for(i = 0; i<input; i++)
________run(' ', );
void run(char c, int length)
____for(i = 0; i<length; i++)
________printf(""%c"", c);
}
",21789,46549,0,22231,1,15149,2,0,0,2276,1,0,0,0,0,0,1,4480,3,7567,2,4460,0,4869,0,0,3,1346,2,2827,1,6260,1,6856,0,0,1,11117,0,0,0,0,0,0,0,0
goshima,1573720152,"{
int main()
____int input;
____printf(""正の整数: "");
____scanf(""%d
"", &input);
____for(i = 0; i<input; i++)
________run(' ', i);
________run('*', );
void run(char c, int length)
____for(i = 0; i<length; i++)
________printf(""%c"", c);
}
",21789,47039,0,22231,1,15149,2,0,0,2276,1,0,0,0,0,0,1,4480,4,7567,2,4460,0,4869,0,0,3,1346,2,2827,1,6260,1,6856,0,0,1,11117,0,0,0,0,0,0,0,0
goshima,1573720157,"{
int main()
____int input;
____printf(""正の整数: "");
____scanf(""%d
"", &input);
____for(i = 0; i<input; i++)
________run(' ', i);
________run('*', );
void run(char c, int length)
____for(i = 0; i<length; i++)
________printf(""%c"", c);
}
",21885,47441,0,22231,1,15149,2,0,0,2276,1,0,0,0,0,0,1,4480,4,7567,2,4460,0,4869,0,0,3,1346,2,2827,1,6260,1,6856,0,0,1,11117,0,0,0,0,0,0,0,0
goshima,1573720162,"{
int main()
____int input;
____printf(""正の整数: "");
____scanf(""%d
"", &input);
____for(i = 0; i<input; i++)
________run(' ', i);
________run('*', );
void run(char c, int length)
____for(i = 0; i<length; i++)
________printf(""%c"", c);
}
",21885,47940,0,22231,1,15149,2,0,0,2276,1,0,0,0,0,0,1,4480,4,7567,2,4460,0,4869,0,0,3,1346,2,2827,1,6260,1,6856,0,0,1,11117,0,0,0,0,0,0,0,0
goshima,1573720167,"{
int main()
____int input;
____printf(""正の整数: "");
____scanf(""%d
"", &input);
____for(i = 0; i<input; i++)
________run(' ', i);
________run('*', );
void run(char c, int length)
____for(i = 0; i<length; i++)
________printf(""%c"", c);
}
",21885,48438,0,22231,1,15149,2,0,0,2276,1,0,0,0,0,0,1,4480,4,14694,2,4460,0,4869,0,0,3,1346,2,2827,1,6260,1,6856,0,0,1,11117,0,0,0,0,0,0,0,0
goshima,1573720172,"{
int main()
____int input;
____printf(""正の整数: "");
____scanf(""%d
"", &input);
____for(i = 0; i<input; i++)
________run(' ', i);
________run('*', );
void run(char c, int length)
____for(i = 0; i<length; i++)
________printf(""%c"", c);
}
",21885,48937,0,22231,1,15149,2,0,0,2276,1,0,0,0,0,0,1,4480,4,14694,2,4460,0,4869,0,0,3,1346,2,2827,1,6260,1,6856,0,0,1,11117,0,3529,0,0,0,0,0,0
goshima,1573720177,"{
int main()
____int input;
____printf(""正の整数: "");
____scanf(""%d
"", &input);
____for(i = 0; i<input; i++)
void run(char c, int length)
____for(i = 0; i<length; i++)
________printf(""%c"", c);
}
",21885,49426,0,22231,2,15149,2,0,0,2276,1,0,0,0,0,0,1,4480,4,14694,2,4460,0,4869,0,0,3,1346,2,2827,1,6260,1,6856,0,0,1,11117,0,3529,1,0,0,0,0,0
goshima,1573720182,"{
int main()
____int input;
____printf(""正の整数: "");
____scanf(""%d
"", &input);
____for(i = 0; i<input; i++)
________printf("": "", i);
________run(' ', i);
________run('*', input-i);
void run(char c, int length)
____for(i = 0; i<length; i++)
________printf(""%c"", c);
}
",21885,49919,0,22231,2,15149,2,0,0,2276,1,0,0,0,0,0,1,4480,4,14694,2,4460,0,4869,0,0,3,1346,2,2827,1,6260,1,6856,0,0,1,11117,0,3529,1,0,0,0,0,0
goshima,1573720187,"{
int main()
____int input;
____printf(""正の整数: "");
____scanf(""%d
"", &input);
____for(i = 0; i<input; i++)
________printf(""%2d: "", i);
________run(' ', i);
________run('*', input-i);
void run(char c, int length)
____for(i = 0; i<length; i++)
________printf(""%c"", c);
}
",21972,50329,0,22231,2,15149,2,0,0,2276,1,0,0,0,0,0,1,4480,4,14694,2,4460,0,4869,0,0,3,1346,2,2827,1,6260,1,6856,0,0,1,11117,0,3529,1,0,0,0,0,0
goshima,1573720192,"{
int main()
____int input;
____printf(""正の整数: "");
____scanf(""%d
"", &input);
____for(i = 0; i<input; i++)
________printf(""%2d: "", i);
________run(' ', i);
________run('*', input-i);
void run(char c, int length)
____for(i = 0; i<length; i++)
________printf(""%c"", c);
}
",22152,50647,0,22231,2,15149,2,0,0,2276,1,0,0,0,0,0,1,4480,4,14694,2,4460,0,4869,0,0,3,1346,2,2827,1,6260,1,6856,0,0,1,11117,0,3529,1,0,0,0,0,0
goshima,1573720197,"{
int main()
____int input;
____printf(""正の整数: "");
____scanf(""%d
"", &input);
____for(i = 0; i<input; i++)
________printf(""%2d: "", i);
________run(' ', i);
________run('*', input-i);
void run(char c, int length)
____for(i = 0; i<length; i++)
________printf(""%c"", c);
}
",22152,51146,0,22231,2,15149,2,0,0,2276,1,0,0,0,0,0,1,4480,4,14694,2,4460,0,4869,0,0,3,1346,2,2827,1,6260,1,6856,0,0,1,11117,0,3529,1,0,0,0,0,0
goshima,1573720202,"{
int main()
____int input;
____printf(""正の整数: "");
____scanf(""%d
"", &input);
____for(i = 0; i<input; i++)
________printf(""%2d: "", i);
________run(' ', i);
________run('*', input-i);
void run(char c, int length)
____for(i = 0; i<length; i++)
________printf(""%c"", c);
}
",22152,51642,0,22231,2,15149,2,0,0,2276,1,0,0,0,0,0,1,4480,4,14694,2,4460,0,4869,0,0,3,1346,2,2827,1,6260,1,6856,0,0,1,11117,1,3529,1,0,0,0,0,0
goshima,1573720207,"{
int main()
____int input;
____printf(""正の整数: "");
____scanf(""%d
"", &input);
____for(i = 0; i<input; i++)
________printf(""%2d: : "", i);
________run(' ', i);
________run('*', input-i);
________printf("""");
void run(char c, int length)
____for(i = 0; i<length; i++)
________printf(""%c"", c);
}
",22152,52131,0,22231,2,15149,2,0,0,2276,1,0,0,0,0,0,1,4480,4,14694,2,4460,0,4869,0,0,3,1346,2,2827,1,6260,1,6856,0,0,1,11117,1,3529,1,0,0,0,0,0
goshima,1573720212,"{
int main()
____int input;
____printf(""正の整数: "");
____scanf(""%d
"", &input);
____for(i = 0; i<input; i++)
________printf(""%2d: : "", i);
________run(' ', i);
________run('*', input-i);
________printf(""
"");
void run(char c, int length)
____for(i = 0; i<length; i++)
________printf(""%c"", c);
}
",22221,52559,0,22231,2,15149,2,0,0,2276,1,0,0,0,0,0,1,4480,4,14694,2,4460,0,4869,0,0,3,1346,2,2827,1,6260,1,6856,0,0,1,11117,1,3529,1,0,0,0,0,0
goshima,1573720217,"{
int main()
____int input;
____printf(""正の整数: "");
____scanf(""%d
"", &input);
____for(i = 0; i<input; i++)
________printf(""%2d: : "", i);
________run(' ', i);
________run('*', input-i);
________printf(""
"");
void run(char c, int length)
____for(i = 0; i<length; i++)
________printf(""%c"", c);
}
",22720,52559,0,22231,2,15149,2,0,0,2276,1,0,0,0,0,0,1,4480,4,14694,2,4460,0,4869,0,0,3,1346,2,2827,1,6260,1,6856,0,0,1,11117,1,3529,1,0,0,0,0,0
goshima,1573720222,"{
int main()
____int input;
____printf(""正の整数: "");
____scanf(""%d
"", &input);
____for(i = 0; i<input; i++)
________printf(""%2d: : "", i);
________run(' ', i);
________run('*', input-i);
________printf(""
"");
void run(char c, int length)
____for(i = 0; i<length; i++)
________printf(""%c"", c);
}
",23219,52559,0,22231,2,15149,2,0,0,2276,1,0,0,0,0,0,1,4480,4,14694,2,4460,0,4869,0,0,3,1346,2,2827,1,6260,1,6856,0,0,1,11117,1,3529,1,0,0,0,0,0
goshima,1573720227,"{
int main()
____int input;
____printf(""正の整数: "");
____scanf(""%d
"", &input);
____for(i = 0; i<input; i++)
________printf(""%2d: : "", i);
________run(' ', i);
________run('*', input-i);
________printf(""
"");
void run(char c, int length)
____for(i = 0; i<length; i++)
________printf(""%c"", c);
}
",23529,52748,0,22231,2,15149,2,0,0,2276,1,0,0,0,0,0,1,4480,4,14694,2,4460,0,4869,0,0,3,1346,2,2827,1,6260,1,6856,0,0,1,11117,1,3529,1,0,0,0,0,0
goshima,1573720232,"{
int main()
____int input;
____printf(""正の整数: "");
____scanf(""%d
"", &input);
____for(i = 0; i<input; i++)
________printf(""%2d: : "", i);
________run(' ', i);
________run('*', input-i);
________printf(""
"");
void run(char c, int length)
____for(i = 0; i<length; i++)
________printf(""%c"", c);
}
",23529,53247,0,22231,2,15149,2,0,0,4184,1,0,0,0,0,0,1,4480,4,14694,2,4460,0,4869,0,0,3,1346,2,2827,1,6260,1,6856,0,0,1,11117,1,3529,1,0,0,0,0,0
goshima,1573720237,"{
int main()
____int input;
____printf(""正の整数: "");
____scanf(""%d
"", &input);
____for(i = 0; i<input; i++)
________printf(""%2d: : "", i);
________run(' ', i);
________run('*', input-i);
________printf(""
"");
void run(char c, int length)
____for(i = 0; i<length; i++)
________printf(""%c"", c);
}
",23529,53745,0,22231,2,15149,2,0,0,4184,1,0,0,0,0,0,1,4480,4,14694,2,4460,0,4869,0,0,3,1346,2,2827,1,6260,1,6856,0,0,1,11117,1,3529,1,0,0,0,0,0
goshima,1573720242,"{
int main()
____int input;
____printf(""正の整数: "");
____scanf(""%d
"", &input);
____for(i = 0; i<input; i++)
________printf(""%2d: : "", i);
________run(' ', i);
________run('*', input-i);
________printf(""
"");
void run(char c, int length)
____for(i = 0; i<length; i++)
________printf(""%c"", c);
}
",23529,54242,0,22231,2,15149,2,0,0,4184,1,0,0,0,0,0,1,4480,4,14694,2,4460,0,4869,0,0,3,1346,2,2827,1,6260,1,6856,0,0,1,11117,1,3529,1,0,0,0,0,0
goshima,1573720247,"{
int main()
____int input;
____printf(""正の整数: "");
____scanf(""%d
"", &input);
____for(i = 0; i<input; i++)
________printf(""%2d: : "", i);
________run(' ', i);
________run('*', input-i);
________printf(""
"");
void run(char c, int length)
____for(i = 0; i<length; i++)
________printf(""%c"", c);
}
",23529,54741,0,22231,2,15149,2,0,0,4184,1,0,0,0,0,0,1,4480,4,14694,2,4460,0,4869,0,0,3,1346,2,2827,1,6260,1,6856,0,0,1,11117,1,3529,1,0,0,0,0,0
goshima,1573720252,"{
int main()
____int input;
____printf(""正の整数: "");
____scanf(""%d
"", &input);
____for(i = 0; i<input; i++)
________printf(""%2d: : "", i);
________run(' ', i);
________run('*', input-i);
________printf(""
"");
void run(char c, int length)
____for(i = 0; i<length; i++)
________printf(""%c"", c);
}
",23529,55240,0,22231,2,15149,2,0,0,4184,1,0,0,0,0,0,1,4480,4,14694,2,4460,0,4869,0,0,3,1346,2,2827,1,6260,1,6856,0,0,1,11117,1,3529,1,0,0,0,0,0
goshima,1573720257,"{
int main()
____int input;
____printf(""正の整数: "");
____scanf(""%d
"", &input);
____for(i = 0; i<input; i++)
________printf(""%2d: : "", i);
________run(' ', i);
________run('*', input-i);
________printf(""
"");
void run(char c, int length)
____for(i = 0; i<length; i++)
________printf(""%c"", c);
}
",23529,55739,0,22231,2,15149,2,0,0,4184,1,0,0,0,0,0,1,4480,4,14694,2,4460,0,4869,0,0,3,1346,2,2827,1,6260,1,6856,0,0,1,11117,1,3529,1,0,0,0,0,0
goshima,1573720262,"{
int main()
____int input;
____printf(""正の整数: "");
____scanf(""%d
"", &input);
____for(i = 0; i<input; i++)
________printf(""%2d: : "", i);
________run(' ', i);
________run('*', input-i);
________printf(""
"");
void run(char c, int length)
____for(i = 0; i<length; i++)
________printf(""%c"", c);
}
",23940,55826,0,22231,2,15149,2,0,0,4184,1,0,0,0,0,0,1,4480,4,14694,2,4460,0,4869,0,0,3,1346,2,2827,1,6260,1,6856,0,0,1,11117,1,3529,1,0,0,0,0,0
goshima,1573720267,"{
int main()
____int input;
____printf(""正の整数: "");
____scanf(""%d
"", &input);
____for(i = 0; i<input; i++)
________printf(""%2d: : "", i);
________run(' ', i);
________run('*', input-i);
________printf(""
"");
void run(char c, int length)
____for(i = 0; i<length; i++)
________printf(""%c"", c);
}
",24439,55826,0,22231,2,15149,2,0,0,4184,1,0,0,0,0,0,1,4480,4,14694,2,4460,0,4869,0,0,3,1346,2,2827,1,6260,1,6856,0,0,1,11117,1,3529,1,0,0,0,0,0
goshima,1573720272,"{
int main()
____int input;
____printf(""正の整数: "");
____scanf(""%d
"", &input);
____for(i = 0; i<input; i++)
________printf(""%2d: : "", i);
________run(' ', i);
________run('*', input-i);
________printf(""
"");
void run(char c, int length)
____for(i = 0; i<length; i++)
________printf(""%c"", c);
}
",24938,55826,0,22231,2,15149,2,0,0,4184,1,0,0,0,0,0,1,4480,4,14694,2,4460,0,4869,0,0,3,1346,2,2827,1,6260,1,6856,0,0,1,11117,1,3529,1,0,0,0,0,0
goshima,1573720277,"{
int main()
____int input;
____printf(""正の整数: "");
____scanf(""%d
"", &input);
____for(i = 0; i<input; i++)
________printf(""%2d: : "", i);
________run(' ', i);
________run('*', input-i);
________printf(""
"");
void run(char c, int length)
____for(i = 0; i<length; i++)
________printf(""%c"", c);
}
",25005,56254,1,22231,2,15149,2,0,0,4184,1,0,0,0,0,0,1,4480,4,14694,2,4460,0,4869,0,0,3,1346,2,2827,1,6260,1,6856,0,0,1,11117,1,3529,1,0,0,0,0,0
goshima,1573720282,"{
int main()
____int input;
____printf(""正の整数: "");
____scanf(""%d
"", &input);
____for(i = 0; i<input; i++)
________printf(""%2d: : "", i);
________run(' ', i);
________run('*', input-i);
________printf(""
"");
void run(char c, int length)
____for(i = 0; i<length; i++)
________printf(""%c"", c);
}
",25005,56751,1,22231,2,15149,2,0,0,4184,1,0,0,0,0,0,1,4480,4,14694,2,4460,0,4869,0,0,3,1346,2,2827,1,6260,1,6856,0,0,1,11117,1,3529,1,0,0,0,0,0
goshima,1573720287,"{
int main()
____int input;
____printf(""正の整数: "");
____scanf(""%d
"", &input);
____for(i = 0; i<input; i++)
________printf(""%2d: : "", i);
________run(' ', i);
________run('*', input-i);
________printf(""
"");
void run(char c, int length)
____for(i = 0; i<length; i++)
________printf(""%c"", c);
}
",25005,57250,1,22231,2,15149,2,0,0,4184,1,0,0,0,0,0,1,4480,4,14694,2,4460,0,4869,0,0,3,1346,2,2827,1,6260,1,6856,0,0,1,11117,1,3529,1,0,0,0,0,0
goshima,1573720292,"{
int main()
____int input;
____printf(""正の整数: "");
____scanf(""%d
"", &input);
____for(i = 0; i<input; i++)
________printf(""%2d: : "", i);
________run(' ', i);
________run('*', input-i);
________printf(""
"");
void run(char c, int length)
____for(i = 0; i<length; i++)
________printf(""%c"", c);
}
",25005,57749,1,22231,2,15149,2,0,0,4184,1,0,0,0,0,0,1,4480,4,14694,2,4460,0,4869,0,0,3,1346,2,2827,1,6260,1,6856,0,0,1,11117,1,3529,1,0,0,0,0,0
goshima,1573720297,"{
int main()
____int input;
____printf(""正の整数: "");
____scanf(""%d
"", &input);
____while(input )
____for(i = 0; i<input; i++)
________printf(""%2d: : "", i);
________run(' ', i);
________run('*', input-i);
________printf(""
"");
void run(char c, int length)
____for(i = 0; i<length; i++)
________printf(""%c"", c);
}
",25005,58238,1,22231,2,15149,2,0,0,4184,1,0,0,0,0,0,1,4480,4,14694,2,4460,0,4869,0,0,3,1346,2,2827,1,6260,1,6856,0,0,1,11117,1,3529,1,0,0,0,0,0
goshima,1573720302,"{
int main()
____int input;
____printf(""正の整数: "");
____scanf(""%d
"", &input);
____while(input )
____for(i = 0; i<input; i++)
________printf(""%2d: : "", i);
________run(' ', i);
________run('*', input-i);
________printf(""
"");
void run(char c, int length)
____for(i = 0; i<length; i++)
________printf(""%c"", c);
}
",25005,58735,1,22231,2,15149,2,0,0,4184,1,0,0,0,0,0,1,4480,4,14694,2,4460,0,4869,0,0,3,1346,2,2827,1,6260,1,6856,0,0,1,11117,1,3529,1,0,0,0,0,0
goshima,1573720307,"{
int main()
____int input;
____printf(""正の整数: "");
____scanf(""%d
"", &input);
____while(input )
____for(i = 0; i<input; i++)
________printf(""%2d: : "", i);
________run(' ', i);
________run('*', input-i);
________printf(""
"");
void run(char c, int length)
____for(i = 0; i<length; i++)
________printf(""%c"", c);
}
",25005,59232,1,22231,2,15149,2,0,0,4184,1,0,0,0,0,0,1,4480,4,14694,2,4460,0,4869,0,0,3,1346,2,2827,1,6260,1,6856,0,0,1,11117,1,3529,1,0,0,0,0,0
goshima,1573720312,"{
int main()
____int input;
____printf(""正の整数: "");
____scanf(""%d
"", &input);
____while(input )
____for(i = 0; i<input; i++)
________printf(""%2d: : "", i);
________run(' ', i);
________run('*', input-i);
________printf(""
"");
void run(char c, int length)
____for(i = 0; i<length; i++)
________printf(""%c"", c);
}
",25005,59731,1,22231,2,15149,2,0,0,4184,1,0,0,0,0,0,1,4480,4,14694,2,4460,0,4869,0,0,3,1346,2,2827,1,6260,1,6856,0,0,1,11117,1,3529,1,0,0,0,0,0
goshima,1573720317,"{
int main()
____int input;
____printf(""正の整数: "");
____scanf(""%d
"", &input);
____while(input )
____for(i = 0; i<input; i++)
________printf(""%2d: : "", i);
________run(' ', i);
________run('*', input-i);
________printf(""
"");
void run(char c, int length)
____for(i = 0; i<length; i++)
________printf(""%c"", c);
}
",25005,60230,1,22231,2,15149,2,0,0,4184,1,0,0,0,0,0,1,4480,4,14694,2,4460,0,4869,0,0,3,1346,2,2827,1,6260,1,13708,0,0,1,11117,1,3529,1,0,0,0,0,0
goshima,1573720322,"{
int main()
____int input;
____printf(""正の整数: "");
____scanf(""%d
"", &input);
____while(input )
____for(i = 0; i<input; i++)
________printf(""%2d: : "", i);
________run(' ', i);
________run('*', input-i);
________printf(""
"");
void run(char c, int length)
____for(i = 0; i<length; i++)
________printf(""%c"", c);
}
",25005,60729,1,22231,2,15149,2,0,0,4184,1,0,0,0,0,0,1,4480,4,14694,2,4460,0,4869,0,0,3,1346,2,2827,1,6260,1,13708,0,0,1,11117,1,3529,1,0,0,0,0,0
goshima,1573720327,"{
int main()
____int input;
____printf(""正の整数: "");
____scanf(""%d
"", &input);
____while(input )
____for(i = 0; i<input; i++)
________printf(""%2d: : "", i);
________run(' ', i);
________run('*', input-i);
________printf(""
"");
void run(char c, int length)
____for(i = 0; i<length; i++)
________printf(""%c"", c);
}
",25005,61227,1,22231,2,15149,2,0,0,4184,1,0,0,0,0,0,1,6410,4,14694,2,4460,0,4869,0,0,3,1346,2,2827,1,6260,1,13708,0,0,1,11117,1,3529,1,0,0,0,0,0
goshima,1573720332,"{
int main()
____int input;
____printf(""正の整数: "");
____scanf(""%d
"", &input);
____while(input )
____for(i = 0; i<input; i++)
________printf(""%2d: : "", i);
________run(' ', i);
________run('*', input-i);
________printf(""
"");
void run(char c, int length)
____for(i = 0; i<length; i++)
________printf(""%c"", c);
}
",25005,61726,1,22231,2,15149,2,0,0,4184,1,0,0,0,0,0,1,6410,4,14694,2,4460,0,4869,0,0,3,1346,2,2827,1,6260,1,13708,0,0,1,11117,1,3529,1,0,0,0,0,0
goshima,1573720337,"{
int main()
____int input;
____printf(""正の整数: "");
____scanf(""%d
"", &input);
____while(input )
____for(i = 0; i<input; i++)
________printf(""%2d: : "", i);
________run(' ', i);
________run('*', input-i);
________printf(""
"");
void run(char c, int length)
____for(i = 0; i<length; i++)
________printf(""%c"", c);
}
",25005,62225,1,29616,2,15149,2,0,0,4184,1,0,0,0,0,0,1,6410,4,14694,2,4460,0,4869,0,0,3,1346,2,2827,1,6260,1,13708,0,0,1,11117,1,3529,1,0,0,0,0,0
goshima,1573720342,"{
int main()
____int input;
____printf(""正の整数: "");
____scanf(""%d
"", &input);
____while(input )
____for(i = 0; i<input; i++)
________printf(""%2d: : "", i);
________run(' ', i);
________run('*', input-i);
________printf(""
"");
void run(char c, int length)
____for(i = 0; i<length; i++)
________printf(""%c"", c);
}
",25005,62720,1,29616,2,15149,2,0,0,4184,1,0,0,0,0,0,1,6410,4,14694,2,4460,0,4869,0,0,3,1346,2,2827,1,6260,1,13708,0,0,1,11117,1,3529,1,0,0,0,0,0
goshima,1573720347,"{
int main()
____int input;
____printf(""正の整数: "");
____scanf(""%d
"", &input);
____while(input )
____for(i = 0; i<input; i++)
________printf(""%2d: : "", i);
________run(' ', i);
________run('*', input-i);
________printf(""
"");
void run(char c, int length)
____for(i = 0; i<length; i++)
________printf(""%c"", c);
}
",25005,63219,1,29616,2,15149,2,0,0,4184,1,0,0,0,0,0,1,12898,4,14694,2,4460,0,4869,0,0,3,1346,2,2827,1,6260,1,13708,0,0,1,11117,1,3529,1,0,0,0,0,0
goshima,1573720352,"{
int main()
____int input;
____printf(""正の整数: "");
____scanf(""%d
"", &input);
____while(input )
____for(i = 0; i<input; i++)
________printf(""%2d: : "", i);
________run(' ', i);
________run('*', input-i);
________printf(""
"");
void run(char c, int length)
____for(i = 0; i<length; i++)
________printf(""%c"", c);
}
",25005,63717,1,29616,2,15149,2,0,0,4184,1,0,0,0,0,0,1,12898,4,14694,2,4460,0,4869,0,0,3,1346,2,2827,1,6260,1,13708,0,0,1,11117,1,3529,1,0,0,0,0,0
goshima,1573720358,"{
int main()
____int input;
____scanf(""%d
"", &input);
____while(input <0)
________printf(""正の整数: "");
____for(i = 0; i<input; i++)
________printf(""%2d: : "", i);
________run(' ', i);
________run('*', input-i);
________printf(""
"");
void run(char c, int length)
____for(i = 0; i<length; i++)
________printf(""%c"", c);
}
",25005,64203,1,29616,2,15149,2,0,0,4184,1,0,0,0,0,0,2,12898,4,14694,2,4460,0,4869,0,0,3,1346,2,2827,1,6260,2,13708,0,0,1,11117,1,3529,1,0,0,0,0,0
goshima,1573720362,"{
int main()
____int input;
____while(input <0)
________printf(""正の整数: "");
________scanf(""%d
"", &input);
____for(i = 0; i<input; i++)
________printf(""%2d: : "", i);
________run(' ', i);
________run('*', input-i);
________printf(""
"");
void run(char c, int length)
____for(i = 0; i<length; i++)
________printf(""%c"", c);
}
",25005,64691,1,29616,2,15149,2,0,0,4184,1,0,0,0,0,0,2,12898,4,14694,2,4460,0,4869,0,0,3,1346,2,2827,1,6260,2,13708,0,0,1,11117,1,3529,1,0,0,0,0,0
goshima,1573720367,"{
int main()
____int input;
____while(input <0)
________printf(""正の整数: "");
________scanf(""%d
"", &input);
____for(i = 0; i<input; i++)
________printf(""%2d: : "", i);
________run(' ', i);
________run('*', input-i);
________printf(""
"");
void run(char c, int length)
____for(i = 0; i<length; i++)
________printf(""%c"", c);
}
",25005,65190,1,29616,2,15149,2,0,0,4184,1,0,0,0,0,0,2,12898,4,14694,2,4460,0,4869,0,0,3,1346,2,2827,1,6260,2,13708,0,0,1,11117,1,3529,1,0,0,0,0,0
goshima,1573720372,"{
int main()
____int input;
____while(input <0)
________printf(""正の整数: "");
________scanf(""%d
"", &input);
____for(i = 0; i<input; i++)
________printf(""%2d: : "", i);
________run(' ', i);
________run('*', input-i);
________printf(""
"");
void run(char c, int length)
____for(i = 0; i<length; i++)
________printf(""%c"", c);
}
",25174,65516,1,29616,2,15149,2,0,0,4184,1,0,0,0,0,0,2,12898,4,14694,2,4460,0,4869,0,0,3,1346,2,2827,1,6260,2,13708,0,0,1,11117,1,3529,1,0,0,0,0,0
goshima,1573720377,"{
int main()
____int input;
____while(input <0)
________printf(""正の整数: "");
________scanf(""%d
"", &input);
____for(i = 0; i<input; i++)
________printf(""%2d: : "", i);
________run(' ', i);
________run('*', input-i);
________printf(""
"");
void run(char c, int length)
____for(i = 0; i<length; i++)
________printf(""%c"", c);
}
",25673,65516,1,29616,2,15149,2,0,0,4184,1,0,0,0,0,0,2,12898,4,14694,2,4460,0,4869,0,0,3,1346,2,2827,1,6260,2,13708,0,0,1,11117,1,3529,1,0,0,0,0,0
goshima,1573720382,"{
int main()
____int input;
____while(input <0)
________printf(""正の整数: "");
________scanf(""%d
"", &input);
____for(i = 0; i<input; i++)
________printf(""%2d: : "", i);
________run(' ', i);
________run('*', input-i);
________printf(""
"");
void run(char c, int length)
____for(i = 0; i<length; i++)
________printf(""%c"", c);
}
",26172,65516,1,29616,2,15149,2,0,0,4184,1,0,0,0,0,0,2,12898,4,14694,2,4460,0,4869,0,0,3,1346,2,2827,1,6260,2,13708,0,0,1,11117,1,3529,1,0,0,0,0,0
goshima,1573720387,"{
int main()
____int input;
____while(input <0)
________printf(""正の整数: "");
________scanf(""%d
"", &input);
____for(i = 0; i<input; i++)
________printf(""%2d: : "", i);
________run(' ', i);
________run('*', input-i);
________printf(""
"");
void run(char c, int length)
____for(i = 0; i<length; i++)
________printf(""%c"", c);
}
",26671,65516,1,29616,2,15149,2,0,0,4184,1,0,0,0,0,0,2,12898,4,14694,2,4460,0,4869,0,0,3,1346,2,2827,1,6260,2,13708,0,0,1,11117,1,3529,1,0,0,0,0,0
goshima,1573720392,"{
int main()
____int input;
____while(input <0)
________printf(""正の整数: "");
________scanf(""%d
"", &input);
____for(i = 0; i<input; i++)
________printf(""%2d: : "", i);
________run(' ', i);
________run('*', input-i);
________printf(""
"");
void run(char c, int length)
____for(i = 0; i<length; i++)
________printf(""%c"", c);
}
",26756,65929,1,29616,2,15149,2,0,0,4184,1,0,0,0,0,0,2,12898,4,14694,2,5764,0,4869,0,0,3,1346,2,2827,1,6260,2,13708,0,0,1,11117,1,3529,1,0,0,0,0,0
goshima,1573720397,"{
int main()
____int input;
____while(input <0)
________printf(""正の整数: "");
________scanf(""%d
"", &input);
____for(i = 0; i<input; i++)
________printf(""%2d: : "", i);
________run(' ', i);
________run('*', input-i);
________printf(""
"");
void run(char c, int length)
____for(i = 0; i<length; i++)
________printf(""%c"", c);
}
",26773,66410,1,29616,2,15149,2,0,0,4184,1,0,0,0,0,0,2,12898,4,14694,2,5764,0,4869,0,0,3,1346,2,2827,1,6260,2,13708,0,0,1,11117,1,3529,1,0,0,0,0,0
goshima,1573720402,"{
int main()
____int input;
____while(input <0)
________printf(""正の整数: "");
________scanf(""%d
"", &input);
____for(i = 0; i<input; i++)
________printf(""%2d: : "", i);
________run(' ', i);
________run('*', input-i);
________printf(""
"");
void run(char c, int length)
____for(i = 0; i<length; i++)
________printf(""%c"", c);
}
",27016,66665,1,29616,2,15149,2,0,0,4184,1,0,0,0,0,0,2,12898,4,14694,2,5764,0,4869,0,0,3,1346,2,2827,1,6260,2,13708,0,0,1,11117,1,3529,1,0,0,0,0,0
goshima,1573720407,"{
int main()
____int input;
____while(input <0)
________printf(""正の整数: "");
________scanf(""%d
"", &input);
____for(i = 0; i<input; i++)
________printf(""%2d: : "", i);
________run(' ', i);
________run('*', input-i);
________printf(""
"");
void run(char c, int length)
____for(i = 0; i<length; i++)
________printf(""%c"", c);
}
",27016,67164,1,29616,2,15149,2,0,0,4184,1,0,0,0,0,0,2,12898,4,14694,2,5764,0,4869,0,0,3,1346,2,2827,1,6260,2,13708,0,0,1,11117,1,3529,1,0,0,0,0,0
goshima,1573720412,"{
int main()
____int input;
____while(input <0)
________printf(""正の整数: "");
________scanf(""%d
"", &input);
____for(i = 0; i<input; i++)
________printf(""%2d: : "", i);
________run(' ', i);
________run('*', input-i);
________printf(""
"");
void run(char c, int length)
____for(i = 0; i<length; i++)
________printf(""%c"", c);
}
",27128,67551,1,29616,2,15149,2,0,0,4184,1,0,0,0,0,0,2,12898,4,14694,2,5764,0,4869,0,0,3,1346,2,2827,1,6260,2,13708,0,0,1,11117,1,3529,1,0,0,0,0,0
goshima,1573720417,"{
int main()
____int input;
____while(input <0)
________printf(""正の整数: "");
________scanf(""%d
"", &input);
____for(i = 0; i<input; i++)
________printf(""%2d: : "", i);
________run(' ', i);
________run('*', input-i);
________printf(""
"");
void run(char c, int length)
____for(i = 0; i<length; i++)
________printf(""%c"", c);
}
",27626,67551,1,29616,2,15149,2,0,0,4184,1,0,0,0,0,0,2,12898,4,14694,2,5764,0,4869,0,0,3,1346,2,2827,1,6260,2,13708,0,0,1,11117,1,3529,1,0,0,0,0,0
goshima,1573720422,"{
int main()
____int input;
____while(input <0)
________printf(""正の整数: "");
________scanf(""%d
"", &input);
____for(i = 0; i<input; i++)
________printf(""%2d: : "", i);
________run(' ', i);
________run('*', input-i);
________printf(""
"");
void run(char c, int length)
____for(i = 0; i<length; i++)
________printf(""%c"", c);
}
",28125,67551,1,29616,2,15149,2,0,0,4184,1,0,0,0,0,0,2,12898,4,14694,2,5764,0,4869,0,0,3,1346,2,2827,1,6260,2,13708,0,0,1,11117,1,3529,1,0,0,0,0,0
goshima,1573720427,"{
int main()
____int input;
____while(input <0)
________printf(""正の整数: "");
________scanf(""%d
"", &input);
____for(i = 0; i<input; i++)
________printf(""%2d: : "", i);
________run(' ', i);
________run('*', input-i);
________printf(""
"");
void run(char c, int length)
____for(i = 0; i<length; i++)
________printf(""%c"", c);
}
",28623,67551,1,29616,2,15149,2,0,0,4184,1,0,0,0,0,0,2,12898,4,14694,2,5764,0,4869,0,0,3,1346,2,2827,1,6260,2,13708,0,0,1,11117,1,3529,1,0,0,0,0,0
goshima,1573720432,"{
int main()
____int input;
____while(input <0)
________printf(""正の整数: "");
________scanf(""%d
"", &input);
____for(i = 0; i<input; i++)
________printf(""%2d: : "", i);
________run(' ', i);
________run('*', input-i);
________printf(""
"");
void run(char c, int length)
____for(i = 0; i<length; i++)
________printf(""%c"", c);
}
",28831,67838,1,29616,2,15149,2,0,0,4184,1,0,0,0,0,0,2,12898,4,14694,2,5764,0,4869,0,0,3,1346,2,2827,1,6260,2,13708,0,0,1,11117,1,3529,1,0,0,0,0,0
goshima,1573720437,"{
int main()
____int input;
____while(input <0)
________printf(""正の整数: "");
________scanf(""%d
"", &input);
____for(i = 0; i<input; i++)
________printf(""%2d: : "", i);
________run(' ', i);
________run('*', input-i);
________printf(""
"");
void run(char c, int length)
____for(i = 0; i<length; i++)
________printf(""%c"", c);
}
",28831,68337,1,29616,2,15149,2,0,0,4184,1,0,0,0,0,0,2,12898,4,14694,2,5764,0,4869,0,0,3,1346,2,2827,1,6260,2,13708,0,0,1,11117,1,3529,1,0,0,0,0,0
goshima,1573720442,"{
int main()
____int input;
____while(input <0)
________printf(""正の整数: "");
________scanf(""%d
"", &input);
____for(i = 0; i<input; i++)
________printf(""%2d: : "", i);
________run(' ', i);
________run('*', input-i);
________printf(""
"");
void run(char c, int length)
____for(i = 0; i<length; i++)
________printf(""%c"", c);
}
",28831,68835,1,29616,2,15149,2,0,0,4184,1,0,0,0,0,0,2,12898,4,14694,2,5764,0,4869,0,0,3,1346,2,2827,1,6260,2,13708,0,0,1,11117,1,3529,1,0,0,0,0,0
goshima,1573720447,"{
int main()
____int input;
____while(input <0)
________printf(""正の整数: "");
________scanf(""%d
"", &input);
____for(i = 0; i<input; i++)
________printf(""%2d: : "", i);
________run(' ', i);
________run('*', input-i);
________printf(""
"");
void run(char c, int length)
____for(i = 0; i<length; i++)
________printf(""%c"", c);
}
",28831,69333,1,29616,2,15149,2,0,0,4184,1,0,0,0,0,0,2,12898,4,14694,2,5764,0,4869,0,0,3,1346,2,2827,1,6260,2,13708,0,0,1,11117,1,3529,1,0,0,0,0,0
goshima,1573720452,"{
int main()
____int input;
____while(input <0)
________printf(""正の整数: "");
________scanf(""%d
"", &input);
____for(i = 0; i<input; i++)
________printf(""%2d: : "", i);
________run(' ', i);
________run('*', input-i);
________printf(""
"");
void run(char c, int length)
____for(i = 0; i<length; i++)
________printf(""%c"", c);
}
",28831,69831,1,29616,2,15149,2,0,0,4184,1,0,0,0,0,0,2,12898,4,14694,2,5764,0,4869,0,0,3,1346,2,2827,1,6260,2,13708,0,0,1,11117,1,3529,1,0,0,0,0,0
goshima,1573720457,"{
int main()
____int input;
____while(input <0)
________printf(""正の整数: "");
________scanf(""%d
"", &input);
____for(i = 0; i<input; i++)
________printf(""%2d: : "", i);
________run(' ', i);
________run('*', input-i);
________printf(""
"");
void run(char c, int length)
____for(i = 0; i<length; i++)
________printf(""%c"", c);
}
",28831,70329,1,29616,2,15149,2,0,0,4184,1,0,0,0,0,0,2,12898,4,14694,2,5764,0,4869,0,0,3,1346,2,2827,1,6260,2,13708,0,0,1,11117,1,3529,1,0,0,0,0,0
goshima,1573720462,"{
int main()
____int input;
____while(input <0)
________printf(""正の整数: "");
________scanf(""%d
"", &input);
____for(i = 0; i<input; i++)
________printf(""%2d: : "", i);
________run(' ', i);
________run('*', input-i);
________printf(""
"");
void run(char c, int length)
____for(i = 0; i<length; i++)
________printf(""%c"", c);
}
",28831,70827,1,29616,2,15149,2,0,0,4184,1,0,0,0,0,0,2,12898,4,14694,2,5764,0,4869,0,0,3,1346,2,2827,1,6260,2,13708,0,0,1,11117,1,3529,1,0,0,0,0,0
goshima,1573720467,"{
int main()
____int input;
____while(input <0)
________printf(""正の整数: "");
________scanf(""%d
"", &input);
____for(i = 0; i<input; i++)
________printf(""%2d: : "", i);
________run(' ', i);
________run('*', input-i);
________printf(""
"");
void run(char c, int length)
____for(i = 0; i<length; i++)
________printf(""%c"", c);
}
",28831,71326,1,29616,2,15149,2,0,0,4184,1,0,0,0,0,0,2,12898,4,14694,2,5764,0,4869,0,0,3,1346,2,2827,1,6260,2,13708,0,0,1,11117,1,3529,1,0,0,0,0,0
goshima,1573720472,"{
int main()
____int input;
____while(input <0)
________printf(""正の整数: "");
________scanf(""%d
"", &input);
____for(i = 0; i<input; i++)
________printf(""%2d: : "", i);
________run(' ', i);
________run('*', input-i);
________printf(""
"");
void run(char c, int length)
____for(i = 0; i<length; i++)
________printf(""%c"", c);
}
",28831,71824,1,29616,2,15149,2,0,0,4184,1,0,0,0,0,0,2,12898,4,14694,2,5764,0,4869,0,0,3,1346,2,2827,1,6260,2,13708,0,0,1,11117,1,3529,1,0,0,0,0,0
goshima,1573720477,"{
int main()
____int input;
____int i;
____while(input <0)
________printf(""正の整数: "");
________scanf(""%d
"", &input);
____for(i = 0; i<input; i++)
________printf(""%2d: : "", i);
________run(' ', i);
________run('*', input-i);
________printf(""
"");
void run(char c, int length)
____for(i = 0; i<length; i++)
________printf(""%c"", c);
}
",28831,72308,1,29616,2,15149,2,0,0,4184,1,0,1,0,0,0,2,12898,4,14694,2,5764,0,4869,0,0,3,1346,2,2827,1,6260,2,13708,0,0,1,11117,1,3529,1,0,0,0,0,0
goshima,1573720482,"{
int main()
____int input;
____int i;
____while(input <0)
________printf(""正の整数: "");
________scanf(""%d
"", &input);
____for(i = 0; i<input; i++)
________printf(""%2d: : "", i);
________run(' ', i);
________run('*', input-i);
________printf(""
"");
void run(char c, int length)
____for(i = 0; i<length; i++)
________printf(""%c"", c);
}
",28831,72808,1,29616,2,15149,2,0,0,4184,1,0,1,0,0,0,2,12898,4,14694,2,5764,0,4869,0,0,3,1346,2,2827,1,6260,2,13708,0,0,1,11117,1,3529,1,0,0,0,0,0
goshima,1573720487,"{
int main()
____int input;
____int i;
____while(input <0)
________printf(""正の整数: "");
________scanf(""%d
"", &input);
____for(i = 0; i<input; i++)
________printf(""%2d: : "", i);
________run(' ', i);
________run('*', input-i);
________printf(""
"");
void run(char c, int length)
____for(i = 0; i<length; i++)
________printf(""%c"", c);
}
",28831,73305,1,29616,2,15149,2,0,0,4184,1,0,1,0,0,0,2,12898,4,14694,2,5764,0,4869,0,0,3,1346,2,2827,1,6260,2,13708,0,0,1,11117,1,3529,1,0,0,0,0,0
goshima,1573720492,"{
int main()
____int input;
____int i;
____while(input <0)
________printf(""正の整数: "");
________scanf(""%d
"", &input);
____for(i = 0; i<input; i++)
________printf(""%2d: : "", i);
________run(' ', i);
________run('*', input-i);
________printf(""
"");
void run(char c, int length)
____for(i = 0; i<length; i++)
________printf(""%c"", c);
}
",28885,73746,1,29616,2,15149,2,0,0,4184,1,0,1,0,0,0,2,12898,4,14694,2,5764,0,4869,0,0,3,1346,2,2827,1,6260,2,13708,0,0,1,11117,1,3529,1,1179,0,0,0,0
goshima,1573720497,"{
int main()
____int input;
____int i;
____while(input <0)
________printf(""正の整数: "");
________scanf(""%d
"", &input);
____for(i = 0; i<input; i++)
________printf(""%2d: : "", i);
________run(' ', i);
________run('*', input-i);
________printf(""
"");
void run(char c, int length)
____for(i = 0; i<length; i++)
________printf(""%c"", c);
}
",29074,74053,1,29616,2,15149,2,0,0,4184,1,0,1,0,0,0,2,12898,4,14694,2,5764,0,4869,0,0,3,1346,2,2827,1,6260,2,13708,0,0,1,11117,1,3529,1,1179,0,0,0,0
goshima,1573720502,"{
int main()
____int input;
____int i;
____while(input <0)
________printf(""正の整数: "");
________scanf(""%d
"", &input);
____for(i = 0; i<input; i++)
________printf(""%2d: : "", i);
________run(' ', i);
________run('*', input-i);
________printf(""
"");
void run(char c, int length)
____for(i = 0; i<length; i++)
________printf(""%c"", c);
}
",29074,74552,1,29616,2,15149,2,0,0,4184,1,0,1,0,0,0,2,12898,4,14694,2,5764,0,4869,0,0,3,1346,2,2827,1,6260,2,13708,0,0,1,11117,1,3529,1,3018,0,0,0,0
goshima,1573720507,"{
int main()
____int input;
____int i;
____while(input <0)
________printf(""正の整数: "");
________scanf(""%d
"", &input);
____for(i = 1; i<input; i++)
________printf(""%2d: : "", i);
________run(' ', i);
________run('*', input-i);
________printf(""
"");
void run(char c, int length)
____for(i = 0; i<length; i++)
________printf(""%c"", c);
}
",29074,75049,1,29616,2,15149,2,0,0,4184,1,0,1,0,0,0,2,12898,4,14694,2,5764,0,4869,0,0,3,1346,2,2827,1,6260,2,13708,0,0,1,11117,1,3529,1,5306,0,0,0,0
goshima,1573720512,"{
int main()
____int input;
____int i;
____while(input <0)
________printf(""正の整数: "");
________scanf(""%d
"", &input);
____for(i = 1; i<input; i++)
________printf(""%2d: : "", i);
________run(' ', i);
________run('*', input-i);
________printf(""
"");
void run(char c, int length)
____for(i = 0; i<length; i++)
________printf(""%c"", c);
}
",29074,75546,1,29616,2,15149,2,0,0,4184,1,0,1,0,0,0,2,12898,4,14694,2,5764,0,4869,0,0,3,1346,2,2827,1,6260,2,13708,0,0,1,11117,1,3529,1,5306,0,0,0,0
goshima,1573720517,"{
int main()
____int input;
____int i;
____while(input <0)
________printf(""正の整数: "");
________scanf(""%d
"", &input);
____for(i = 1; i<input; i++)
________printf(""%2d: : "", i);
________run(' ', i);
________run('*', input-i);
________printf(""
"");
void run(char c, int length)
____for(i = 0; i<length; i++)
________printf(""%c"", c);
}
",29074,76046,1,29616,2,15149,2,0,0,4184,1,0,1,0,0,0,2,12898,4,14694,2,5764,0,4869,0,0,3,1346,2,2827,1,6260,2,13708,0,0,1,11117,1,3529,1,5306,0,0,0,0
goshima,1573720522,"{
int main()
____int input;
____int i;
____while(input <0)
________printf(""正の整数: "");
________scanf(""%d
"", &input);
____for(i = 1; i<input; i++)
________printf(""%2d: : "", i);
________run(' ', i);
________run('*', input-i);
________printf(""
"");
void run(char c, int length)
____for(i = 0; i<length; i++)
________printf(""%c"", c);
}
",29074,76544,1,29616,2,15149,2,0,0,4184,1,0,1,0,0,0,2,12898,4,14694,2,5764,0,4869,0,0,3,1346,2,2827,1,6260,2,13708,0,0,1,11117,1,3529,1,5306,0,0,0,0
goshima,1573720527,"{
int main()
____int input;
____int i;
____while(input <0)
________printf(""正の整数: "");
________scanf(""%d
"", &input);
____for(i = 1; i<input+1; i++)
________printf(""%2d: : "", i);
________run(' ', i);
________run('*', input-i);
________printf(""
"");
void run(char c, int length)
____for(i = 0; i<length; i++)
________printf(""%c"", c);
}
",29074,77037,1,29616,2,15149,2,0,0,4184,1,0,1,0,0,0,2,12898,4,14694,2,5764,0,4869,0,0,3,1346,2,2827,1,6260,2,13708,0,0,1,11117,1,3529,1,5306,0,0,0,0
goshima,1573720532,"{
int main()
____int input;
____int i;
____while(input <0)
________printf(""正の整数: "");
________scanf(""%d
"", &input);
____for(i = 1; i<input+1; i++)
________printf(""%2d: : "", i);
________run(' ', i);
________run('*', input-i);
________printf(""
"");
void run(char c, int length)
____for(i = 0; i<length; i++)
________printf(""%c"", c);
}
",29074,77534,1,29616,2,15149,2,0,0,4184,1,0,1,0,0,0,2,12898,4,14694,2,5764,0,4869,0,0,3,1346,2,2827,1,6260,2,13708,0,0,1,11117,1,3529,1,5306,0,0,0,0
goshima,1573720537,"{
int main()
____int input;
____int i;
____while(input <0)
________printf(""正の整数: "");
________scanf(""%d
"", &input);
____for(i = 1; i<input+1; i++)
________printf(""%2d: : "", i);
________run(' ', i);
________run('*', input-i);
________printf(""
"");
void run(char c, int length)
____for(i = 0; i<length; i++)
________printf(""%c"", c);
}
",29074,78032,1,29616,2,16949,2,0,0,4184,1,0,1,0,0,0,2,12898,4,14694,2,5764,0,4869,0,0,3,1346,2,2827,1,6260,2,13708,0,0,1,11117,1,3529,1,5306,0,0,0,0
goshima,1573720542,"{
int main()
____int input;
____int i;
____while(input <0)
________printf(""正の整数: "");
________scanf(""%d
"", &input);
____for(i = 1; i<input+1; i++)
________printf(""%2d: : "", i);
________run(' ', i-1);
________run('*', input-i);
________printf(""
"");
void run(char c, int length)
____for(i = 0; i<length; i++)
________printf(""%c"", c);
}
",29074,78528,1,29616,2,16949,2,0,0,4184,1,0,1,0,0,0,2,12898,4,14694,2,5764,0,4869,0,0,3,1346,2,2827,1,6260,2,13708,0,0,1,11117,1,3529,1,5306,0,0,0,0
goshima,1573720547,"{
int main()
____int input;
____int i;
____while(input <0)
________printf(""正の整数: "");
________scanf(""%d
"", &input);
____for(i = 1; i<input+1; i++)
________printf(""%2d: : "", i);
________run(' ', i-1);
________run('*', input-i);
________printf(""
"");
void run(char c, int length)
____for(i = 0; i<length; i++)
________printf(""%c"", c);
}
",29074,79027,1,29616,2,16949,2,0,0,4184,1,0,1,0,0,0,2,12898,4,14694,2,5764,0,4869,0,0,3,1346,2,2827,1,6260,2,13708,0,0,1,11117,1,3529,1,5306,0,0,0,0
goshima,1573720552,"{
int main()
____int input;
____int i;
____while(input <0)
________printf(""正の整数: "");
________scanf(""%d
"", &input);
____for(i = 1; i<input+1; i++)
________printf(""%2d: : "", i);
________run(' ', i-1);
________run('*', input-i);
________printf(""
"");
void run(char c, int length)
____for(i = 0; i<length; i++)
________printf(""%c"", c);
}
",29074,79522,1,29616,2,16949,2,0,0,4184,1,0,1,0,0,0,2,12898,4,14694,2,5764,0,4869,0,0,3,1346,2,2827,1,6260,2,13708,0,0,1,11117,1,3529,1,5306,0,0,0,0
goshima,1573720557,"{
int main()
____int input;
____int i;
____while(input <0)
________printf(""正の整数: "");
________scanf(""%d
"", &input);
____for(i = 1; i<input+1; i++)
________printf(""%2d: : "", i);
________run(' ', i-1);
________run('*', input+1-i);
________printf(""
"");
void run(char c, int length)
____for(i = 0; i<length; i++)
________printf(""%c"", c);
}
",29074,80017,1,29616,2,16949,2,0,0,4184,1,0,1,0,0,0,2,12898,4,14694,2,5764,0,4869,0,0,3,1346,2,2827,1,6260,2,13708,0,0,1,11117,1,3529,1,5306,0,0,0,0
goshima,1573720562,"{
int main()
____int input;
____int i;
____while(input <0)
________printf(""正の整数: "");
________scanf(""%d
"", &input);
____for(i = 1; i<input+1; i++)
________printf(""%2d: : "", i);
________run(' ', i-1);
________run('*', input+1-i);
________printf(""
"");
void run(char c, int length)
____for(i = 0; i<length; i++)
________printf(""%c"", c);
}
",29074,80512,1,29616,2,16949,2,0,0,4184,1,0,1,0,0,0,2,12898,4,14694,2,5764,0,4869,0,0,3,1346,2,2827,1,6260,2,13708,0,0,1,11117,1,3529,1,5306,0,0,0,0
goshima,1573720567,"{
int main()
____int input;
____int i;
____while(input <0)
________printf(""正の整数: "");
________scanf(""%d
"", &input);
____for(i = 1; i<input+1; i++)
________printf(""%2d: : "", i);
________run(' ', i-1);
________run('*', input+1-i);
________printf(""
"");
void run(char c, int length)
____for(i = 0; i<length; i++)
________printf(""%c"", c);
}
",29074,81010,1,29616,2,16949,2,0,0,4184,1,0,1,0,0,0,2,12898,4,14694,2,5764,0,4869,0,0,3,1346,2,2827,1,6260,2,13708,0,0,1,12783,1,3529,1,5306,0,0,0,0
goshima,1573720572,"{
int main()
____int input;
____int i;
____while(input <0)
________printf(""正の整数: "");
________scanf(""%d
"", &input);
____for(i = 1; i<input+1; i++)
________printf(""%2d: : "", i);
________run(' ', i-1);
________run('*', input+1-i);
________printf(""
"");
void run(char c, int length)
____for(i = 0; i<length; i++)
________printf(""%c"", c);
}
",29074,81508,1,29616,2,16949,2,0,0,4184,1,0,1,0,0,0,2,12898,4,14694,2,5764,0,4869,0,0,3,1346,2,2827,1,7476,2,13708,0,0,1,12783,1,3529,1,5306,0,0,0,0
goshima,1573720577,"{
int main()
____int input;
____int i;
____while(input <0)
________printf(""正の整数: "");
________scanf(""%d
"", &input);
____for(i = 1; i<input+1; i++)
________printf(""%2d: : "", i);
________run(' ', i-1);
________run('*', input+1-i);
________printf(""
"");
void run(char c, int length)
____for(i = 0; i<length; i++)
________printf(""%c"", c);
}
",29074,82006,1,29616,2,16949,2,0,0,4184,1,0,1,0,0,0,2,12898,4,14694,2,5764,0,4869,0,0,3,1346,2,2827,1,7476,2,13708,0,0,1,12783,1,3529,1,5306,0,0,0,0
goshima,1573720582,"{
int main()
____int input;
____int i;
____while(input <0)
________printf(""正の整数: "");
________scanf(""%d
"", &input);
____for(i = 1; i<input+1; i++)
________printf(""%2d: : "", i);
________run(' ', i-1);
________run('*', input+1-i);
________printf(""
"");
void run(char c, int length)
____for(i = 0; i<length; i++)
________printf(""%c"", c);
}
",29074,82504,1,29616,2,16949,2,0,0,4184,1,0,1,0,0,0,2,12898,4,14694,2,5764,0,4869,0,0,3,1346,2,2827,1,7476,2,13708,0,0,1,12783,1,3529,1,5306,0,0,0,0
goshima,1573720587,"{
int main()
____int input;
____int i;
____while(input <0)
________printf(""正の整数: "");
________scanf(""%d
"", &input);
____for(i = 1; i<input+1; i++)
________printf(""%2d: : "", i);
________run(' ', i-1);
________run('*', input+1-i);
________printf(""
"");
void run(char c, int length)
____for(i = 0; i<length; i++)
________printf(""%c"", c);
}
",29074,83002,1,29616,2,16949,2,0,0,4184,1,0,1,0,0,0,2,12898,4,14694,2,5764,0,4869,0,0,3,1346,2,2827,1,7476,2,13708,0,0,1,12783,1,3529,1,5306,0,0,0,0
goshima,1573720592,"{
int main()
____int input;
____int i;
____while(input <0)
________printf(""正の整数: "");
________scanf(""%d
"", &input);
____for(i = 1; i<input+1; i++)
________printf(""%2d: : "", i);
________run(' ', i-1);
________run('*', input+1-i);
________printf(""
"");
void run(char c, int length)
____for(i = 0; i<length; i++)
________printf(""%c"", c);
}
",29074,83502,1,29616,2,16949,2,0,0,4184,1,0,1,0,0,0,2,12898,4,14694,2,5764,0,4869,0,0,3,1346,2,2827,1,7476,2,13708,0,0,1,12783,1,3529,1,5306,0,0,0,0
goshima,1573720597,"{
int main()
____int input;
____int i;
____while(input <0)
________printf(""正の整数: "");
________scanf(""%d
"", &input);
____for(i = 1; i<input+1; i++)
________printf(""%2d: : "", i);
________run(' ', i-1);
________run('*', input+1-i);
________printf(""
"");
void run(char c, int length)
____for(i = 0; i<length; i++)
________printf(""%c"", c);
}
",29074,84000,1,29616,2,16949,2,0,0,4184,1,0,1,0,0,0,2,12898,4,14694,2,5764,0,4869,0,0,3,1346,2,2827,1,7476,2,13708,0,0,1,12783,1,3529,1,5306,0,0,0,0
goshima,1573720602,"{
int main()
____int input;
____int i;
____while(input <0)
________printf(""正の整数: "");
________scanf(""%d
"", &input);
____for(i = 1; i<input+1; i++)
________printf(""%2d: : "", i);
________run(' ', i-1);
________run('*', input+1-i);
________printf(""
"");
void run(char c, int length)
____for(i = 0; i<length; i++)
________printf(""%c"", c);
}
",29074,84498,1,29616,2,16949,2,0,0,4184,1,0,1,0,0,0,2,12898,4,14694,2,5764,0,4869,0,0,3,1346,2,2827,1,7476,2,13708,0,0,1,12783,1,3529,1,5306,0,0,0,0
goshima,1573720607,"{
int main()
____int input;
____int i;
____while(input <0)
________printf(""正の整数: "");
________scanf(""%d
"", &input);
____for(i = 1; i<input+1; i++)
________printf(""%2d: : "", i);
________run(' ', i-1);
________run('*', input+1-i);
________printf(""
"");
void run(char c, int length)
____for(i = 0; i<length; i++)
________printf(""%c"", c);
}
",29074,84996,1,29616,2,16949,2,0,0,4184,1,0,1,0,0,0,2,12898,4,14694,2,5764,0,4869,0,0,3,1346,2,2827,1,7476,2,13708,0,0,1,12783,1,3529,1,5306,0,0,0,0
goshima,1573720612,"{
int main()
____int input;
____int i;
____while(input <0)
________printf(""正の整数: "");
________scanf(""%d
"", &input);
____for(i = 1; i<input+1; i++)
________printf(""%2d: : "", i);
________run(' ', i-1);
________run('*', input+1-i);
________printf(""
"");
void run(char c, int length)
}
",29074,85480,1,29616,2,16949,2,0,0,4184,1,0,1,0,0,0,2,12898,4,14694,2,5764,0,4869,0,0,3,1346,2,2827,1,7476,2,13708,0,0,2,12783,1,3529,1,5306,0,0,0,0
goshima,1573720617,"{
int main()
____int input;
____int i;
____while(input <0)
________printf(""正の整数: "");
________scanf(""%d
"", &input);
____for(i = 1; i<input+1; i++)
________printf(""%2d: : "", i);
________run(' ', i-1);
________run('*', input+1-i);
________printf(""
"");
void run(char c, int length)
}
",29074,85964,1,29616,2,16949,2,0,0,4184,1,0,1,0,0,0,2,12898,4,14694,3,5764,0,4869,0,0,3,1346,3,2827,1,7476,2,13708,0,0,2,12783,1,3529,1,5306,0,0,0,0
goshima,1573720622,"{
int main()
____int input;
____int i;
____while(input <0)
________printf(""正の整数: "");
________scanf(""%d
"", &input);
____for(i = 1; i<input+1; i++)
________printf(""%2d: : "", i);
________run(' ', i-1);
________run('*', input+1-i);
________printf(""
"");
void run(char c, int length)
____printf("""", input);
____for(i = 0; i<length; i++)
________printf(""%c"", c);
}
",29074,86449,1,29616,2,16949,2,0,0,4184,1,0,1,0,0,0,2,12898,4,14694,4,7916,0,4869,0,0,3,1346,3,2827,1,7476,2,13708,0,0,2,12783,1,3529,1,5306,0,0,0,0
goshima,1573720627,"{
int main()
____int input;
____int i;
____while(input <0)
________printf(""正の整数: "");
________scanf(""%d
"", &input);
____for(i = 1; i<input+1; i++)
________printf(""%2d: : "", i);
________run(' ', i-1);
________run('*', input+1-i);
________printf(""
"");
void run(char c, int length)
}
",29074,86931,1,29616,2,16949,2,0,0,4184,1,0,1,0,0,0,2,12898,4,14694,6,7916,0,4869,0,0,3,1346,3,2827,1,7476,2,13708,0,0,2,12783,1,3529,1,5306,0,0,0,0
goshima,1573720632,"{
int main()
____int input;
____int i;
____while(input <0)
________printf(""正の整数: "");
________scanf(""%d
"", &input);
____for(i = 1; i<input+1; i++)
________printf(""%2d: : "", i);
________run(' ', i-1);
________run('*', input+1-i);
________printf(""
"");
void run(char c, int length)
____int i;
____for(i = 0; i<length; i++)
________printf(""%c"", c);
}
",29074,87413,1,29616,2,16949,2,0,0,4184,1,0,1,0,0,0,2,12898,4,14694,6,7916,0,4869,1,0,3,1346,3,2827,1,7476,2,13708,0,0,2,12783,1,3529,1,5306,0,0,0,0
goshima,1573720637,"{
int main()
____int input;
____int i;
____while(input <0)
________printf(""正の整数: "");
________scanf(""%d
"", &input);
____for(i = 1; i<input+1; i++)
________printf(""%2d: : "", i);
________run(' ', i-1);
________run('*', input+1-i);
________printf(""
"");
void run(char c, int length)
____int i;
____for(i = 0; i<length; i++)
________printf(""%c"", c);
}
",29074,87913,1,29616,2,16949,2,0,0,4184,1,0,1,0,0,0,2,12898,4,14694,6,7916,0,4869,1,0,3,1346,3,2827,1,7476,2,13708,0,0,2,12783,1,3529,1,5306,0,0,0,0
goshima,1573720642,"{
int main()
____int input;
____int i;
____while(input <0)
________printf(""正の整数: "");
________scanf(""%d
"", &input);
____for(i = 1; i<input+1; i++)
________printf(""%2d: : "", i);
________run(' ', i-1);
________run('*', input+1-i);
________printf(""
"");
void run(char c, int length)
____int i;
____for(i = 0; i<length; i++)
________printf(""%c"", c);
}
",29074,88411,1,29616,2,16949,2,0,0,4184,1,0,1,0,0,0,2,12898,4,14694,6,7916,0,4869,1,0,3,1346,3,2827,1,7476,2,13708,0,0,2,12783,1,3529,1,5306,0,0,0,0
goshima,1573720647,"{
int main()
____int input;
____int i;
____while(input <0)
________printf(""正の整数: "");
________scanf(""%d
"", &input);
____for(i = 1; i<input+1; i++)
________printf(""%2d: : "", i);
________run(' ', i-1);
________run('*', input+1-i);
________printf(""
"");
void run(char c, int length)
____int i;
____for(i = 0; i<length; i++)
________printf(""%c"", c);
}
",29074,88909,1,29616,2,16949,2,0,0,4184,1,0,1,0,0,0,2,12898,4,14694,6,7916,0,4869,1,0,3,1346,3,2827,1,7476,2,13708,0,0,2,12783,1,3529,1,5306,0,0,0,0
goshima,1573720652,"{
int main()
____int input;
____int i;
____while(input <0)
________printf(""正の整数: "");
________scanf(""%d
"", &input);
____for(i = 1; i<input+1; i++)
________printf(""%2d: : "", i);
________run(' ', i-1);
________run('*', input+1-i);
________printf(""
"");
void run(char c, int length)
____int i;
____for(i = 0; i<length; i++)
________printf(""%c"", c);
}
",29074,89407,1,29616,2,16949,2,0,0,4184,1,0,1,0,0,0,2,12898,4,14694,6,7916,0,4869,1,0,3,1346,3,2827,1,7476,2,13708,0,0,2,12783,1,3529,1,5306,0,0,0,0
goshima,1573720657,"{
int main()
____int input;
____int i;
____while(input <0)
________printf(""正の整数: "");
________scanf(""%d
"", &input);
____for(i = 1; i<input+1; i++)
________printf(""%2d: : "", i);
________run(' ', i-1);
________run('*', input+1-i);
________printf(""
"");
void run(char c, int length)
____int i;
____for(i = 0; i<length; i++)
________printf(""%c"", c);
}
",29074,89904,1,29616,2,16949,2,0,0,4184,1,0,1,0,0,0,2,12898,4,14694,6,7916,0,4869,1,0,3,1346,3,2827,1,7476,2,13708,0,0,2,12783,1,3529,1,5306,0,0,0,0
