"すずきまさみ","1571706227",,"159","0","0","0","0","0","0","0","0","0","0","0","0","0","0","0","0","0","0","0","0","0","0","0","0","0","0","0","0","0","0","0","0","0","0","0","0","0","0","0","0","0","0","0","0","0"
"すずきまさみ","1571706232",,"166","0","0","0","0","0","0","0","0","0","0","0","0","0","0","0","0","0","0","0","0","0","0","0","0","0","0","0","0","0","0","0","0","0","0","0","0","0","0","0","0","0","0","0","0","0"
"すずきまさみ","1571706237",,"548","0","0","0","0","0","0","0","0","0","0","0","0","0","0","0","0","0","0","0","0","0","0","0","0","0","0","0","0","0","0","0","0","0","0","0","0","0","0","0","0","0","0","0","0","0"
"すずきまさみ","1571706242",,"1040","0","0","0","0","0","0","0","0","0","0","0","0","0","0","0","0","0","0","0","0","0","0","0","0","0","0","0","0","0","0","0","0","0","0","0","0","0","0","0","0","0","0","0","0","0"
"すずきまさみ","1571706247",,"1525","0","0","0","0","0","0","0","0","0","0","0","0","0","0","0","0","0","0","0","0","0","0","0","0","0","0","0","0","0","0","0","0","0","0","0","0","0","0","0","0","0","0","0","0","0"
"すずきまさみ","1571706252",,"2003","0","0","0","0","0","0","0","0","0","0","0","0","0","0","0","0","0","0","0","0","0","0","0","0","0","0","0","0","0","0","0","0","0","0","0","0","0","0","0","0","0","0","0","0","0"
"すずきまさみ","1571706257",,"2493","0","0","0","0","0","0","0","0","0","0","0","0","0","0","0","0","0","0","0","0","0","0","0","0","0","0","0","0","0","0","0","0","0","0","0","0","0","0","0","0","0","0","0","0","0"
"すずきまさみ","1571706262",,"2983","0","0","0","0","0","0","0","0","0","0","0","0","0","0","0","0","0","0","0","0","0","0","0","0","0","0","0","0","0","0","0","0","0","0","0","0","0","0","0","0","0","0","0","0","0"
"すずきまさみ","1571706267",,"3468","0","0","0","0","0","0","0","0","0","0","0","0","0","0","0","0","0","0","0","0","0","0","0","0","0","0","0","0","0","0","0","0","0","0","0","0","0","0","0","0","0","0","0","0","0"
"すずきまさみ","1571706272",,"3961","0","0","0","0","0","0","0","0","0","0","0","0","0","0","0","0","0","0","0","0","0","0","0","0","0","0","0","0","0","0","0","0","0","0","0","0","0","0","0","0","0","0","0","0","0"
"すずきまさみ","1571706277",,"4449","0","0","0","0","0","0","0","0","0","0","0","0","0","0","0","0","0","0","0","0","0","0","0","0","0","0","0","0","0","0","0","0","0","0","0","0","0","0","0","0","0","0","0","0","0"
"すずきまさみ","1571706282",,"4943","0","0","0","0","0","0","0","0","0","0","0","0","0","0","0","0","0","0","0","0","0","0","0","0","0","0","0","0","0","0","0","0","0","0","0","0","0","0","0","0","0","0","0","0","0"
"すずきまさみ","1571706287",,"5436","0","0","0","0","0","0","0","0","0","0","0","0","0","0","0","0","0","0","0","0","0","0","0","0","0","0","0","0","0","0","0","0","0","0","0","0","0","0","0","0","0","0","0","0","0"
"すずきまさみ","1571706292",,"5933","0","0","0","0","0","0","0","0","0","0","0","0","0","0","0","0","0","0","0","0","0","0","0","0","0","0","0","0","0","0","0","0","0","0","0","0","0","0","0","0","0","0","0","0","0"
"すずきまさみ","1571706297",,"6327","90","0","0","0","0","0","0","0","0","0","0","0","0","0","0","0","0","0","0","0","0","0","0","0","0","0","0","0","0","0","0","0","0","0","0","0","0","0","0","0","0","0","0","0","0"
"すずきまさみ","1571706302",,"6327","559","0","0","0","0","0","0","0","0","0","0","0","0","0","0","0","0","0","0","0","0","0","0","0","0","0","0","0","0","0","0","0","0","0","0","0","0","0","0","0","0","0","0","0","0"
"すずきまさみ","1571706307",,"6327","1029","0","0","0","0","0","0","0","0","0","0","0","0","0","0","0","0","0","0","0","0","0","0","0","0","0","0","0","0","0","0","0","0","0","0","0","0","0","0","0","0","0","0","0","0"
"すずきまさみ","1571706312","{
}
","6327","1515","0","0","0","0","2","0","0","0","0","0","0","0","0","0","0","0","0","0","0","0","0","0","0","0","0","0","0","0","0","0","0","0","0","0","0","0","0","0","0","0","0","0","0","0"
"すずきまさみ","1571706317","{
}
","6327","1972","0","0","0","0","2","0","0","0","0","0","0","0","0","0","0","0","0","0","0","0","0","0","0","0","0","0","0","0","0","0","0","0","0","0","0","0","0","0","0","0","0","0","0","0"
"すずきまさみ","1571706322","{
}
","6327","2444","0","0","0","0","2","0","0","0","0","0","0","0","0","0","0","0","0","0","0","0","0","0","0","0","0","0","0","0","0","0","0","0","0","0","0","0","0","0","0","0","0","0","0","0"
"すずきまさみ","1571706327","{
}
","6327","2920","0","0","0","0","2","0","0","0","0","0","0","0","0","0","0","0","0","0","0","0","0","0","0","0","0","0","0","0","0","0","0","0","0","0","0","0","0","0","0","0","0","0","0","0"
"すずきまさみ","1571706332","{
}
","6327","3397","0","0","0","0","2","0","0","0","0","0","0","0","0","0","0","0","0","0","0","0","0","0","0","0","0","0","0","0","0","0","0","0","0","0","0","0","0","0","0","0","0","0","0","0"
"すずきまさみ","1571706337","{
}
","6327","3892","0","0","0","0","2","0","0","0","0","0","0","0","0","0","0","0","0","0","0","0","0","0","0","0","0","0","0","0","0","0","0","0","0","0","0","0","0","0","0","0","0","0","0","0"
"すずきまさみ","1571706342","{
}
","6514","4202","0","0","0","0","2","0","0","0","0","0","0","0","0","0","0","0","0","0","0","0","0","0","0","0","0","0","0","0","0","0","0","0","0","0","0","0","0","0","0","0","0","0","0","0"
"すずきまさみ","1571706347","{
}
","6563","4615","0","0","0","0","2","0","0","0","0","0","0","0","0","0","0","0","0","0","0","0","0","0","0","0","0","0","0","0","0","0","0","0","0","0","0","0","0","0","0","0","0","0","0","0"
"すずきまさみ","1571706352","{
int main()
while(i )
}
","6563","5081","0","0","0","0","2","0","1","0","0","0","0","0","0","0","0","0","0","0","0","0","0","0","0","0","0","0","0","0","0","0","0","1096","0","0","0","0","0","0","0","0","0","0","0","0"
"すずきまさみ","1571706357","{
int main()
while(i )
}
","6563","5518","1","0","0","0","2","1979","2","0","0","0","0","0","0","0","0","0","0","0","0","0","0","0","0","0","0","0","0","0","0","0","0","1096","0","0","0","0","0","0","0","0","0","0","0","0"
"すずきまさみ","1571706362","{
int main()
while(i )
}
","6563","5972","2","0","0","0","2","1979","2","0","0","0","0","0","0","0","0","0","0","0","0","0","0","0","0","0","0","0","0","0","0","0","0","1096","0","0","0","0","0","0","0","0","0","0","0","0"
"すずきまさみ","1571706367","{
int main()
}
","6563","6418","3","0","0","0","2","1979","2","0","0","0","0","0","0","0","0","0","0","0","0","0","0","0","0","0","0","0","0","0","0","0","0","1096","0","0","0","0","0","0","0","0","0","0","0","0"
"すずきまさみ","1571706372","{
int main()
}
","6563","6878","3","0","0","0","2","1979","2","0","0","0","0","0","0","0","0","0","0","0","0","0","0","0","0","0","0","0","0","0","0","0","0","1096","0","0","0","0","0","0","0","0","0","0","0","0"
"すずきまさみ","1571706377","{
int main()
while(input )
}
","6563","7357","4","0","0","0","2","1979","2","0","0","0","0","0","0","0","0","0","0","0","0","0","0","0","0","0","0","0","0","0","0","0","0","1096","0","0","0","0","0","0","0","0","0","0","0","0"
"すずきまさみ","1571706382","{
int main()
while(input )
}
","6840","7554","4","0","0","0","2","1979","2","0","0","0","0","0","0","0","0","0","0","0","0","0","0","0","0","0","0","0","0","0","0","0","0","1096","0","0","0","0","0","0","0","0","0","0","0","0"
"すずきまさみ","1571706387","{
int main()
while(input )
}
","7334","7554","4","0","0","0","2","1979","2","0","0","0","0","0","0","0","0","0","0","0","0","0","0","0","0","0","0","0","0","0","0","0","0","1096","0","0","0","0","0","0","0","0","0","0","0","0"
"すずきまさみ","1571706392","{
int main()
while(input )
}
","7814","7554","4","0","0","0","2","1979","2","0","0","0","0","0","0","0","0","0","0","0","0","0","0","0","0","0","0","0","0","0","0","0","0","1096","0","0","0","0","0","0","0","0","0","0","0","0"
"すずきまさみ","1571706397","{
int main()
while(input )
}
","8057","7769","5","0","0","0","2","1979","2","0","0","0","0","0","0","0","0","0","0","0","0","0","0","0","0","0","0","0","0","0","0","0","0","1096","0","0","0","0","0","0","0","0","0","0","0","0"
"すずきまさみ","1571706402","{
int main()
while(input )
}
","8057","8224","5","0","0","0","2","1979","2","0","0","0","0","0","0","0","0","0","0","0","0","0","0","0","0","0","0","0","0","0","0","0","0","1096","0","0","0","0","0","0","0","0","0","0","0","0"
"すずきまさみ","1571706407","{
int main()
while(input )
}
","8057","8716","5","0","0","0","2","1979","2","0","0","0","0","0","0","0","0","0","0","0","0","0","0","0","0","0","0","0","0","0","0","0","0","1096","0","0","0","0","0","0","0","0","0","0","0","0"
"すずきまさみ","1571706412","{
int main()
while(input )
}
","8057","9211","5","0","0","0","2","1979","2","0","0","0","0","0","0","0","0","0","0","0","0","0","0","0","0","0","0","0","0","0","0","0","0","1096","0","0","0","0","0","0","0","0","0","0","0","0"
"すずきまさみ","1571706417","{
int main()
while(input )
}
","8057","9698","5","0","0","0","2","1979","2","0","0","0","0","0","0","0","0","0","0","0","0","0","0","0","0","0","0","0","0","0","0","0","0","1096","0","0","0","0","0","0","0","0","0","0","0","0"
"すずきまさみ","1571706422","{
int main()
while(input )
}
","8057","10178","5","0","0","0","2","1979","2","0","0","0","0","0","0","0","0","0","0","0","0","0","0","0","0","0","0","0","0","0","0","0","0","1096","0","0","0","0","0","0","0","0","0","0","0","0"
"すずきまさみ","1571706427","{
int main()
while(input )
}
","8057","10670","5","0","0","0","2","1979","2","0","0","0","0","0","0","0","0","0","0","0","0","0","0","0","0","0","0","0","0","0","0","0","0","1096","0","0","0","0","0","0","0","0","0","0","0","0"
"すずきまさみ","1571706432","{
int main()
while(input )
}
","8057","11151","5","0","0","0","2","1979","2","0","0","0","0","0","0","0","0","0","0","0","0","0","0","0","0","0","0","0","0","0","0","0","0","1096","0","0","0","0","0","0","0","0","0","0","0","0"
"すずきまさみ","1571706437","{
int main()
}
","8301","11394","5","0","0","0","2","1979","2","0","0","0","0","0","0","0","0","0","0","0","0","0","0","0","0","0","0","0","0","0","0","0","0","1096","0","0","0","0","0","0","0","0","0","0","0","0"
"すずきまさみ","1571706442","{
int main()
}
","8790","11394","5","0","0","0","2","1979","2","0","0","0","0","0","0","0","0","0","0","0","0","0","0","0","0","0","0","0","0","0","0","0","0","1096","0","0","0","0","0","0","0","0","0","0","0","0"
"すずきまさみ","1571706447","{
int main()
}
","8973","11684","5","0","0","0","2","1979","2","0","0","0","0","0","0","0","0","0","0","0","0","0","0","0","0","0","0","0","0","0","0","0","0","1096","0","0","0","0","0","0","0","0","0","0","0","0"
"すずきまさみ","1571706452","{
int main()
while(input <0)
}
","8973","12133","6","0","0","0","2","1979","2","0","0","0","0","0","0","0","0","0","0","0","0","0","0","0","0","0","0","0","0","0","0","0","0","1096","0","0","0","0","0","0","0","0","0","0","0","0"
"すずきまさみ","1571706457","{
int main()
printf(""正の整数: "");
while(input <0)
}
","8973","12579","6","0","0","0","2","1979","2","0","0","0","0","0","0","0","1","0","0","0","0","0","0","0","0","0","0","0","0","0","0","0","0","1096","0","0","0","0","0","0","0","0","0","0","0","0"
"すずきまさみ","1571706462","{
int main()
int i;
printf(""正の整数: "");
while(input <0)
}
","8973","13041","6","0","0","0","2","1979","2","0","0","0","0","0","0","0","1","0","0","0","0","0","0","0","1","0","0","0","0","0","0","0","0","1096","0","0","0","0","0","0","0","0","0","0","0","0"
"すずきまさみ","1571706467","{
int main()
____int i;
int i;
printf(""正の整数: "");
while(input <0)
}
","8973","13507","6","0","0","0","2","1979","2","0","0","0","0","0","0","0","1","0","0","0","0","0","0","0","2","0","0","0","0","0","0","0","0","1096","0","0","0","0","0","0","0","0","0","0","0","0"
"すずきまさみ","1571706472","{
int main()
____int i;
int i;
printf(""正の整数: "");
while(input <0)
}
","8973","13988","6","0","0","0","2","1979","2","0","0","0","0","0","0","0","1","0","0","0","0","0","0","0","2","1048","0","0","0","0","0","0","0","1096","0","0","0","0","0","0","0","0","0","0","0","0"
"すずきまさみ","1571706477","{
int main()
____int i;
int i;
printf(""正の整数: "");
while(input <0)
}
","8973","14446","6","0","0","0","2","1979","2","0","0","0","0","0","0","0","1","0","0","0","0","0","0","0","2","1048","0","0","0","0","0","0","0","1096","0","0","0","0","0","0","0","0","0","0","0","0"
"すずきまさみ","1571706482","{
int main()
____int i;
int i;
printf(""正の整数: "");
while(input <0)
}
","8973","14900","6","0","0","0","2","1979","2","0","0","0","0","0","0","0","2","0","0","0","0","0","0","0","2","1048","0","0","0","0","0","0","0","1096","0","0","0","0","0","0","0","0","0","0","0","0"
"すずきまさみ","1571706487","{
int main()
____int i;
int i;
printf(""正の整数: "");
while(input <0)
}
","8973","15377","6","0","0","0","2","1979","2","0","0","0","0","0","0","0","3","0","0","0","0","0","0","0","2","1048","0","0","0","0","0","0","0","1096","0","0","0","0","0","0","0","0","0","0","0","0"
"すずきまさみ","1571706492","{
int main()
____int i;
printf(""正の整数: "");
printf(""正の整数: "");
while(input <0)
}
","8973","15833","6","0","0","0","2","1979","2","0","0","0","0","0","0","0","5","1684","0","0","0","0","0","0","2","1048","0","0","0","0","0","0","0","1096","0","0","0","0","0","0","0","0","0","0","0","0"
"すずきまさみ","1571706497","{
int main()
____int i;
____printf(""正の整数: "");
printf(""正の整数: "");
while(input <0)
}
","8973","16289","7","0","0","0","2","1979","2","0","0","0","0","0","0","0","6","1684","0","0","0","0","0","0","2","1048","0","0","0","0","0","0","0","1096","0","0","0","0","0","0","0","0","0","0","0","0"
"すずきまさみ","1571706502","{
int main()
____int i;
____printf(""正の整数: "");
____while(input <0)
while(input <0)
}
","8973","16742","7","1525","0","0","2","1979","2","0","0","0","0","0","0","0","6","1684","0","0","0","0","0","0","2","1048","0","0","0","0","0","0","0","1096","0","0","0","0","0","0","0","0","0","0","0","0"
"すずきまさみ","1571706507","{
int main()
____int i;
____printf(""正の整数: "");
____while(input <0)
while(input <0)
}
","8973","17224","7","1525","0","0","2","1979","2","0","0","0","0","0","0","0","6","1684","0","0","0","0","0","0","2","1048","0","0","0","0","0","0","0","1096","0","0","0","0","0","0","0","0","0","0","0","0"
"すずきまさみ","1571706512","{
int main()
____int i;
____printf(""正の整数: "");
____while(input <0)
while(input <0)
}
","9090","17591","7","1525","0","0","2","1979","2","0","0","0","0","0","0","0","6","1684","0","0","0","0","0","0","2","1048","0","0","0","0","0","0","0","1096","0","0","0","0","0","0","0","0","0","0","0","0"
"すずきまさみ","1571706517","{
int main()
____int i;
____printf(""正の整数: "");
____while(input <0)
while(input <0)
}
","9217","17943","7","1525","0","0","2","1979","2","0","0","0","0","0","0","0","6","1684","0","0","0","0","0","0","2","1048","0","0","0","0","0","0","0","1096","0","0","0","0","0","0","0","0","0","0","0","0"
"すずきまさみ","1571706522","{
int main()
____int i;
____printf(""正の整数: "");
____while(input <0)
while(input <0)
}
","9217","18411","7","1525","0","0","2","1979","2","0","0","0","0","0","0","0","6","1684","0","0","0","0","0","0","2","1048","0","0","0","0","0","0","0","1096","0","0","0","0","0","0","0","0","0","0","0","0"
"すずきまさみ","1571706527","{
int main()
____int i;
____printf(""正の整数: "");
____scanf("""", );
____while(input <0)
}
","9217","18880","7","1525","0","0","2","1979","2","0","0","0","0","0","0","0","6","1684","0","0","0","0","0","0","2","1048","0","0","0","0","0","0","1","2737","0","0","0","0","0","0","0","0","0","0","0","0"
"すずきまさみ","1571706532","{
int main()
____int i;
____printf(""正の整数: "");
____scanf("""", );
____while(input <0)
}
","9557","19036","7","1525","0","0","2","1979","2","0","0","0","0","0","0","0","6","1684","0","0","0","0","0","0","2","1048","0","0","0","0","0","0","1","2737","0","0","0","0","0","0","0","0","0","0","0","0"
"すずきまさみ","1571706537","{
int main()
____int i;
____printf(""正の整数: "");
____scanf("""", );
____while(input <0)
}
","9805","19276","7","1525","0","0","2","1979","2","0","0","0","0","0","0","0","6","1684","0","0","0","0","0","0","2","1048","0","0","0","0","0","0","1","2737","0","0","0","0","0","0","0","0","0","0","0","0"
"すずきまさみ","1571706542","{
int main()
____int i;
____printf(""正の整数: "");
____scanf("""", );
____while(input <0)
}
","9805","19748","7","1525","0","0","2","1979","2","0","0","0","0","0","0","0","6","1684","0","0","0","0","0","0","2","1048","0","0","0","0","0","0","1","2737","0","0","0","0","0","0","0","0","0","0","0","0"
"すずきまさみ","1571706547","{
int main()
____int i;
____printf(""正の整数: "");
____scanf(""%d"", );
____while(input <0)
}
","9805","20223","7","1525","0","0","2","1979","2","0","0","0","0","0","0","0","6","1684","0","0","0","0","0","0","2","1048","0","0","0","0","0","0","1","2737","0","0","0","0","0","0","0","0","0","0","0","0"
"すずきまさみ","1571706552","{
int main()
____int i;
____printf(""正の整数: "");
____scanf(""%d"", );
____while(input <0)
}
","9805","20716","7","1525","0","0","2","1979","2","0","0","0","0","0","0","0","6","1684","0","0","0","0","0","0","2","1048","0","0","0","0","0","0","1","2737","0","0","0","0","0","0","0","0","0","0","0","0"
"すずきまさみ","1571706557","{
int main()
____int i;
____printf(""正の整数: "");
____scanf(""%d"", );
____while(input <0)
}
","9805","21212","7","1525","0","0","2","1979","2","0","0","0","0","0","0","0","6","1684","0","0","0","0","0","0","2","1048","0","0","0","0","0","0","1","2737","0","0","0","0","0","0","0","0","0","0","0","0"
"すずきまさみ","1571706562","{
int main()
____int i;
____printf(""正の整数: "");
____scanf(""%d"", );
____while(input <0)
}
","9805","21691","7","1525","0","0","2","1979","2","0","0","0","0","0","0","0","6","1684","0","0","0","0","0","0","2","1048","0","0","0","0","0","0","1","2737","0","0","0","0","0","0","0","0","0","0","0","0"
"すずきまさみ","1571706567","{
int main()
____int i;
____printf(""正の整数: "");
____scanf(""%d"", );
____while(input <0)
}
","9805","22176","7","1525","0","0","2","1979","2","0","0","0","0","0","0","0","6","1684","0","0","0","0","0","0","2","1048","0","0","0","0","0","0","1","2737","0","0","0","0","0","0","0","0","0","0","0","0"
"すずきまさみ","1571706572","{
int main()
____int i;
____printf(""正の整数: "");
____scanf(""%d"", );
____while(input <0)
}
","9805","22667","7","1525","0","0","2","1979","2","0","0","0","0","0","0","0","6","1684","0","0","0","0","0","0","2","1048","0","0","0","0","0","0","1","2737","0","0","0","0","0","0","0","0","0","0","0","0"
"すずきまさみ","1571706577","{
int main()
____int i;
____printf(""正の整数: "");
____scanf(""%d"", );
____while(input <0)
}
","9805","23096","7","1525","0","0","2","1979","2","0","0","0","0","0","0","0","6","1684","0","0","0","0","0","0","2","1048","0","0","0","0","0","0","1","2737","0","0","0","0","0","0","0","6130","0","0","0","0"
"すずきまさみ","1571706582","{
int main()
____int i;
____printf(""正の整数: "");
____scanf(""%d"", &i);
____while(input <0)
}
","9805","23555","8","1525","0","0","2","1979","2","0","0","0","0","0","0","0","6","1684","0","0","0","0","0","0","2","1048","0","0","0","0","0","0","1","2737","0","0","0","0","0","0","0","6130","0","0","0","0"
"すずきまさみ","1571706587","{
int main()
____int i;
____printf(""正の整数: "");
____scanf(""%d"", &i);
____while(i )
}
","9805","24014","8","1525","0","0","2","1979","3","1317","0","0","0","0","0","0","6","1684","0","0","0","0","0","0","2","1048","0","0","0","0","0","0","1","2737","0","0","0","0","0","0","0","6130","0","0","0","0"
"すずきまさみ","1571706592","{
int main()
____int i;
____printf(""正の整数: "");
____scanf(""%d"", &i);
____while(i )
}
","9805","24491","8","1525","0","0","2","1979","3","5835","0","0","0","0","0","0","6","1684","0","0","0","0","0","0","2","1048","0","0","0","0","0","0","1","2737","0","0","0","0","0","0","0","6130","0","0","0","0"
"すずきまさみ","1571706597","{
int main()
____int i;
____printf(""正の整数: "");
____scanf(""%d"", &i);
____while(i )
}
","9805","24973","8","1525","0","0","2","1979","3","5835","0","0","0","0","0","0","6","1684","0","0","0","0","0","0","2","1048","0","0","0","0","0","0","1","2737","0","0","0","0","0","0","0","6130","0","0","0","0"
"すずきまさみ","1571706602","{
int main()
____int i;
____printf(""正の整数: "");
____scanf(""%d"", &i);
____while(i )
}
","9805","25442","8","1525","0","0","2","1979","3","5835","0","0","0","0","0","0","6","1684","0","0","0","0","0","0","2","1048","0","0","0","0","0","0","1","2737","0","0","0","0","0","0","0","6130","0","0","0","0"
"すずきまさみ","1571706607","{
int main()
____int i;
____printf(""正の整数: "");
____scanf(""%d"", &i);
____while(i )
}
","9805","25922","8","1525","0","0","2","1979","3","7171","0","0","0","0","0","0","6","1684","0","0","0","0","0","0","2","1048","0","0","0","0","0","0","1","2737","0","0","0","0","0","0","0","6130","0","0","0","0"
"すずきまさみ","1571706612","{
int main()
____int i;
____printf(""正の整数: "");
____scanf(""%d"", &i);
____while(i )
}
","9805","26416","8","1525","0","0","2","1979","3","7171","0","0","0","0","0","0","6","1684","0","0","0","0","0","0","2","1048","0","0","0","0","0","0","1","2737","0","0","0","0","0","0","0","6130","0","0","0","0"
"すずきまさみ","1571706617","{
int main()
____int i;
____printf(""正の整数: "");
____scanf(""%d"", &i);
____while(i )
}
","9805","26911","8","1525","0","0","2","1979","3","7171","0","0","0","0","0","0","6","1684","0","0","0","0","0","0","2","1048","0","0","0","0","0","0","1","2737","0","0","0","0","0","0","0","6130","0","0","0","0"
"すずきまさみ","1571706622","{
int main()
____int i;
____printf(""正の整数: "");
____scanf(""%d"", &i);
____while(i )
}
","9805","27399","8","1525","0","0","2","1979","3","7171","0","0","0","0","0","0","6","1684","0","0","0","0","0","0","2","1048","0","0","0","0","0","0","1","2737","0","0","0","0","0","0","0","6130","0","0","0","0"
"すずきまさみ","1571706627","{
int main()
____int i;
____printf(""正の整数: "");
____scanf(""%d"", &i);
____while(i )
}
","9805","27874","8","1525","0","0","2","1979","3","7171","0","0","0","0","0","0","6","1684","0","0","0","0","0","0","2","1048","0","0","0","0","0","0","1","2737","0","0","0","0","0","0","0","6130","0","0","0","0"
"すずきまさみ","1571706632","{
int main()
____int i;
____printf(""正の整数: "");
____scanf(""%d"", &i);
____while(i <0)
}
","9988","28146","8","1525","0","0","2","1979","3","7171","0","0","0","0","0","0","6","1684","0","0","0","0","0","0","2","1048","0","0","0","0","0","0","1","2737","0","0","0","0","0","0","0","6130","0","0","0","0"
"すずきまさみ","1571706637","{
int main()
____int i;
____printf(""正の整数: "");
____scanf(""%d"", &i);
____while(i <0)
}
","10068","28545","8","1525","0","0","2","1979","3","7171","0","0","0","0","0","0","6","1684","0","0","0","0","0","0","2","1048","0","0","0","0","0","0","1","2737","0","0","0","0","0","0","0","6130","0","0","0","0"
"すずきまさみ","1571706642","{
int main()
____int i;
____printf(""正の整数: "");
____scanf(""%d"", &i);
____while(i <0)
}
","10068","29022","8","1525","0","0","2","1979","3","7171","0","0","0","0","0","0","6","1684","0","0","0","0","0","0","2","1048","0","0","0","0","0","0","1","2737","0","0","0","0","0","0","0","6130","0","0","0","0"
"すずきまさみ","1571706647","{
int main()
____int i;
____printf(""正の整数: "");
____scanf(""%d"", &i);
____while(i <0)
}
","10068","29518","8","1525","0","0","2","1979","3","7171","0","0","0","0","0","0","6","1684","0","0","0","0","0","0","2","1048","0","0","0","0","0","0","1","2737","0","0","0","0","0","0","0","6130","0","0","0","0"
"すずきまさみ","1571706652","{
int main()
____int i;
____printf(""正の整数: "");
____scanf(""%d"", &i);
____while(i <0)
}
","10068","30009","8","1525","0","0","2","1979","3","7171","0","0","0","0","0","0","6","1684","0","0","0","0","0","0","2","1048","0","0","0","0","0","0","1","2737","0","0","0","0","0","0","0","6130","0","0","0","0"
"すずきまさみ","1571706657","{
int main()
____int i;
____printf(""正の整数: "");
____scanf(""%d"", &i);
____while(i <0)
}
","10068","30484","8","1525","0","0","2","1979","3","7171","0","0","0","0","0","0","6","1684","0","0","0","0","0","0","2","1048","0","0","0","0","0","0","1","2737","0","0","0","0","0","0","0","6130","0","0","0","0"
"すずきまさみ","1571706662","{
int main()
____int i;
____printf(""正の整数: "");
____scanf(""%d"", &i);
____while(i <0)
}
","10068","30973","8","1525","0","0","2","1979","3","7171","0","0","0","0","0","0","6","1684","0","0","0","0","0","0","2","1048","0","0","0","0","0","0","1","2737","0","0","0","0","0","0","0","6130","0","0","0","0"
"すずきまさみ","1571706667","{
int main()
____int i;
____printf(""正の整数: "");
____scanf(""%d"", &i);
____while(i <0)
}
","10111","31409","8","1525","0","0","2","1979","3","7171","0","0","0","0","0","0","6","1684","0","0","0","0","0","0","2","1048","0","0","0","0","0","0","1","2737","0","0","0","0","0","0","0","6130","0","0","0","0"
"すずきまさみ","1571706672","{
int main()
____int i;
____printf(""正の整数: "");
____scanf(""%d"", &i);
____while(i <0)
}
","10607","31409","8","1525","0","0","2","1979","3","7171","0","0","0","0","0","0","6","1684","0","0","0","0","0","0","2","1048","0","0","0","0","0","0","1","2737","0","0","0","0","0","0","0","6130","0","0","0","0"
"すずきまさみ","1571706677","{
int main()
____int i;
____printf(""正の整数: "");
____scanf(""%d"", &i);
____while(i <0)
}
","10936","31543","8","1525","0","0","2","1979","3","7171","0","0","0","0","0","0","6","1684","0","0","0","0","0","0","2","1048","0","0","0","0","0","0","1","2737","0","0","0","0","0","0","0","6130","0","0","0","0"
"すずきまさみ","1571706682","{
int main()
____int i;
____int input;
____printf(""正の整数: "");
____scanf(""%d"", &i);
____while(i <0)
}
","10936","31986","8","1525","0","0","2","1979","3","7171","1","0","0","0","0","0","6","1684","0","0","0","0","0","0","2","1048","0","0","0","0","0","0","1","2737","0","0","0","0","0","0","0","6130","0","0","0","0"
"すずきまさみ","1571706687","{
int main()
____int i;
____int input;
____printf(""正の整数: "");
____scanf(""%d"", &i);
____while(i <0)
}
","10936","32452","8","1525","0","0","2","4207","3","7171","1","0","0","0","0","0","6","1684","0","0","0","0","0","0","2","1048","0","0","0","0","0","0","1","2737","0","0","0","0","0","0","0","6130","0","0","0","0"
"すずきまさみ","1571706692","{
int main()
____int i;
____int input;
____printf(""正の整数: "");
____scanf(""%d"", &i);
____while(i <0)
____printf("""", input);
}
","10936","32885","8","1525","0","0","2","4207","3","7171","1","0","0","0","0","0","6","1684","0","0","1","0","0","0","2","1048","0","1918","0","0","0","0","1","2737","0","0","0","0","0","0","0","6130","0","0","0","0"
"すずきまさみ","1571706697","{
int main()
____int i;
____int input;
____printf(""正の整数: "");
____scanf(""%d"", &i);
____while(i <0)
____printf("""", input);
}
","10936","33375","8","1525","0","0","2","4207","3","7171","1","0","0","0","0","0","6","1684","0","0","1","0","0","0","2","1048","0","1918","0","0","0","0","1","2737","0","0","0","0","0","0","0","6130","0","0","0","0"
"すずきまさみ","1571706702","{
int main()
____int i;
____int input;
____printf(""正の整数: "");
____scanf(""%d"", &i);
____while(i <0)
____printf("""", input);
}
","10936","33853","8","1525","0","0","2","4207","3","7171","1","0","0","0","0","0","6","1684","0","0","1","0","0","0","2","1048","0","1918","0","0","0","0","1","2737","0","0","0","0","0","0","0","6130","0","0","0","0"
"すずきまさみ","1571706707","{
int main()
____int i;
____int input;
____printf(""正の整数: "");
____scanf(""%d"", &i);
____while(i <0)
____printf("""", input);
}
","10936","34280","8","1525","0","0","2","4207","3","7171","1","0","0","0","0","0","6","1684","0","0","2","0","0","0","2","1048","0","1918","0","0","0","0","1","2737","0","0","0","0","0","0","0","6130","0","0","0","0"
"すずきまさみ","1571706712","{
int main()
____int i;
____int input;
____printf(""正の整数: "");
____scanf(""%d"", &i);
____while(i <0)
____printf("""", input);
}
","10936","34746","8","1525","0","0","2","4207","4","7171","1","0","0","0","0","0","6","1684","0","0","2","0","0","0","2","1048","0","1918","0","0","0","0","1","2737","0","0","0","0","0","0","0","6130","0","0","0","0"
"すずきまさみ","1571706717","{
int main()
____int i;
____int input;
____while(i <0)
____printf(""正の整数: "");
____scanf(""%d"", &i);
____while(i <0)
}
","10936","35233","8","1525","0","0","2","4207","4","7171","1","0","0","0","0","0","6","1684","0","0","2","0","0","0","2","1048","0","1918","0","0","0","0","1","2737","0","0","0","0","0","0","0","6130","0","0","0","0"
"すずきまさみ","1571706722","{
int main()
____int i;
____int input;
____while(i <0)
____printf(""正の整数: "");
____scanf(""%d"", &i);
____while(i <0)
}
","10936","35719","8","1525","0","0","2","4207","4","7171","1","0","0","0","0","0","6","1684","0","0","2","0","0","8723","2","1048","0","1918","0","0","0","0","1","2737","0","0","0","0","0","0","0","6130","0","0","0","0"
"すずきまさみ","1571706727","{
int main()
____int i;
____int input;
____while(i <0)
____printf(""正の整数: "");
____scanf(""%d"", &i);
____while(i <0)
}
","10936","36207","8","1525","0","0","2","4207","4","7171","1","0","0","0","0","0","6","1684","0","0","2","0","0","8723","2","1048","0","1918","0","0","0","0","1","2737","0","0","0","0","0","0","0","6130","0","0","0","0"
"すずきまさみ","1571706732","{
int main()
____int i;
____int input;
____while(i <0)
____printf(""正の整数: "");
____scanf(""%d"", &i);
____while(i <0)
}
","10936","36674","8","1525","0","0","2","4207","4","7171","1","0","0","0","0","0","6","1684","0","0","2","0","0","8723","2","1048","0","1918","0","0","0","0","2","2737","0","0","0","0","0","0","0","6130","0","0","0","0"
"すずきまさみ","1571706737","{
int main()
____int i;
____int input;
____while(i <0)
____printf(""正の整数: "");
____scanf(""%d"", &i);
____while(i <0)
}
","10936","37126","8","1525","0","0","2","4207","4","7171","1","0","0","0","0","0","6","1684","0","0","2","0","0","8723","2","1048","0","1918","0","0","0","0","2","2737","0","0","0","0","0","0","0","6130","0","0","0","0"
"すずきまさみ","1571706742","{
int main()
____int i;
____int input;
____while(i <0)
____printf(""正の整数: "");
____scanf(""%d"", &i);
____while(i <0)
}
","10936","37599","8","1525","0","0","2","4207","4","7171","1","0","0","0","0","0","6","1684","0","0","2","0","0","8723","2","1048","0","1918","0","0","0","0","2","2737","0","0","0","0","0","0","0","6130","0","0","0","0"
"すずきまさみ","1571706747","{
int main()
____int i;
____int input;
____scanf(""%d"", &i);
____while(i <0)
____printf(""正の整数: "");
____scanf(""%d"", &i);
}
","10936","38048","8","1525","0","0","2","4207","4","7171","1","0","0","0","0","0","6","1684","0","0","2","0","0","8723","2","1048","0","1918","0","0","0","0","3","2737","0","0","0","0","0","0","0","6130","0","0","0","0"
"すずきまさみ","1571706752","{
int main()
____int i;
____int input;
____scanf(""%d"", &i);
____while(i <0)
____printf(""正の整数: "");
____scanf(""%d"", &i);
}
","10936","38507","8","1525","0","0","2","4207","4","7171","1","0","0","0","0","0","6","1684","0","0","2","0","0","8723","2","1048","0","1918","0","0","0","0","3","2737","0","0","0","0","0","0","0","6130","0","0","0","0"
"すずきまさみ","1571706757","{
int main()
____int i;
____int input;
____scanf(""%d"", &i);
____while(i <0)
____printf(""正の整数: "");
____scanf(""%d"", &i);
}
","10936","38983","8","1525","0","0","2","4207","4","7171","1","0","0","0","0","0","6","1684","0","0","2","0","0","8723","2","1048","0","1918","0","0","0","0","3","2737","0","0","0","0","0","0","0","6130","0","0","0","0"
"すずきまさみ","1571706762","{
int main()
____int i;
____int input;
____scanf(""%d"", &i);
____while(i <0)
____printf(""正の整数: "");
____scanf(""%d"", &i);
}
","10936","39456","8","1525","0","0","2","4207","4","7171","1","0","0","0","0","0","6","1684","0","0","2","0","0","8723","2","1048","0","1918","0","0","0","0","4","2737","0","0","0","0","0","0","0","6130","0","0","0","0"
"すずきまさみ","1571706767","{
int main()
____int i;
____int input;
____scanf(""%d"", &i);
____while(i <0)
____printf(""正の整数: "");
____printf(""正の整数: "");
}
","10936","39922","8","1525","0","0","2","4207","4","7171","1","0","0","0","0","0","7","1684","0","0","2","0","0","8723","2","1048","0","1918","0","0","0","0","4","2737","0","0","0","0","0","0","0","6130","0","0","0","0"
"すずきまさみ","1571706772","{
int main()
____int i;
____int input;
____scanf(""%d"", &i);
____while(i <0)
________printf(""正の整数: "");
____printf(""正の整数: "");
}
","10936","40389","8","1525","0","0","2","4207","4","7171","1","0","0","0","0","0","8","1684","0","0","2","0","0","8723","2","1048","0","1918","0","0","0","0","4","2737","0","0","0","0","0","0","0","6130","0","0","0","0"
"すずきまさみ","1571706777","{
int main()
____int i;
____int input;
____scanf(""%d"", &i);
____while(i <0)
________printf(""正の整数: "");
________scanf(""%d"", &i);
}
","10936","40829","8","1525","0","0","2","4207","4","7171","1","0","0","0","0","0","8","1684","0","0","2","0","0","8723","2","1048","0","1918","0","0","0","0","5","2737","0","0","0","0","0","0","0","6130","0","0","0","0"
"すずきまさみ","1571706782","{
int main()
____int i;
____int input;
____scanf(""%d"", &i);
____while(i <0)
________printf(""正の整数: "");
________scanf(""%d"", &i);
}
","10936","41309","8","1525","0","0","2","4207","4","7171","1","0","0","0","0","0","8","1684","0","0","2","0","0","8723","2","1048","0","1918","0","0","0","0","5","2737","0","0","0","0","0","0","0","6130","0","0","0","0"
"すずきまさみ","1571706787","{
int main()
____int i;
____int input;
____scanf(""%d"", &i);
____while(i <0)
________printf(""正の整数: "");
________scanf(""%d"", &i);
}
","10936","41756","8","1525","0","0","2","4207","4","7171","1","0","0","0","0","0","8","1684","0","0","2","0","0","8723","2","1048","0","1918","0","0","0","0","5","2737","0","0","0","0","0","0","0","6130","0","0","0","0"
"すずきまさみ","1571706792","{
int main()
____int i;
____int input;
____scanf(""%d"", &i);
____while(i <0)
________printf(""正の整数: "");
________scanf(""%d"", &i);
}
","11037","42134","8","1525","0","0","2","4207","4","7171","1","0","0","0","0","0","8","1684","0","0","2","0","0","8723","2","1048","0","1918","0","0","0","0","5","2737","0","0","0","0","0","0","0","6130","0","0","0","0"
"すずきまさみ","1571706797","{
int main()
____int i;
____int input;
____scanf(""%d"", &i);
____while(i <0)
________printf(""正の整数: "");
________scanf(""%d"", &i);
}
","11159","42467","8","1525","0","0","2","4207","4","7171","1","0","0","0","0","0","8","1684","0","0","2","0","0","8723","2","1048","0","1918","0","0","0","0","5","2737","0","0","0","0","0","0","0","6130","0","0","0","0"
"すずきまさみ","1571706802","{
int main()
____int i;
____int input;
____scanf(""%d"", &i);
____while(i <0)
________printf(""正の整数: "");
________scanf(""%d"", &i);
}
","11159","42956","8","1525","0","0","2","4207","4","7171","1","0","0","0","0","0","8","1684","0","0","2","0","0","8723","2","1048","0","1918","0","0","0","0","5","2737","0","0","0","0","0","0","0","6130","0","0","0","0"
"すずきまさみ","1571706807","{
int main()
____int i;
____int input;
____scanf(""%d"", &i);
____while(i <0)
________printf(""正の整数: "");
________scanf(""%d"", &i);
}
","11159","43421","8","1525","0","0","2","4207","4","7171","1","0","0","0","0","0","8","1684","0","0","2","0","0","8723","2","1048","0","1918","0","0","0","0","5","2737","0","0","0","6877","0","0","0","6130","0","0","0","0"
"すずきまさみ","1571706812","{
int main()
____int i;
____int input;
____scanf(""%d"", &i);
____while(i <0)
________printf(""正の整数: "");
________scanf(""%d"", &i);
}
","11159","43888","8","1525","0","0","2","4207","4","7171","1","0","0","0","0","0","8","1684","0","0","2","2139","0","8723","2","1048","0","1918","0","0","0","0","5","2737","0","0","0","6877","0","0","0","6130","0","0","0","0"
"すずきまさみ","1571706817","{
int main()
____int i;
____int input;
____scanf(""%d"", &i);
____while(i <0)
________printf(""正の整数: "");
________scanf(""%d"", &i);
}
","11159","44348","8","1525","0","0","2","4207","4","7171","1","0","0","0","0","0","8","1684","0","0","2","2139","0","8723","2","1048","0","1918","0","0","0","0","5","2737","0","0","0","6877","0","0","0","6130","0","0","0","0"
"すずきまさみ","1571706822","{
int main()
____int i;
____int input;
____scanf(""%d"", &i);
____while(i <0)
________printf(""正の整数: "");
________scanf(""%d"", &i);
}
","11159","44809","8","1525","0","0","2","4207","4","7171","1","0","0","0","0","0","8","1684","0","0","2","2139","0","8723","2","1048","0","1918","0","0","0","0","5","2737","0","0","0","6877","0","0","0","7548","0","0","0","0"
"すずきまさみ","1571706827","{
int main()
____int i;
____int input;
____scanf(""%d"", &i);
____while(i <0)
________printf(""正の整数: "");
________scanf(""%d"", &i);
}
","11159","45285","8","1525","0","4595","2","4207","4","7171","1","0","0","0","0","0","8","1684","0","0","2","2139","0","8723","2","1048","0","1918","0","0","0","0","5","2737","0","0","0","6877","0","0","0","7548","0","0","0","0"
"すずきまさみ","1571706832","{
int main()
____int i;
____int input;
____scanf(""%d"", &i);
____while(i <0)
________printf(""正の整数: "");
________scanf(""%d"", &i);
}
","11159","45770","8","1525","0","4595","2","4207","4","7171","1","0","0","0","0","0","8","1684","0","0","2","2139","0","8723","2","1048","0","1918","0","0","0","0","5","2737","0","0","0","6877","0","0","0","7548","0","0","0","0"
"すずきまさみ","1571706837","{
int main()
____int i;
____int input;
____scanf(""%d"", &i);
____while(i <0)
________printf(""正の整数: "");
________scanf(""%d"", &i);
}
","11159","46229","8","1525","0","4595","2","4207","4","7171","1","0","0","0","0","0","8","1684","0","0","2","2139","0","8723","2","1048","0","1918","0","0","0","7190","5","2737","0","0","0","6877","0","0","0","7548","0","0","0","0"
"すずきまさみ","1571706842","{
int main()
____int i;
____int input;
____scanf(""%d"", &i);
____while(i <0)
________printf(""正の整数: "");
________scanf(""%d"", &i);
}
","11159","46672","8","1525","0","4595","2","4207","4","7171","1","0","0","0","0","0","8","1684","0","0","2","2139","0","8723","2","1048","0","1918","0","0","0","7190","5","2737","0","0","0","6877","0","0","0","7548","0","0","0","0"
"すずきまさみ","1571706847","{
int main()
____int i;
____int input;
____while(i <0)
________printf(""正の整数: "");
________scanf(""%d"", &i);
____run(, );
}
","11159","47130","8","1525","1","4595","2","4207","4","7171","1","0","0","0","0","0","8","1684","0","2221","2","2139","0","8723","2","1048","0","1918","0","0","0","7190","5","2737","0","0","0","6877","0","0","0","7548","0","0","0","0"
"すずきまさみ","1571706852","{
int main()
____int i;
____int input;
____while(i <0)
________printf(""正の整数: "");
________scanf(""%d"", &i);
____run(, );
}
","11159","47564","8","1525","1","4595","2","4207","4","7171","1","0","0","0","0","0","8","1684","1","2221","2","2139","0","8723","2","1048","0","1918","0","0","0","7190","5","2737","0","0","0","6877","0","0","0","7548","0","0","0","0"
"すずきまさみ","1571706857","{
int main()
____int i;
____int input;
____while(i <0)
________printf(""正の整数: "");
________scanf(""%d"", &i);
____run(, );
}
","11159","48042","8","1525","1","4595","2","4207","4","7171","1","0","0","0","0","0","8","1684","1","2221","2","2139","0","8723","2","1048","0","1918","0","1281","0","7190","5","2737","0","0","0","6877","0","0","0","7548","0","0","0","0"
"すずきまさみ","1571706862","{
int main()
____int i;
____int input;
____while(i <0)
________printf(""正の整数: "");
________scanf(""%d"", &i);
____run(, );
}
","11159","48529","8","1525","1","4595","2","4207","4","7171","1","0","0","0","0","0","8","1684","1","2221","2","2139","0","8723","2","1048","0","1918","0","1281","0","7190","5","2737","0","0","0","6877","0","0","0","7548","0","0","0","0"
"すずきまさみ","1571706867","{
int main()
____int i;
____int input;
____while(i <0)
________printf(""正の整数: "");
________scanf(""%d"", &i);
____run(, );
}
","11159","49001","8","1525","1","4595","2","4207","4","7171","1","0","0","0","0","0","8","1684","1","2221","2","2139","0","8723","2","1048","0","1918","0","1281","0","7190","5","2737","0","0","0","6877","0","0","0","7548","0","0","0","0"
"すずきまさみ","1571706872","{
int main()
____int i;
____int input;
____while(i <0)
________printf(""正の整数: "");
________scanf(""%d"", &i);
____run(, );
}
","11159","49454","8","1525","1","4595","2","4207","4","7171","1","0","0","0","0","0","8","1684","1","2221","2","2139","0","8723","2","1048","0","1918","0","1281","1","7190","5","2737","0","0","0","6877","0","0","0","7548","0","0","0","0"
"すずきまさみ","1571706877","{
int main()
____int i;
____int input;
____while(i <0)
________printf(""正の整数: "");
________scanf(""%d"", &i);
____run(, );
}
","11159","49937","8","1525","1","4595","2","4207","4","7171","1","0","0","0","0","0","8","1684","1","2221","2","2139","0","8723","2","1048","0","1918","0","1281","1","7190","5","2737","0","0","0","6877","0","0","0","7548","0","0","0","0"
"すずきまさみ","1571706882","{
int main()
____int i;
____int input;
____while(i <0)
________printf(""正の整数: "");
________scanf(""%d"", &i);
____run(, );
 run( c,  length)
}
","11159","50401","8","1525","1","4595","2","4207","4","7171","1","0","0","0","0","0","8","1684","1","2221","2","2139","0","8723","2","1048","0","1918","0","1281","2","7190","5","2737","0","0","0","6877","0","0","0","7548","0","0","0","0"
"すずきまさみ","1571706887","{
int main()
____int i;
____int input;
____while(i <0)
________printf(""正の整数: "");
________scanf(""%d"", &i);
____run(, );
int run( c,  length)
}
","11159","50857","8","1525","1","4595","2","4207","4","7171","1","0","0","0","0","0","8","1684","1","2221","2","2139","0","8723","2","1048","0","1918","0","1281","2","7190","5","2737","0","0","0","6877","0","0","0","7548","0","0","0","0"
"すずきまさみ","1571706892","{
int main()
____int i;
____int input;
____while(i <0)
________printf(""正の整数: "");
________scanf(""%d"", &i);
____run(, );
int run( c,  length)
}
","11159","51333","8","1525","1","4595","2","4207","4","7171","1","0","0","0","0","0","8","1684","1","2221","2","2139","0","8723","2","1048","0","1918","0","1281","2","7190","5","2737","0","0","0","6877","0","0","0","7548","0","0","0","0"
"すずきまさみ","1571706897","{
int main()
____int i;
____int input;
____while(i <0)
________printf(""正の整数: "");
________scanf(""%d"", &i);
____run(, );
int run( c,  length)
}
","11159","51801","8","1525","1","4595","2","4207","4","7171","1","0","0","0","0","0","8","1684","1","2221","2","2139","0","8723","2","1048","0","1918","0","1281","2","7190","5","2737","0","0","0","6877","0","0","0","7548","0","0","0","0"
"すずきまさみ","1571706902","{
int main()
____int i;
____int input;
____while(i <0)
________printf(""正の整数: "");
________scanf(""%d"", &i);
____run(, );
int run( c,  length)
}
","11159","52285","8","1525","1","4595","2","4207","4","7171","1","0","0","0","0","0","8","1684","1","2221","2","2139","0","8723","2","1048","0","1918","0","1281","2","7190","5","2737","0","0","0","6877","0","0","0","7548","0","0","0","0"
"すずきまさみ","1571706907","{
int main()
____int i;
____int input;
____while(i <0)
________printf(""正の整数: "");
________scanf(""%d"", &i);
____run(, );
int run(int c,  length)
}
","11159","52759","8","1525","1","4595","2","4207","4","7171","1","0","0","0","0","0","8","1684","1","2221","2","2139","0","8723","2","1048","0","1918","0","1281","2","7190","5","2737","0","0","0","6877","0","0","0","7548","0","0","0","0"
"すずきまさみ","1571706912","{
int main()
____int i;
____int input;
____while(i <0)
________printf(""正の整数: "");
________scanf(""%d"", &i);
____run(, );
int run(int c,  length)
}
","11159","53246","8","1525","1","4595","2","4207","4","7171","1","0","0","0","0","0","8","1684","1","2221","2","2139","0","8723","2","1048","0","1918","0","1281","2","7190","5","2737","0","0","0","6877","0","0","0","7548","0","0","0","0"
"すずきまさみ","1571706917","{
int main()
____int i;
____int input;
____while(i <0)
________printf(""正の整数: "");
________scanf(""%d"", &i);
____run(, );
int run(int c,  length)
}
","11159","53738","8","1525","1","4595","2","4207","4","7171","1","0","0","0","0","0","8","1684","1","2221","2","2139","0","8723","2","1048","0","1918","0","1281","2","7190","5","2737","0","0","0","6877","0","0","0","7548","0","0","0","0"
"すずきまさみ","1571706922","{
int main()
____int i;
____int input;
____while(i <0)
________printf(""正の整数: "");
________scanf(""%d"", &i);
____run(, );
int run(int c,  length)
}
","11159","54219","8","1525","1","4595","2","4207","4","7171","1","0","0","0","0","0","8","1684","1","2221","2","2139","0","8723","2","1048","0","1918","0","1281","2","22885","5","2737","0","0","0","6877","0","0","0","7548","0","0","0","0"
"すずきまさみ","1571706927","{
int main()
____int i;
____int input;
____while(i <0)
________printf(""正の整数: "");
________scanf(""%d"", &i);
____run(, );
int run(int c,  length)
}
","11159","54697","8","1525","1","4595","2","4207","4","7171","1","0","0","0","0","0","8","1684","1","2221","2","2139","0","8723","2","1048","0","1918","0","1281","2","22885","5","2737","0","0","0","6877","0","0","0","7548","0","0","0","0"
"すずきまさみ","1571706932","{
int main()
____int i;
____int input;
____while(i <0)
________printf(""正の整数: "");
________scanf(""%d"", &i);
____run(, );
int run(int c,  length)
}
","11159","55128","8","1525","1","4595","2","4207","4","7171","1","0","0","0","0","0","8","1684","1","2221","2","2139","0","8723","2","1048","1","1918","0","1281","2","22885","5","2737","0","0","0","6877","0","0","0","7548","0","0","0","0"
"すずきまさみ","1571706937","{
int main()
____int i;
____int input;
____while(i <0)
________printf(""正の整数: "");
________scanf(""%d"", &i);
____run(, );
int run(int c,  length)
}
","11159","55607","8","1525","1","4595","2","4207","4","7171","1","0","0","0","0","0","8","1684","1","2221","2","2139","0","8723","2","1048","1","1918","0","1281","2","22885","5","2737","0","0","0","6877","0","0","0","7548","0","0","0","0"
"すずきまさみ","1571706942","{
int main()
____int i;
____int input;
____while(i <0)
________printf(""正の整数: "");
________scanf(""%d"", &i);
____run(, );
int run(int c,  length)
}
","11159","56095","8","1525","1","4595","2","4207","4","7171","1","0","0","0","0","0","8","1684","1","2221","2","2139","0","8723","2","1048","1","1918","0","1281","2","22885","5","2737","0","0","0","10136","0","0","0","7548","0","0","0","0"
"すずきまさみ","1571706947","{
int main()
____int i;
____int input;
____while(i <0)
________printf(""正の整数: "");
________scanf(""%d"", &i);
____run(, );
int run(int c,  length)
}
","11159","56572","8","1525","1","4595","2","4207","4","7171","1","0","0","0","0","0","8","1684","1","2221","2","2139","0","8723","2","1048","1","1918","0","1281","2","22885","5","2737","0","6351","0","10136","0","0","0","7548","0","0","0","0"
"すずきまさみ","1571706952","{
int main()
____int i;
____int input;
____while(i <0)
________printf(""正の整数: "");
________scanf(""%d"", &i);
____run(, );
int run(int c,  length)
}
","11159","57026","8","1525","1","4595","2","4207","4","7171","1","0","0","0","0","0","8","1684","1","2221","2","2139","0","8723","2","1048","1","1918","0","1281","2","22885","5","2737","0","6351","0","10136","0","0","0","7548","0","0","0","0"
"すずきまさみ","1571706957","{
int main()
____int i;
____int input;
____while(i <0)
________printf(""正の整数: "");
________scanf(""%d"", &i);
____run(, );
int run(int c,  length)
}
","11159","57515","8","1525","1","4595","2","4207","4","7171","1","0","0","0","0","0","8","1684","1","2221","2","2139","0","8723","2","1048","1","1918","0","1281","2","22885","5","2737","0","6351","0","10136","0","0","0","7548","0","0","0","0"
"すずきまさみ","1571706962","{
int main()
____int i;
____int input;
____while(i <0)
________printf(""正の整数: "");
________scanf(""%d"", &i);
____run(, );
int run(int c,  length)
}
","11505","57641","8","1525","1","4595","2","4207","4","7171","1","0","0","0","0","0","8","1684","1","2221","2","2139","0","8723","2","1048","1","1918","0","1281","2","22885","5","2737","0","6351","0","10136","0","5138","0","7548","0","0","0","0"
"すずきまさみ","1571706967","{
int main()
____int i;
____int input;
____while(i <0)
________printf(""正の整数: "");
________scanf(""%d"", &i);
____run(, );
int run(int c,  length)
}
","11642","57978","8","1525","1","4595","2","4207","4","7171","1","0","0","0","0","0","8","1684","1","2221","2","2139","0","8723","2","1048","1","1918","0","1281","2","22885","5","2737","0","6351","0","10136","0","5138","0","7548","0","0","0","0"
"すずきまさみ","1571706972","{
int main()
____int i;
____int input;
____while(i <0)
________printf(""正の整数: "");
________scanf(""%d"", &i);
____run(, );
int run(int c,  length)
}
","11642","58466","8","1525","1","4595","2","4207","4","7171","1","0","0","0","0","0","8","1684","1","2221","2","2139","0","8723","2","1048","1","1918","0","1281","2","24673","5","2737","0","6351","0","10136","0","5138","0","7548","0","0","0","0"
"すずきまさみ","1571706977","{
int main()
____int i;
____int input;
____while(i <0)
________printf(""正の整数: "");
________scanf(""%d"", &i);
____run(, i);
int run(int c,  length)
}
","11642","58925","8","1525","1","4595","2","4207","4","7171","1","0","0","0","0","0","8","1684","1","2221","2","2139","0","8723","2","1048","1","1918","0","1281","2","24673","5","2737","0","6351","0","10136","0","5138","0","7548","0","0","0","0"
"すずきまさみ","1571706982","{
int main()
____int i;
____int input;
____while(i <0)
________printf(""正の整数: "");
________scanf(""%d"", &i);
____run(, i);
int run( c,  length)
}
","11642","59382","8","1525","1","4595","2","4207","4","7171","1","0","0","0","0","0","8","1684","1","2221","2","2139","0","8723","2","1048","1","1918","0","1281","2","24673","5","2737","0","6351","0","10136","0","5138","0","7548","0","0","0","0"
"すずきまさみ","1571706987","{
int main()
____int i;
____int input;
____while(i <0)
________printf(""正の整数: "");
________scanf(""%d"", &i);
____run(, i);
int run( c,  length)
}
","11642","59855","8","1525","1","4595","2","4207","4","7171","1","0","0","0","0","0","8","1684","1","2221","2","2139","0","8723","2","1048","1","1918","0","1281","2","24673","5","2737","0","6351","0","10136","0","5138","0","7548","0","0","0","0"
"すずきまさみ","1571706992","{
int main()
____int i;
____int input;
____while(i <0)
________printf(""正の整数: "");
________scanf(""%d"", &i);
____run(, i);
int run( c, int length)
____int i;
}
","11642","60306","8","1525","1","4595","2","4207","4","7171","1","0","1","0","0","0","8","1684","1","2221","2","2139","0","8723","2","1048","1","1918","0","1281","2","24673","5","2737","0","6351","0","10136","0","5138","0","7548","0","0","0","0"
"すずきまさみ","1571706997","{
int main()
____int i;
____int input;
____while(i <0)
________printf(""正の整数: "");
________scanf(""%d"", &i);
____run(, i);
int run( c, int length)
____int i;
}
","11642","60767","8","1525","1","4595","2","4207","4","7171","1","0","1","0","0","0","8","1684","1","2221","2","2139","0","8723","2","1048","1","1918","0","1281","2","24673","5","2737","0","6351","0","10136","0","5138","0","7548","0","0","0","0"
"すずきまさみ","1571707002","{
int main()
____int i;
____int input;
____while(i <0)
________printf(""正の整数: "");
________scanf(""%d"", &i);
____run(, i);
int run( c, int length)
____int i;
}
","11642","61203","8","1525","1","4595","2","4207","4","7171","1","0","1","0","1","0","8","1684","1","2221","2","2139","0","8723","2","1048","1","1918","0","1281","2","24673","5","2737","0","6351","0","10136","0","5138","0","7548","0","0","0","0"
"すずきまさみ","1571707007","{
int main()
____int i;
____int input;
____while(i <0)
________printf(""正の整数: "");
________scanf(""%d"", &i);
____run(, i);
int run( c, int length)
____int i;
____int input[][];
}
","11642","61653","8","1525","1","4595","2","4207","4","7171","1","0","1","0","1","0","8","1684","1","2221","2","2139","0","8723","2","1048","1","1918","0","1281","2","24673","5","2737","1","6351","0","10136","0","5138","0","7548","0","0","0","0"
"すずきまさみ","1571707012","{
int main()
____int i;
____int input;
____while(i <0)
________printf(""正の整数: "");
________scanf(""%d"", &i);
____run(, i);
int run( c, int length)
____int i;
____int input[][];
}
","11642","62059","8","1525","1","4595","2","4207","4","7171","1","0","1","0","1","0","8","1684","1","2221","2","2139","0","8723","2","1048","1","1918","0","1281","2","24673","5","2737","1","6351","1","10136","0","5138","0","7548","0","0","0","0"
"すずきまさみ","1571707017","{
int main()
____int i;
____int input;
____while(i <0)
________printf(""正の整数: "");
________scanf(""%d"", &i);
____run(, i);
int run( c, int length)
____int i;
____int input[][];
}
","11642","62536","8","1525","1","4595","2","4207","4","7171","1","0","1","0","1","0","8","1684","1","2221","2","2139","0","8723","2","1048","1","1918","0","1281","2","24673","5","2737","1","6351","1","10136","0","5138","0","7548","0","0","0","0"
"すずきまさみ","1571707022","{
int main()
____int i;
____int input;
____while(i <0)
________printf(""正の整数: "");
________scanf(""%d"", &i);
____run(, i);
int run( c, int length)
____int i;
____int input[][];
____for(i = ; ; i++)
}
","11642","62984","8","1525","1","4595","2","4207","4","7171","1","0","1","0","1","0","8","1684","1","2221","2","2139","0","8723","2","1048","2","1918","0","1281","2","24673","5","2737","1","6351","1","10136","0","5138","0","7548","0","0","0","0"
"すずきまさみ","1571707027","{
int main()
____int i;
____int input;
____while(i <0)
________printf(""正の整数: "");
________scanf(""%d"", &i);
____run(, i);
int run( c, int length)
____int i;
____int input[][];
____for(i = ; ; i++)
}
","11642","63458","8","1525","1","4595","2","4207","4","7171","1","0","1","0","1","0","8","1684","1","2221","2","2139","0","8723","2","1048","2","1918","0","1281","2","24673","5","2737","1","6351","1","10136","0","5138","0","7548","0","0","0","0"
"すずきまさみ","1571707032","{
int main()
____int i;
____int input;
____while(i <0)
________printf(""正の整数: "");
________scanf(""%d"", &i);
____run(, i);
int run( c, int length)
____int i;
____int input[][];
____for(i = length; ; i++)
}
","11642","63910","8","1525","1","4595","2","4207","4","7171","1","0","1","0","1","0","8","1684","1","2221","2","2139","0","8723","2","1048","2","1918","0","1281","2","24673","5","2737","1","6351","1","10136","0","5138","0","7548","0","0","0","0"
"すずきまさみ","1571707037","{
int main()
____int i;
____int input;
____while(i <0)
________printf(""正の整数: "");
________scanf(""%d"", &i);
____run(, i);
int run( c, int length)
____int i;
____int input[][];
____for(i = length; ; i++)
}
","11920","64111","8","1525","1","4595","2","4207","4","7171","1","0","1","0","1","0","8","1684","1","2221","2","2139","0","8723","2","1048","2","1918","0","1281","2","24673","5","2737","1","6351","1","10136","0","5138","0","7548","0","0","0","0"
"すずきまさみ","1571707042","{
int main()
____int i;
____int input;
____while(i <0)
________printf(""正の整数: "");
________scanf(""%d"", &i);
____run(, i);
int run( c, int length)
____int i;
____int input[][];
____for(i = length; ; i++)
}
","11920","64583","8","1525","1","4595","2","4207","4","7171","1","0","1","0","1","0","8","1684","1","2221","2","2139","0","8723","2","1048","2","1918","0","1281","2","24673","5","2737","1","6351","1","10136","0","5138","0","7548","0","0","0","0"
"すずきまさみ","1571707047","{
int main()
____int i;
____int input;
____while(i <0)
________printf(""正の整数: "");
________scanf(""%d"", &i);
____run(, i);
int run( c, int length)
____int i;
____int input[][];
____for(i = length; ; i++)
}
","11920","65076","8","1525","1","4595","2","4207","4","7171","1","0","1","0","1","0","8","1684","1","2221","2","2139","0","8723","2","1048","2","1918","0","1281","2","24673","5","2737","1","6351","1","10136","0","5138","0","7548","0","0","0","0"
"すずきまさみ","1571707052","{
int main()
____int i;
____int input;
____while(i <0)
________printf(""正の整数: "");
________scanf(""%d"", &i);
____run(, i);
int run( c, int length)
____int i;
____int input[][];
____for(i = length; ; i++)
}
","11920","65556","8","1525","1","4595","2","4207","4","7171","1","0","1","0","1","0","8","1684","1","2221","2","2139","0","8723","2","1048","2","1918","0","1281","2","24673","5","2737","1","6351","1","10136","0","5138","0","7548","0","0","0","0"
"すずきまさみ","1571707057","{
int main()
____int i;
____int input;
____while(i <0)
________printf(""正の整数: "");
________scanf(""%d"", &i);
____run(, i);
int run( c, int length)
____int i;
____int input[][];
____for(i = ; ; i++)
}
","12171","65766","8","1525","1","4595","2","4207","4","7171","1","0","1","0","1","0","8","1684","1","2221","2","2139","0","8723","2","1048","2","5689","0","1281","2","24673","5","2737","1","6351","1","10136","0","5138","0","7548","0","0","0","0"
"すずきまさみ","1571707062","{
int main()
____int i;
____int input;
____while(i <0)
________printf(""正の整数: "");
________scanf(""%d"", &i);
____run(, i);
int run( c, int length)
____int i;
____int input[][];
____for(i = ; ; i++)
}
","12660","65766","8","1525","1","4595","2","4207","4","7171","1","0","1","0","1","0","8","1684","1","2221","2","2139","0","8723","2","1048","2","5689","0","1281","2","24673","5","2737","1","6351","1","10136","0","5138","0","7548","0","0","0","0"
"すずきまさみ","1571707067","{
int main()
____int i;
____int input;
____while(i <0)
________printf(""正の整数: "");
________scanf(""%d"", &i);
____run(, i);
int run( c, int length)
____int i;
____int input[][];
____for(i = 0; ; i++)
}
","12702","66181","8","1525","1","4595","2","4207","4","7171","1","0","1","0","1","0","8","1684","1","2221","2","2139","0","8723","2","1048","2","5689","0","1281","2","24673","5","2737","1","6351","1","10136","0","5138","0","7548","0","0","0","0"
"すずきまさみ","1571707072","{
int main()
____int i;
____int input;
____while(i <0)
________printf(""正の整数: "");
________scanf(""%d"", &i);
____run(, i);
int run( c, int length)
____int i;
____int input[][];
____for(i = 0; ; i++)
}
","12702","66668","8","1525","1","4595","2","4207","4","7171","1","0","1","0","1","0","8","1684","1","2221","2","2139","0","8723","2","1048","2","5689","0","1281","2","24673","5","2737","1","6351","1","10136","0","5138","0","7548","0","0","0","0"
"すずきまさみ","1571707077","{
int main()
____int i;
____int input;
____while(i <0)
________printf(""正の整数: "");
________scanf(""%d"", &i);
____run(, i);
int run( c, int length)
____int i;
____int input[][];
____for(i = 0; ; i++)
}
","12702","67145","8","1525","1","4595","2","4207","4","7171","1","0","1","0","1","0","8","1684","1","2221","2","2139","0","8723","2","1048","2","5689","0","1281","2","24673","5","2737","1","6351","1","10136","0","5138","0","7548","0","0","0","0"
"すずきまさみ","1571707082","{
int main()
____int i;
____int input;
____while(i <0)
________printf(""正の整数: "");
________scanf(""%d"", &i);
____run(, i);
int run( c, int length)
____int i;
____int input[][];
____for(i = 0; ; i++)
}
","12702","67632","8","1525","1","4595","2","4207","4","7171","1","0","1","0","1","0","8","1684","1","2221","2","2139","0","8723","2","1048","2","5689","0","1281","2","24673","5","2737","1","6351","1","10136","0","5138","0","7548","0","0","0","0"
"すずきまさみ","1571707087","{
int main()
____int i;
____int input;
____while(i <0)
________printf(""正の整数: "");
________scanf(""%d"", &i);
____run(, i);
int run( c, int length)
____int i;
____int input[][];
____for(i = 0; ; i++)
}
","12702","68123","8","1525","1","4595","2","4207","4","7171","1","0","1","0","1","0","8","1684","1","2221","2","2139","0","8723","2","1048","2","5689","0","1281","2","24673","5","2737","1","6351","1","10136","0","5138","0","7548","0","0","0","0"
"すずきまさみ","1571707092","{
int main()
____int i;
____int input;
____while(i <0)
________printf(""正の整数: "");
________scanf(""%d"", &i);
____run(, i);
int run( c, int length)
____int i;
____int input[][];
____for(i = 0; length-i>0; i++)
}
","12776","68514","8","1525","1","4595","2","4207","4","7171","1","0","1","0","1","0","8","1684","1","2221","2","2139","0","8723","2","1048","2","5689","0","1281","2","24673","5","2737","1","6351","1","10136","0","5138","0","7548","0","0","0","0"
"すずきまさみ","1571707097","{
int main()
____int i;
____int input;
____while(i <0)
________printf(""正の整数: "");
________scanf(""%d"", &i);
____run(, i);
int run( c, int length)
____int i;
____int input[][];
____for(i = 0; length-i>0; i++)
}
","13080","68699","8","1525","1","4595","2","4207","4","7171","1","0","1","0","1","0","8","1684","1","2221","2","2139","0","8723","2","1048","2","5689","0","1281","2","24673","5","2737","1","6351","1","10136","0","5138","0","7548","0","0","0","0"
"すずきまさみ","1571707102","{
int main()
____int i;
____int input;
____while(i <0)
________printf(""正の整数: "");
________scanf(""%d"", &i);
____run(, i);
int run( c, int length)
____int i;
____int input[][];
____for(i = 0; length-i>0; i++)
}
","13080","69181","8","1525","1","4595","2","4207","4","7171","1","0","1","0","1","0","8","1684","1","2221","2","2139","0","8723","2","1048","2","5689","0","1281","2","24673","5","2737","1","6351","1","10136","0","5138","0","7548","0","0","0","0"
"すずきまさみ","1571707107","{
int main()
____int i;
____int input;
____while(i <0)
________printf(""正の整数: "");
________scanf(""%d"", &i);
____run(, i);
int run( c, int length)
____int i;
____int input[][];
____for(i = 0; length-i>0; i++)
}
","13080","69663","8","1525","1","4595","2","4207","4","7171","1","0","1","0","1","0","8","1684","1","2221","2","2139","0","8723","2","1048","2","5689","0","1281","2","24673","5","2737","1","6351","1","10136","0","5138","0","7548","0","0","0","0"
"すずきまさみ","1571707112","{
int main()
____int i;
____int input;
____while(i <0)
________printf(""正の整数: "");
________scanf(""%d"", &i);
____run(, i);
int run( c, int length)
____int i;
____int input[][];
____for(i = 0; length-i>0; i++)
}
","13080","70137","8","1525","1","4595","2","4207","4","7171","1","0","1","0","1","0","8","1684","1","2221","2","2139","0","8723","2","1048","2","5689","0","1281","2","24673","5","2737","1","6351","1","10136","1","5138","0","7548","0","0","0","0"
"すずきまさみ","1571707117","{
int main()
____int i;
____int input;
____while(i <0)
________printf(""正の整数: "");
________scanf(""%d"", &i);
____run(, i);
int run( c, int length)
____int i;
____int input[][];
____for(i = 0; length-i>0; i++)
}
","13080","70578","8","1525","1","4595","2","4207","4","7171","1","0","1","0","1","0","8","1684","1","2221","2","2139","0","8723","2","1048","2","5689","0","1281","2","24673","5","2737","1","6351","1","10136","1","5138","0","7548","0","0","0","0"
"すずきまさみ","1571707122","{
int main()
____int i;
____int input;
____while(i <0)
________printf(""正の整数: "");
________scanf(""%d"", &i);
____run(, i);
int run( c, int length)
____int i;
____int input[][];
____for(i = 0; length-i>0; i++)
}
","13080","71067","8","1525","1","4595","2","4207","4","7171","1","0","1","0","1","0","8","1684","1","2221","2","2139","0","8723","2","1048","2","5689","0","1281","2","24673","5","2737","1","6351","1","10136","1","5138","0","7548","0","0","0","0"
"すずきまさみ","1571707127","{
int main()
____int i;
____int input;
____while(i <0)
________printf(""正の整数: "");
________scanf(""%d"", &i);
____run(, i);
int run( c, int length)
____int i;
____int input[][];
____for(i = 0; length-i>0; i++)
}
","13080","71558","8","1525","1","4595","2","4207","4","7171","1","0","1","0","1","0","8","1684","1","2221","2","2139","0","8723","2","1048","2","5689","0","1281","2","24673","5","2737","1","6351","1","10136","1","5138","0","7548","0","0","0","0"
"すずきまさみ","1571707132","{
int main()
____int i;
____int input;
____while(i <0)
________printf(""正の整数: "");
________scanf(""%d"", &i);
____run(, i);
int run( c, int length)
____int i;
____int input[][];
____for(i = 0; length-i>0; i++)
}
","13080","72042","8","1525","1","4595","2","4207","4","7171","1","0","1","0","1","0","8","1684","1","12046","2","2139","0","8723","2","1048","2","5689","0","1281","2","24673","5","2737","1","6351","1","10136","1","5138","0","7548","0","0","0","0"
"すずきまさみ","1571707137","{
int main()
____int i;
____int input;
____while(i <0)
________printf(""正の整数: "");
________scanf(""%d"", &i);
____run(, i);
int run( c, int length)
____int i;
____int input[][];
____for(i = 0; length-i>0; i++)
}
","13080","72536","8","1525","1","4595","2","4207","4","7171","1","0","1","0","1","0","8","1684","1","12046","2","2139","0","8723","2","1048","2","5689","0","1281","2","24673","5","2737","1","6351","1","10136","1","5138","0","7548","0","0","0","0"
"すずきまさみ","1571707142","{
int main()
____int i;
____int input;
____while(i <0)
________printf(""正の整数: "");
________scanf(""%d"", &i);
____run(, i);
int run( c, int length)
____int i;
____int input[][];
____for(i = 0; length-i>0; i++)
}
","13080","73028","8","1525","1","4595","2","4207","4","7171","1","0","1","0","1","0","8","1684","1","12046","2","2139","0","8723","2","1048","2","5689","0","1281","2","24673","5","2737","1","6351","1","10136","1","5138","0","7548","0","0","0","0"
"すずきまさみ","1571707147","{
int main()
____int i;
____int input;
____while(i <0)
________printf(""正の整数: "");
________scanf(""%d"", &i);
____run(, i);
int run( c, int length)
____int i;
____int input[][];
____for(i = 0; length-i>0; i++)
}
","13080","73488","8","1525","1","4595","2","4207","4","7171","1","0","1","0","1","0","8","1684","1","12046","2","2139","0","8723","2","1048","2","5689","0","1281","2","24673","5","2737","1","6351","1","10136","1","5138","0","7548","0","0","0","0"
"すずきまさみ","1571707152","{
int main()
____int i;
____int input;
____while(i <0)
________printf(""正の整数: "");
________scanf(""%d"", &i);
____run(, i);
int run( c, int length)
____int i;
____int input[][];
____for(i = 0; length-i>0; i++)
}
","13080","73955","8","1525","1","4595","2","4207","4","7171","1","0","1","0","1","0","8","1684","1","12046","2","2139","0","8723","2","1048","2","5689","0","1281","2","24673","5","2737","1","6351","1","10136","1","5138","0","7548","0","0","0","0"
"すずきまさみ","1571707157","{
int main()
____int i;
____int input;
____while(i <0)
________printf(""正の整数: "");
________scanf(""%d"", &i);
____run(, i);
int run( c, int length)
____int i;
____int input[][];
____for(i = 0; length-i>0; i++)
}
","13080","74442","8","1525","1","4595","2","4207","4","7171","1","0","1","0","1","0","8","1684","1","12046","2","2139","0","8723","2","1048","2","5689","0","1281","2","24673","5","2737","1","6351","1","10136","1","5138","0","7548","0","0","0","0"
"すずきまさみ","1571707162","{
int main()
____int i;
____int input;
____while(i <0)
________printf(""正の整数: "");
________scanf(""%d"", &i);
____run(, i);
int run( c, int length)
____int i;
____int input[][];
____for(i = 0; length-i>0; i++)
}
","13080","74915","8","1525","1","4595","2","4207","4","7171","1","0","1","0","1","0","8","1684","1","12046","2","2139","0","8723","2","1048","2","5689","0","1281","2","24673","5","2737","1","6351","1","10136","1","5138","0","7548","0","0","0","0"
"すずきまさみ","1571707167","{
int main()
____int i;
____int input;
____while(i <0)
________printf(""正の整数: "");
________scanf(""%d"", &i);
____run(, i);
int run( c, int length)
____int i;
____int input[][];
____for(i = 0; length-i>0; i++)
________for(input = ; ; input++)
}
","13080","75373","8","1525","1","4595","2","4207","4","7171","1","0","1","0","1","0","8","1684","1","12046","2","2139","0","8723","2","1048","2","5689","0","1281","2","24673","5","2737","2","7761","1","10136","1","5138","0","7548","0","0","0","0"
"すずきまさみ","1571707172","{
int main()
____int i;
____int input;
____while(i <0)
________printf(""正の整数: "");
________scanf(""%d"", &i);
____run(, i);
int run( c, int length)
____int i;
____int input[][];
____for(i = 0; length-i>0; i++)
________for(input = ; ; input++)
}
","13080","75870","8","1525","1","4595","2","4207","4","7171","1","0","1","0","1","0","8","1684","1","12046","2","2139","0","8723","2","1048","2","5689","0","1281","2","24673","5","2737","2","7761","1","10136","1","5138","0","7548","0","0","0","0"
"すずきまさみ","1571707177","{
int main()
____int i;
____int input;
____while(i <0)
________printf(""正の整数: "");
________scanf(""%d"", &i);
____run(, i);
int run( c, int length)
____int i;
____int input[][];
____for(i = 0; length-i>0; i++)
________for(input = ; ; input++)
}
","13080","76365","8","1525","1","4595","2","4207","4","7171","1","0","1","0","1","0","8","1684","1","12046","2","2139","0","8723","2","1048","2","5689","0","1281","2","24673","5","2737","2","7761","1","10136","1","5138","0","7548","0","0","0","0"
"すずきまさみ","1571707182","{
int main()
____int i;
____int input;
____while(i <0)
________printf(""正の整数: "");
________scanf(""%d"", &i);
____run(, i);
int run( c, int length)
____int i;
____int input[][];
____for(i = 0; length-i>0; i++)
________for(input = ; ; input++)
}
","13080","76861","8","1525","1","4595","2","4207","4","7171","1","0","1","0","1","0","8","1684","1","12046","2","2139","0","8723","2","1048","2","5689","0","1281","2","24673","5","2737","2","7761","1","10136","1","5138","0","7548","0","0","0","0"
"すずきまさみ","1571707187","{
int main()
____int i;
____int input;
____while(i <0)
________printf(""正の整数: "");
________scanf(""%d"", &i);
____run(, i);
int run( c, int length)
____int i;
____int input[][];
____for(i = 0; length-i>0; i++)
________for(input = ; ; input++)
}
","13080","77308","8","1525","1","4595","2","4207","4","7171","1","0","1","0","1","0","8","1684","1","12046","2","2139","0","8723","2","1048","2","5689","0","1281","2","24673","5","2737","3","7761","1","10136","1","5138","0","7548","0","0","0","0"
"すずきまさみ","1571707192","{
int main()
____int i;
____int input;
____while(i <0)
________printf(""正の整数: "");
________scanf(""%d"", &i);
____run(, i);
int run( c, int length)
____int i;
____int input[][];
____for(i = 0; length-i>0; i++)
________for(input = ; ; input++)
}
","13080","77776","8","1525","1","4595","2","4207","4","7171","1","0","1","0","1","0","8","1684","1","15391","2","2139","0","8723","2","1048","2","5689","0","1281","2","24673","5","2737","3","7761","1","10136","1","5138","0","7548","0","0","0","0"
"すずきまさみ","1571707197","{
int main()
____int i;
____int input;
____while(i <0)
________printf(""正の整数: "");
________scanf(""%d"", &i);
____run(, i);
int run( c, int length)
____int i;
____int input[][];
____for(i = 0; length-i>0; i++)
________for(input = ; ; input++)
}
","13080","78250","8","1525","1","4595","2","4207","4","7171","1","0","1","0","1","0","8","1684","1","15391","2","2139","0","8723","2","1048","2","5689","0","1281","2","24673","5","2737","3","7761","1","10136","1","5138","0","7548","0","0","0","0"
"すずきまさみ","1571707202","{
int main()
____int i;
____int input;
____while(i <0)
________printf(""正の整数: "");
________scanf(""%d"", &i);
____run(, i);
int run( c, int length)
____int i;
____int input[][];
____for(i = 0; length-i>0; i++)
________for(input = ; ; input++)
}
","13080","78745","8","1525","1","4595","2","4207","4","7171","1","0","1","0","1","0","8","1684","1","15391","2","2139","0","8723","2","1048","2","5689","0","1281","2","24673","5","2737","3","7761","1","10136","1","5138","0","7548","0","0","0","0"
"すずきまさみ","1571707207","{
int main()
____int i;
____int input;
____while(i <0)
________printf(""正の整数: "");
________scanf(""%d"", &i);
____run(, i);
int run( c, int length)
____int i;
____int input[][];
____for(i = 0; length-i>0; i++)
________for(input = ; ; input++)
}
","13080","79241","8","1525","1","4595","2","4207","4","7171","1","0","1","0","1","0","8","1684","1","15391","2","2139","0","8723","2","1048","2","5689","0","1281","2","24673","5","2737","3","7761","1","10136","1","5138","0","7548","0","0","0","0"
"すずきまさみ","1571707212","{
int main()
____int i;
____int input;
____while(i <0)
________printf(""正の整数: "");
________scanf(""%d"", &i);
____run(, i);
int run( c, int length)
____int i;
____int input[][];
____for(i = 0; length-i>0; i++)
________for(input = ; ; input++)
}
","13080","79712","8","1525","1","4595","2","4207","4","7171","1","0","1","0","1","0","8","1684","2","15391","2","2139","0","8723","2","1048","2","5689","0","1281","2","24673","5","2737","3","7761","1","10136","1","5138","0","7548","0","0","0","0"
"すずきまさみ","1571707217","{
int main()
____int i;
____int input;
____while(i <0)
________printf(""正の整数: "");
________scanf(""%d"", &i);
____run(, i);
int run( c, int length)
____int i;
____int input[][];
____for(i = 0; length-i>0; i++)
________for(input = ; ; input++)
}
","13080","80204","8","1525","1","4595","2","4207","4","7171","1","0","1","0","1","0","8","1684","2","15391","2","2139","0","8723","2","1048","2","5689","0","1281","2","24673","5","2737","3","7761","1","10136","1","5138","0","7548","0","0","0","0"
"すずきまさみ","1571707222","{
int main()
____int i;
____int input;
____while(i <0)
________printf(""正の整数: "");
________scanf(""%d"", &i);
____run(, i);
int run( c, int length)
____int i;
____int input[][];
____for(i = 0; length-i>0; i++)
}
","13080","80687","8","1525","1","4595","2","4207","4","7171","1","0","1","0","1","0","8","1684","2","15391","2","2139","0","8723","2","1048","2","5689","0","1281","2","24673","5","2737","3","7761","1","10136","1","5138","0","7548","0","0","0","0"
"すずきまさみ","1571707227","{
int main()
____int i;
____int input;
____while(i <0)
________printf(""正の整数: "");
________scanf(""%d"", &i);
____run(, i);
int run( c, int length)
____int i;
____int input[][];
____for(i = 0; length-i>0; i++)
}
","13080","81175","8","1525","1","4595","2","4207","4","7171","1","0","1","0","1","0","8","1684","2","15391","2","2139","0","8723","2","1048","2","5689","0","1281","2","24673","5","2737","3","7761","1","10136","1","5138","0","7548","0","0","0","0"
"すずきまさみ","1571707232","{
int main()
____int i;
____int input;
____while(i <0)
________printf(""正の整数: "");
________scanf(""%d"", &i);
________printf("""", input);
____run(, i);
int run( c, int length)
____int i;
____int input[][];
____for(i = 0; length-i>0; i++)
}
","13080","81629","8","10477","1","4595","2","4207","4","7171","1","0","1","0","1","0","8","1684","2","15391","3","2139","0","8723","2","1048","2","5689","0","1281","2","24673","5","2737","3","7761","1","10136","1","5138","0","7548","0","0","0","0"
"すずきまさみ","1571707237","{
int main()
____int i;
____int input;
____while(i <0)
________printf(""正の整数: "");
________scanf(""%d"", &i);
________printf("""", input);
____run(, i);
int run( c, int length)
____int i;
____int input[][];
____for(i = 0; length-i>0; i++)
}
","13080","82123","8","10477","1","4595","2","4207","4","7171","1","0","1","0","1","0","8","1684","2","15391","3","2139","0","8723","2","1048","2","5689","0","1281","2","24673","5","2737","3","7761","1","10136","1","5138","0","7548","0","0","0","0"
"すずきまさみ","1571707242","{
int main()
____int i;
____int input;
____while(i <0)
________printf(""正の整数: "");
________scanf(""%d"", &i);
________printf("""", input);
____run(, i);
int run( c, int length)
____int i;
____int input[][];
____for(i = 0; length-i>0; i++)
}
","13080","82610","8","10477","1","4595","2","4207","4","7171","1","0","1","0","1","0","8","1684","2","15391","3","2139","0","8723","2","1048","2","5689","0","1281","2","24673","5","2737","3","7761","1","10136","1","5138","0","7548","0","0","0","0"
"すずきまさみ","1571707247","{
int main()
____int i;
____int input;
____while(i <0)
________printf(""正の整数: "");
________scanf(""%d"", &i);
________printf("""", input);
____run(, i);
int run( c, int length)
____int i;
____int input[][];
____for(i = 0; length-i>0; i++)
}
","13080","83091","8","10477","1","4595","2","4207","4","7171","1","0","1","0","1","0","8","1684","2","15391","3","2139","0","8723","2","1048","2","5689","0","1281","2","24673","5","2737","3","7761","1","10136","1","5138","0","7548","0","0","0","0"
"すずきまさみ","1571707252","{
int main()
____int i;
____int input;
____while(i <0)
________printf(""正の整数: "");
________scanf(""%d"", &i);
________printf("""", input);
____run(, i);
int run( c, int length)
____int i;
____int input[][];
____for(i = 0; length-i>0; i++)
}
","13080","83520","9","10477","1","4595","2","4207","4","7171","1","0","1","0","1","0","8","1684","2","15391","3","2139","0","8723","2","1048","2","5689","0","1281","2","24673","5","2737","3","7761","1","10136","1","5138","0","7548","0","0","0","0"
"すずきまさみ","1571707257","{
int main()
____int input;
____int input;
____while(i <0)
________printf(""正の整数: "");
________scanf(""%d"", &i);
________printf("""", input);
____run(, i);
int run( c, int length)
____int i;
____int input[][];
____for(i = 0; length-i>0; i++)
}
","13080","83946","9","10477","1","4595","2","4207","4","7171","2","0","1","0","1","0","8","1684","2","15391","3","2139","0","8723","3","1048","2","5689","0","1281","2","24673","5","2737","3","7761","1","10136","1","5138","0","7548","0","0","0","0"
"すずきまさみ","1571707262","{
int main()
____int input;
____int input;
____while(i <0)
________printf(""正の整数: "");
________scanf(""%d"", &i);
________printf("""", input);
____run(, i);
int run( c, int length)
____int i;
____int input[][];
____for(i = 0; length-i>0; i++)
}
","13080","84427","9","10477","1","4595","2","4207","4","7171","2","0","1","0","1","0","8","1684","2","15391","3","2139","0","8723","3","1048","2","5689","0","1281","2","24673","5","2737","3","7761","1","10136","1","5138","0","7548","0","0","0","0"
"すずきまさみ","1571707267","{
int main()
____int input;
____int input;
____while(i <0)
________printf(""正の整数: "");
________scanf(""%d"", &i);
________printf("""", input);
____run(, i);
int run( c, int length)
____int i;
____int input[][];
____for(i = 0; length-i>0; i++)
}
","13080","84906","9","10477","1","4595","2","4207","4","7171","2","0","1","0","1","0","8","1684","2","15391","3","2139","0","8723","3","1048","2","5689","0","1281","2","24673","5","2737","3","7761","1","10136","1","5138","0","7548","0","0","0","0"
"すずきまさみ","1571707272","{
int main()
____int input;
____int input;
____while(i <0)
________printf(""正の整数: "");
________scanf(""%d"", &i);
________printf("""", input);
____run(, i);
int run( c, int length)
____int i;
____int input[][];
____for(i = 0; length-i>0; i++)
}
","13080","85399","9","10477","1","4595","2","4207","4","7171","2","0","1","0","1","0","8","1684","2","15391","3","2139","0","8723","3","1048","2","5689","0","1281","2","24673","5","2737","3","7761","1","10136","1","5138","0","7548","0","0","0","0"
"すずきまさみ","1571707277","{
int main()
____int input;
____int input;
____while(i <0)
________printf(""正の整数: "");
________scanf(""%d"", &i);
________printf("""", input);
____run(, i);
int run( c, int length)
____int i;
____int input[][];
____for(i = 0; length-i>0; i++)
}
","13080","85888","9","10477","1","4595","2","4207","4","7171","2","0","1","0","1","0","8","1684","2","15391","3","2139","0","8723","3","1048","2","5689","0","1281","2","24673","5","2737","3","7761","1","10136","1","5138","0","7548","0","0","0","0"
"すずきまさみ","1571707282","{
int main()
____int input;
____int input;
____while(i <0)
________printf(""正の整数: "");
________scanf(""%d"", &i);
________printf("""", input);
____run(, i);
int run( c, int length)
____int i;
____int input[][];
____for(i = 0; length-i>0; i++)
}
","13080","86381","9","10477","1","4595","2","4207","4","7171","2","0","1","0","1","0","8","1684","2","15391","3","2139","0","8723","3","1048","2","5689","0","1281","2","24673","5","2737","3","7761","1","10136","1","5138","0","7548","0","0","0","0"
"すずきまさみ","1571707287","{
int main()
____int input;
____int input;
____while(i <0)
________printf(""正の整数: "");
________scanf(""%d"", &i);
________printf("""", input);
____run(, i);
int run( c, int length)
____int i;
____int input[][];
____for(i = 0; length-i>0; i++)
}
","13080","86868","9","10477","1","4595","2","4207","4","7171","2","0","1","0","1","0","8","1684","2","15391","3","2139","0","8723","3","1048","2","5689","0","1281","2","24673","5","2737","3","7761","1","10136","1","5138","0","7548","0","0","0","0"
"すずきまさみ","1571707292","{
int main()
____int input;
____while(i <0)
________printf(""正の整数: "");
________scanf(""%d"", &i);
________printf(""%d"", input);
____run(, i);
int run( c, int length)
____int i;
____int input[][];
____for(i = 0; length-i>0; i++)
}
","13080","87353","9","10477","1","4595","2","4207","4","7171","2","0","1","0","1","0","8","1684","2","15391","3","2139","0","8723","3","1048","2","5689","0","1281","2","24673","5","2737","3","7761","1","10136","1","5138","0","7548","0","0","0","0"
"すずきまさみ","1571707297","{
int main()
____int input;
____while(i <0)
________printf(""正の整数: "");
________scanf(""%d"", &i);
________printf(""%d"", input);
____run(, i);
int run( c, int length)
____int i;
____int input[][];
____for(i = 0; length-i>0; i++)
}
","13080","87841","9","10477","1","4595","2","4207","4","7171","2","0","1","0","1","0","8","1684","2","15391","3","2139","0","8723","3","1048","2","5689","0","1281","2","24673","5","2737","3","7761","1","10136","1","5138","0","7548","0","0","0","0"
"すずきまさみ","1571707302","{
int main()
____int input;
____while(i <0)
________printf(""正の整数: "");
________scanf(""%d"", &i);
________printf(""%d"", input);
____run(, i);
int run( c, int length)
____int i;
____int input[][];
____for(i = 0; length-i>0; i++)
}
","13080","88329","9","10477","1","4595","2","4207","4","7171","2","0","1","0","1","0","8","1684","2","15391","3","2139","0","8723","3","1048","2","5689","0","1281","2","24673","5","2737","3","7761","1","10136","1","5138","0","7548","0","0","0","0"
"すずきまさみ","1571707307","{
int main()
____int input;
____while(i <0)
________printf(""正の整数: "");
________scanf(""%d"", &i);
________printf(""%d"", input);
____run(, i);
int run( c, int length)
____int i;
____int input[][];
____for(i = 0; length-i>0; i++)
}
","13080","88812","9","10477","1","4595","2","4207","4","7171","2","0","1","0","1","0","8","1684","2","15391","3","2139","0","8723","3","1048","2","5689","0","1281","2","24673","5","2737","3","7761","1","10136","1","5138","0","7548","0","0","0","0"
"すずきまさみ","1571707312","{
int main()
____int input;
____while(i <0)
________printf(""正の整数: "");
________scanf(""%d"", &i);
________printf(""%d"", input);
____run(, i);
int run( c, int length)
____int i;
____int input[][];
____for(i = 0; length-i>0; i++)
}
","13080","89284","9","10477","1","4595","2","4207","4","7171","2","0","1","0","1","0","8","1684","2","15391","3","2139","0","8723","3","1048","2","5689","0","1281","2","24673","5","2737","3","7761","1","10136","1","5138","0","7548","0","0","0","0"
"すずきまさみ","1571707317","{
int main()
____int input;
____while(i <0)
________printf(""正の整数: "");
________scanf(""%d"", &i);
________printf(""%d"", input);
____run(, i);
int run( c, int length)
____int i;
____int input[][];
____for(i = 0; length-i>0; i++)
}
","13080","89771","9","10477","1","4595","2","4207","4","7171","2","0","1","0","1","0","8","1684","2","15391","3","2139","0","8723","3","1048","2","5689","0","1281","2","24673","5","2737","3","7761","1","10136","1","5138","0","7548","0","0","0","0"
"すずきまさみ","1571707322","{
int main()
____int input;
____while(i <0)
________printf(""正の整数: "");
________scanf(""%d"", &i);
________printf(""%d"", input);
____run(, i);
int run( c, int length)
____int i;
____int input[][];
____for(i = 0; length-i>0; i++)
}
","13080","90256","9","10477","1","4595","2","4207","4","7171","2","0","1","0","1","0","8","1684","2","15391","3","2139","0","8723","3","1048","2","5689","0","1281","2","24673","5","2737","3","7761","1","10136","1","5138","0","7548","0","0","0","0"
"すずきまさみ","1571707327","{
int main()
____int input;
____while(i <0)
________printf(""正の整数: "");
________scanf(""%d"", &i);
________printf(""%d"", input);
____run(, i);
int run( c, int length)
____int i;
____int input[][];
____for(i = 0; length-i>0; i++)
}
","13080","90753","9","10477","1","4595","2","4207","4","7171","2","0","1","0","1","0","8","1684","2","15391","3","2139","0","8723","3","1048","2","5689","0","1281","2","24673","5","2737","3","11255","1","10136","1","5138","0","7548","0","0","0","0"
"すずきまさみ","1571707332","{
int main()
____int input;
____while(i <0)
________printf(""正の整数: "");
________scanf(""%d"", &i);
________printf(""%d"", input);
____run(, i);
int run( c, int length)
____int i;
____int input[][];
____for(i = 0; length-i>0; i++)
}
","13080","91248","9","10477","1","4595","2","4207","4","7171","2","0","1","0","1","0","8","1684","2","15391","3","2139","0","8723","3","1048","2","5689","0","1281","2","24673","5","2737","3","11255","1","10136","1","5138","0","7548","0","0","0","0"
"すずきまさみ","1571707337","{
int main()
____int input;
____while(i <0)
________printf(""正の整数: "");
________scanf(""%d"", &i);
________printf(""%d"", input);
____run(, i);
int run( c, int length)
____int i;
____int input[][];
____for(i = 0; length-i>0; i++)
}
","13080","91744","9","10477","1","4595","2","4207","4","7171","2","0","1","0","1","0","8","1684","2","15391","3","2139","0","8723","3","1048","2","5689","0","1281","2","24673","5","2737","3","11255","1","10136","1","5138","0","7548","0","0","0","0"
"すずきまさみ","1571707342","{
int main()
____int input;
____while(i <0)
________printf(""正の整数: "");
________scanf(""%d"", &i);
________printf(""%d"", input);
____run(, i);
int run( c, int length)
____int i;
____int input[][];
____for(i = 0; length-i>0; i++)
}
","13080","92226","9","10477","1","4595","2","4207","4","7171","2","0","1","0","1","0","8","1684","2","15391","3","2139","0","8723","3","1048","2","5689","0","1281","2","24673","5","2737","3","11255","1","10136","1","5138","0","7548","0","0","0","0"
"すずきまさみ","1571707347","{
int main()
____int input;
____while(i <0)
________printf(""正の整数: "");
________scanf(""%d"", &i);
________printf(""%d"", input);
____run(, i);
int run( c, int length)
____int i;
____int input[][];
____for(i = 0; length-i>0; i++)
}
","13080","92709","9","10477","1","4595","2","4207","4","7171","2","0","1","0","1","0","8","1684","2","15391","3","2139","0","8723","3","1048","2","5689","0","1281","2","24673","5","2737","3","11255","1","10136","1","5138","0","7548","0","0","0","0"
"すずきまさみ","1571707352","{
int main()
____int input;
____while(i <0)
________printf(""正の整数: "");
________scanf(""%d"", &i);
________printf(""%d"", input);
____run(, i);
int run( c, int length)
____int i;
____int input[][];
____for(i = 0; length-i>0; i++)
}
","13080","93195","9","10477","1","4595","2","4207","4","7171","2","0","1","0","1","0","8","1684","2","15391","3","2139","0","8723","3","1048","2","5689","0","1281","2","24673","5","2737","3","11255","1","10136","1","5138","0","7548","0","0","0","0"
"すずきまさみ","1571707357","{
int main()
____int input;
____while(i <0)
________printf(""正の整数: "");
________scanf(""%d"", &i);
________printf(""%d"", input);
____run(, i);
int run( c, int length)
____int i;
____int input[][];
____for(i = 0; length-i>0; i++)
}
","13080","93685","9","10477","1","4595","2","4207","4","7171","2","0","1","0","1","0","8","1684","2","15391","3","2139","0","8723","3","1048","2","5689","0","1281","2","24673","5","2737","3","11255","1","10136","1","5138","0","7548","0","0","0","0"
"すずきまさみ","1571707362","{
int main()
____int input;
____while(i <0)
________printf(""正の整数: "");
________scanf(""%d"", &i);
________printf(""%d"", input);
____run(, i);
int run( c, int length)
____int i;
____int input[][];
____for(i = 0; length-i>0; i++)
}
","13080","94176","9","10477","1","4595","2","4207","4","7171","2","0","1","0","1","0","8","1684","2","15391","3","2139","0","8723","3","1048","2","5689","0","1281","2","24673","5","2737","3","11255","1","10136","1","5138","0","7548","0","0","0","0"
"すずきまさみ","1571707367","{
int main()
____int input;
____while(i <0)
________printf(""正の整数: "");
________scanf(""%d"", &i);
________printf(""%d"", input);
____run(, i);
int run( c, int length)
____int i;
____int input[][];
____for(i = 0; length-i>0; i++)
}
","13080","94628","9","10477","1","4595","2","4207","4","7171","2","0","1","0","1","0","8","1684","3","15391","3","2139","0","8723","3","1048","2","5689","0","1281","2","24673","5","2737","3","11255","1","10136","1","5138","0","7548","0","0","0","0"
"すずきまさみ","1571707372","{
int main()
____int input;
____while(i <0)
________printf(""正の整数: "");
________scanf(""%d"", &input);
________printf(""%d"", input);
____run(, i);
int run( c, int length)
____int i;
____int input[][];
____for(i = 0; length-i>0; i++)
}
","13080","95099","9","10477","1","4595","2","4207","4","7171","2","0","1","0","1","0","8","1684","3","15391","3","2139","0","8723","3","1048","2","5689","0","1281","2","24673","5","2737","3","11255","1","10136","1","5138","0","7548","0","0","0","0"
"すずきまさみ","1571707377","{
int main()
____int input;
____while(i <0)
________printf(""正の整数: "");
________scanf(""%d"", &input);
________printf(""%d"", input);
____run(, i);
int run( c, int length)
____int i;
____int input[][];
____for(i = 0; length-i>0; i++)
}
","13080","95583","9","10477","1","4595","2","4207","4","7171","2","0","1","0","1","0","8","1684","3","15391","3","2139","0","8723","3","1048","2","5689","0","9214","2","24673","5","2737","3","11255","1","10136","1","5138","0","7548","0","0","0","0"
"すずきまさみ","1571707382","{
int main()
____int input;
____while(i <0)
________printf(""正の整数: "");
________scanf(""%d"", &input);
________printf(""%d"", input);
____run(, i);
int run( c, int length)
____int i;
____int input[][];
____for(i = 0; length-i>0; i++)
}
","13080","96075","9","10477","1","4595","2","4207","4","7171","2","0","1","0","1","0","8","1684","3","15391","3","2139","0","8723","3","1048","2","5689","0","9214","2","24673","5","2737","3","11255","1","10136","1","5138","0","7548","0","0","0","0"
"すずきまさみ","1571707387","{
int main()
____int input;
____while(i <0)
________printf(""正の整数: "");
________scanf(""%d"", &input);
________printf(""%d"", input);
____run(, i);
int run( c, int length)
____int i;
____int input[][];
____for(i = 0; length-i>0; i++)
}
","13080","96546","9","10477","1","4595","2","4207","4","7171","2","0","1","0","1","0","8","1684","3","15391","3","2139","0","8723","3","1048","2","5689","0","9214","2","24673","5","2737","3","11255","1","10136","1","5138","0","7548","0","0","0","0"
